# Phonetic variation patterns, developed by Agus Pudjijono, ANU, 2008
#
ALL,h,@,None,None,None,None
END,e,@,None,None,None,None
ALL,t,d,None,None,None,None
ALL,d,t,None,None,None,None
ALL,c,k,None,None,None,None
ALL,w,@,None,None,None,None
ALL,nn,n,None,None,None,None
ALL,ll,l,None,None,None,None
ALL,ee,i,None,None,None,None
ALL,z,s,None,None,None,None
ALL,s,z,None,None,None,None
ALL,ie,i,None,None,None,None
END,y,i,None,None,None,None
ALL,g,k,None,None,None,None
ALL,th,t,None,None,None,None
ALL,rr,r,None,None,None,None
ALL,b,p,None,None,None,None
ALL,j,s,None,None,None,None
ALL,ey,y,None,None,None,None
ALL,s,j,None,None,None,None
ALL,tt,t,None,None,None,None
ALL,ei,i,None,None,None,None
ALL,ou,o,None,None,None,None
ALL,au,o,None,None,None,None
ALL,ck,k,None,None,None,None
ALL,ia,ya,None,None,None,None
ALL,j,z,None,None,None,None
ALL,z,j,None,None,None,None
ALL,k,ck,None,None,None,None
ALL,ya,ia,None,None,None,None
ALL,v,f,None,None,None,None
ALL,f,v,None,None,None,None
ALL,s,st,None,None,None,None
ALL,oo,u,None,None,None,None
ALL,ph,f,None,None,None,None
ALL,mm,m,None,None,None,None
ALL,ce,se,None,None,None,None
ALL,ry,rie,None,None,None,None
ALL,rie,ry,None,None,None,None
ALL,ff,f,None,None,None,None
ALL,x,@,None,None,None,None
ALL,q,k,None,None,None,None
END,ss,s,None,None,None,None
MIDDLE,j,y,V,V,None,None
ALL,sh,x,None,None,None,None
START,ha,h,None,None,None,None
ALL,ng,nk,None,None,None,None
END,es,s,None,None,None,None
ALL,pp,p,None,None,None,None
START,ch,x,None,None,None,None
ALL,dd,t,None,None,None,None
ALL,nk,ng,None,None,None,None
ALL,sch,sh,None,None,None,None
ALL,ci,si,None,None,None,None
ALL,aa,ar,None,None,None,None
ALL,kk,k,None,None,None,None
START,ho,h,None,None,None,None
END,ee,ea,None,None,None,None
END,sz,s,None,None,None,None
START,ts,t,None,V,None,None
ALL,sz,s,None,None,None,None
ALL,cc,k,None,None,None,None
ALL,gg,k,None,None,None,None
START,he,h,None,None,None,None
MIDDLE,gh,@,y;-2;b;h;d,None,None,None
END,r,ah,V,None,None,None
ALL,tch,ch,None,None,None,None
START,hu,h,None,None,None,None
MIDDLE,ch,x,None,None,None,None
MIDDLE,z,s,None,V,None,None
ALL,zz,s,None,None,None,None
END,re,ar,None,None,None,None
START,sl,s,None,None,None,None
ALL,cia,sia,None,None,None,None
START,oh,h,None,None,None,None
ALL,bb,p,None,None,None,None
ALL,sc,sk,None,None,None,None
ALL,cy,si,None,None,None,None
START,ah,h,None,None,None,None
ALL,zs,s,None,None,None,None
ALL,ca,ka,None,None,None,None
ALL,dg,g,None,None,None,None
ALL,yth,ith,None,None,None,None
ALL,cy,sy,None,None,None,None
START,kn,n,None,None,None,None
START,sn,s,None,None,None,None
START,hi,h,None,None,None,None
ALL,wha,wa,None,None,None,None
START,sm,s,None,None,None,None
ALL,isl,il,None,None,None,None
END,gh,e,V,None,None,None
ALL,co,ko,None,None,None,None
MIDDLE,gi,ji,None,None,None,None
ALL,cio,sio,None,None,None,None
END,ss,as,V,None,None,None
END,gn,n,None,None,None,None
END,gne,n,None,None,None,None
ALL,mps,ms,None,None,None,None
END,le,ile,C,None,None,None
ALL,whi,wi,None,None,None,None
ALL,tia,xia,None,None,None,None
MIDDLE,stl,sl,V,None,None,None
END,sch,x,None,None,None,None
ALL,cia,xia,None,None,None,None
ALL,jj,j,None,None,None,None
START,cy,s,None,None,None,None
MIDDLE,sch,x,None,None,None,None
ALL,cie,sie,None,None,None,None
START,cz,c,None,None,None,None
START,eh,h,None,None,None,None
ALL,tch,x,None,None,None,None
ALL,mpt,mt,None,None,None,None
ALL,cg,k,None,None,None,None
ALL,umb,um,None,None,None,None
ALL,gh,k,n;-1;i,None,None,None
START,hy,h,None,None,None,None
START,gn,n,None,None,None,None
ALL,sce,se,None,None,None,None
ALL,sci,si,None,None,None,None
END,hr,ah,V,None,None,None
END,mb,m,V,None,None,None
ALL,lough,low,None,None,None,None
ALL,why,wy,None,None,None,None
ALL,ght,t,None,None,None,None
ALL,whe,we,None,None,None,None
ALL,rz,rsh,None,None,None,None
START,chr,kr,None,V,None,None
ALL,cq,k,None,None,None,None
ALL,ghn,n,None,None,None,None
START,x,s,None,None,None,None
END,dl,dil,None,None,None,None
START,mn,n,None,V,None,None
START,pt,t,None,None,None,None
ALL,lle,le,None,None,None,None
ALL,qq,k,None,None,None,None
START,chh,kh,None,None,None,None
START,ih,h,None,None,None,None
MIDDLE,lj,ld,V,V,None,None
ALL,zz,ts,None,None,None,None
MIDDLE,ach,k,None,n;1;i;e,None,None
END,dt,t,None,None,None,None
ALL,td,t,None,None,None,None
END,ned,nd,None,None,None,None
ALL,lz,lsh,None,None,None,None
ALL,ghne,ne,None,None,None,None
MIDDLE,z,ts,C,None,None,None
START,cl,kl,None,V,None,None
START,pf,f,None,None,None,None
START,uh,h,None,None,None,None
START,tj,ch,None,V,None,None
START,gh,g,None,None,None,None
MIDDLE,gy,ky,n;-1;e;i,None,n;rgy;ogy,None
MIDDLE,r,ah,V,C,None,None
MIDDLE,cz,ch,None,None,None,None
ALL,cci,xi,None,None,None,None
END,tl,til,None,None,None,None
ALL,ough,of,None,None,None,None
ALL,ff,v,None,None,None,None
START,cr,kr,None,V,None,None
START,gh,@,None,None,None,None
ALL,cu,ku,None,None,None,None
MIDDLE,aggi,aji,None,None,None,None
END,ew,e,None,None,None,None
ALL,nc,nk,None,None,None,None
START,ps,s,None,None,None,None
ALL,xx,@,None,None,None,None
ALL,who,wo,None,None,None,None
ALL,wr,r,None,None,None,None
END,ow,o,None,None,None,None
ALL,sholm,solm,None,None,None,None
ALL,vv,f,None,None,None,None
ALL,gh,f,y;-1;u|y;-3;c;g;l;r;t,None,None,None
ALL,wh,h,None,None,None,None
ALL,wicz,wis,None,None,None,None
MIDDLE,q,kw,V,V,None,None
ALL,ysl,yl,None,None,None,None
ALL,vv,ff,None,None,None,None
ALL,ff,vv,None,None,None,None
START,pn,n,None,V,None,None
START,ghi,j,None,None,None,None
START,gin,kin,None,None,None,None
ALL,dge,je,None,None,None,None
ALL,whu,wu,None,None,None,None
ALL,tion,xion,None,None,None,None
END,gnes,ns,None,None,None,None
START,gy,ky,None,None,None,None
START,gie,kie,None,None,None,None
MIDDLE,mch,mk,None,None,None,None
ALL,jr,dr,None,None,None,None
ALL,xc,@,None,None,None,None
START,gey,key,None,None,None,None
START,vanch,vank,None,None,None,None
END,gc,k,None,None,None,None
END,jc,k,None,None,None,None
START,wr,r,None,None,None,None
ALL,ct,kt,None,None,None,None
ALL,btl,tl,None,None,None,None
ALL,augh,arf,None,None,None,None
START,q,kw,None,None,None,None
MIDDLE,gn,n,None,C,None,None
MIDDLE,wz,z,V,None,None,None
ALL,hroug,rew,None,None,None,None
START,yj,y,None,V,None,None
ALL,nx,nks,None,None,None,None
START,tsj,ch,None,V,None,None
MIDDLE,wsk,vskie,V,None,None,None
END,wsk,vskie,V,None,None,None
END,stl,sl,V,None,None,None
END,tnt,ent,None,None,None,None
END,eaux,oh,None,None,None,None
ALL,exci,ecs,None,None,None,None
ALL,x,ecs,None,None,None,None
MIDDLE,hr,ah,V,C,None,None
END,les,iles,C,None,None,None
ALL,mpts,mps,None,None,None,None
MIDDLE,bacher,baker,None,None,None,None
MIDDLE,macher,maker,None,None,None,None
START,caesar,sesar,None,None,None,None
ALL,chia,kia,None,None,None,None
MIDDLE,chae,kae,None,None,None,None
START,charac,karak,None,None,None,None
START,charis,karis,None,None,None,None
START,chor,kor,None,None,None,None
START,chym,kym,None,None,None,None
START,chia,kia,None,None,None,None
START,chem,kem,None,None,None,None
START,chl,kl,None,None,None,None
START,chn,kn,None,None,None,None
START,chm,km,None,None,None,None
START,chb,kb,None,None,None,None
START,chf,kf,None,None,None,None
START,chv,kv,None,None,None,None
START,chw,kw,None,None,None,None
ALL,achl,akl,None,None,None,None
ALL,ochl,okl,None,None,None,None
ALL,uchl,ukl,None,None,None,None
ALL,echl,ekl,None,None,None,None
ALL,achr,akr,None,None,None,None
ALL,ochr,okr,None,None,None,None
ALL,uchr,ukr,None,None,None,None
ALL,echr,ekr,None,None,None,None
ALL,achn,akn,None,None,None,None
ALL,ochn,okn,None,None,None,None
ALL,uchn,ukn,None,None,None,None
ALL,echn,ekn,None,None,None,None
ALL,achm,akm,None,None,None,None
ALL,ochm,okm,None,None,None,None
ALL,uchm,ukm,None,None,None,None
ALL,echm,ekm,None,None,None,None
ALL,achb,akb,None,None,None,None
ALL,ochb,okb,None,None,None,None
ALL,uchb,ukb,None,None,None,None
ALL,echb,ekb,None,None,None,None
ALL,achh,akh,None,None,None,None
ALL,ochh,okh,None,None,None,None
ALL,uchh,ukh,None,None,None,None
ALL,echh,ekh,None,None,None,None
ALL,achf,akf,None,None,None,None
ALL,ochf,okf,None,None,None,None
ALL,uchf,ukf,None,None,None,None
ALL,echf,ekf,None,None,None,None
ALL,achv,akv,None,None,None,None
ALL,ochv,okv,None,None,None,None
ALL,uchv,ukv,None,None,None,None
ALL,echv,ekv,None,None,None,None
ALL,achw,akw,None,None,None,None
ALL,ochw,okw,None,None,None,None
ALL,uchw,ukw,None,None,None,None
ALL,echw,ekw,None,None,None,None
ALL,cht,kt,None,None,None,None
ALL,chs,ks,None,None,None,None
ALL,orches,orkes,None,None,None,None
ALL,archit,arkit,None,None,None,None
ALL,orchid,orkid,None,None,None,None
START,sch,sk,None,None,None,None
START,vonch,vonk,None,None,None,None
ALL,acci,aksi,None,n;1;hu,None,None
ALL,acce,akse,None,n;1;hu,None,None
ALL,acch,aksh,None,n;1;hu,None,None
ALL,uccee,uksee,None,None,None,None
ALL,ucces,ukses,None,None,None,None
ALL,cce,xi,None,None,None,None
ALL,cch,xh,None,None,None,None
ALL,cc,k,None,None,None,None
ALL,cq,k,None,None,None,None
ALL,cg,k,None,None,None,None
ALL,dgi,ji,None,None,None,None
ALL,dgy,jy,None,None,None,None
ALL,dg,tk,None,None,None,None
ALL,dt,t,None,None,None,None
MIDDLE,gh,k,n;-1;a;i;u;e;o,None,None,None
START,gh,k,None,None,None,None
MIDDLE,gn,kn,y;-1;a;i;u;e;o,None,n;slavo,y;a;i;u;e;o
MIDDLE,gney,ney,None,None,n;slavo,None
MIDDLE,gli,kli,None,None,n;slavo,None
START,ges,kes,None,None,None,None
START,gep,kep,None,None,None,None
START,geb,keb,None,None,None,None
START,gel,kel,None,None,None,None
START,gib,kib,None,None,None,None
START,gil,kil,None,None,None,None
START,gei,kei,None,None,None,None
START,ger,ker,None,None,None,None
MIDDLE,ger,ker,n;-1;e;i,None,n;danger;ranger;manger,None
MIDDLE,ge,ke,None,None,None,y;van;von;sch
MIDDLE,gi,ki,None,None,None,y;van;von;sch
MIDDLE,aggi,aki,None,None,None,y;van;von;sch
MIDDLE,oggi,oki,None,None,None,y;van;von;sch
MIDDLE,oggi,oji,None,None,None,None
MIDDLE,ge,jy,None,None,None,None
MIDDLE,gy,jy,None,None,None,None
MIDDLE,gier,jier,None,None,None,None
MIDDLE,get,ket,None,None,None,None
START,yh,h,None,None,None,None
MIDDLE,sanjose,sanhose,None,None,None,None
END,illo,ilo,None,None,None,None
END,illa,ila,None,None,None,None
END,alle,ale,None,None,None,None
ALL,pb,p,None,None,None,None
START,sugar,xugar,None,None,None,None
ALL,sheim,seim,None,None,None,None
ALL,shoek,soek,None,None,None,None
ALL,sholz,solz,None,None,None,None
START,sw,s,None,None,None,None
ALL,scher,xer,None,None,None,None
ALL,schen,xen,None,None,None,None
ALL,schoo,skoo,None,None,None,None
ALL,schuy,skuy,None,None,None,None
ALL,sched,sked,None,None,None,None
ALL,schem,skem,None,None,None,None
START,sch,x,None,n;1;a;i;u;e;o;w,None,None
ALL,scy,sy,None,None,None,None
END,aiss,ai,None,None,None,None
END,aisz,ai,None,None,None,None
END,oiss,oi,None,None,None,None
END,oisz,oi,None,None,None,None
ALL,tth,t,None,None,None,None
END,aw,a,None,None,None,None
END,iw,i,None,None,None,None
END,uw,u,None,None,None,None
END,yw,y,None,None,None,None
ALL,witz,ts,None,None,None,None
ALL,wicz,ts,None,None,None,None
END,iaux,iauks,None,None,None,None
END,eaux,eauks,None,None,None,None
END,aux,auks,None,None,None,None
END,oux,ouks,None,None,None,None
ALL,zh,jh,None,None,None,None
END,i,y,None,None,None,None
ALL,zzo,so,None,None,None,None
ALL,zzi,si,None,None,None,None
ALL,zza,sa,None,None,None,None
MIDDLE,z,s,n;-1;t,None,y;slavo,None
MIDDLE,ks,x,None,None,None,None
MIDDLE,cks,x,y;-1;a;i;u;e;o,None,None,None
END,l,le,y;-1;ai,None,None,None

