, , NomeFilho, SNome, SSNome, TSNome,,NomeMae, SNome, SSNome, TSNome
  ,ROT:3-SMAE:2-SPAI:2,IVAN , andrade , goncalves , santana ,  , josef , silverio , andrade , cunha
 , ROT:2-SMAE:1-SPAI:2,ANTONIO , pereira, NULL , NULL , , merandulina , cardoso , telles , silva
 , ROT:4-SMAE:2-SPAI:2,LUCAS , filho , castro, NULL ,  , margareti , filho , silva , motta
 , ROT:0-SMAE:1-SPAI:1,LUIZ , silva , costa, NULL ,  , gricia , silva , marques , carvalho
 , ROT:5-SMAE:2-SPAI:2,JOSE PAULO , leonardo, NULL , NULL ,  , alexandre , coelho , leonardo , batista
 , ROT:0-SMAE:1-SPAI:1,JAIRO , chaves , teixeira, NULL ,  , amantina , chaves , cerqueira , oliveira
 , 