rec-id,given-name,surname,ssurname,tsurname,dataNasc,codMunicipio,codBairro
rec-00-org,IVAN,goncalves,santana,monteiro,1041928,330100,40
rec-01-org,ANTONIO,silva,pereira,maciel,20121929,330455,801
rec-02-org,LUCAS,silveira,castro,abreu,15031978,330455,5
rec-03-org,LUIZ,costa,guedes,santos,24091936,330170,22
rec-04-org,JOSE PAULO,santos,soares,fernandes,7081946,330411,106
rec-05-org,JAIRO,teixeira,alves,nicali,6081979,330455,148
rec-06-org,JOSE,felix,souza,morte,4111942,330455,7
rec-07-org,JULIO,carvalho,macedo,silva,7021925,330170,101
rec-08-org,JOSE FLORENCIO,castilho,bento,silva,30031949,330010,11
rec-09-org,PEDRO BONIFACIO,lima,bernardes,silva,12091967,330330,42
rec-10-org,ADILSON,silva,conceicao,pichum,20041943,330040,46
rec-100-org,MARCOS,maia,silva,castro,14031930,330455,304
rec-101-org,SAMUEL,silva,silva,cunha,23041918,330190,68
rec-102-org,MANUEL SEVERINO,goncalves,lima,teixeira,8091970,330630,15
rec-103-org,JOAO,candido,esposito,ventura,14041929,330580,65
rec-104-org,MARTINS LUIZ,vianna,duro,fernandes,16051988,330455,128
rec-105-org,MARCOS ADRIANO,santos,candido,aquino,20071915,330455,16
rec-106-org,JOSE RUBENS,silva,silva,souza,5061974,330490,26
rec-107-org,RAIMUNDO FERNANDES,caldas,dias,figueira,10101946,330455,1
rec-108-org,JORGE EMANOEL,pereira,pereira,costa,5031942,330010,33
rec-109-org,BERNARDO,caram,araujo,peyon,11081959,330350,132
rec-11-org,ALEXANDRE,pereira,ribeiro,silva,13031938,330455,156
rec-110-org,NELIO,costa,silva,silva,13041944,330190,58
rec-111-org,JOAO,rosa,barreto,souza,14111992,330411,36
rec-112-org,MARCOS VINICIUS,pacheco,senhorinho,duarte,26061968,330455,2
rec-113-org,ALEX,antunes,macedo,andrade,2121931,330455,10
rec-114-org,SILVIO ROBERTO,penna,costa,santos,3071936,330455,109
rec-115-org,CANDIDO,santos,medeiros,craveiro,28031983,330455,131
rec-116-org,THIAGO CARLOS,tavares,sobrinho,faria,28111943,330510,157
rec-117-org,CACILABNER FLORENTINO,silva,silva,silva,22071926,330340,41
rec-118-org,SEBASTIAO PATRICIO,melo,ferraz,silva,2091974,330630,71
rec-119-org,BENIGNO,maria,silva,crespo,17091942,330250,141
rec-12-org,JUAREZ OLYMPIO,schuaber,zarrete,serafim,30101960,330455,131
rec-120-org,PAULO JOSE,vasconcellos,santos,rocha,6031959,330045,70
rec-121-org,JOAQUIM,silva,santos,senna,26121981,330390,108
rec-122-org,WALDIR,ferreira,magalhaes,silva,18101940,330455,117
rec-123-org,ALDACYR,macario,santos,jesus,5061933,330455,44
rec-124-org,DAVI OLIVEIRA,gomes,santos,vasconcellos,13041928,330340,124
rec-125-org,CICERO BENEDITO,coury,moyses,pereira,25121950,330455,127
rec-126-org,JOSE,costa,tereza,santos,27041949,330330,122
rec-127-org,PAULO HENRIQUE,lima,muniz,turkienicz,28101931,330350,50
rec-128-org,HELIO,barros,rapoza,gomes,6071931,330455,33
rec-129-org,LEANDRO,anna,silva,silva,4091951,330350,139
rec-13-org,MANOEL,alves,nicolau,silva,12031970,330200,103
rec-130-org,JOSE LUIZ,rocha,silva,oliveira,16031923,330452,120
rec-131-org,LUIZ CARLOS,garcia,silva,reis,18021929,330190,1
rec-132-org,ANTONIO,reis,duczmal,ananias,29051931,330350,28
rec-133-org,SERGIO ROBERTO,bello,silva,neves,9111984,330455,121
rec-134-org,MARCO ANTONIO,elias,conceicao,ribeiro,24051945,330455,313
rec-135-org,HELENO,silva,nunes,andrade,16011933,330455,38
rec-136-org,JOSE ANJO,correa,ecard,carneiro,1121928,330455,54
rec-137-org,MANOEL,brito,nascimento,almeida,28061932,330455,24
rec-138-org,PAULO FRANCISCO,pavao,siqueira,castilho,23041966,330455,123
rec-139-org,FRANCISCO CESARIO,brito,castelo,domingo,16071935,330455,100
rec-14-org,ANDRE,lopes,conceicao,pecanha,20121938,330210,114
rec-140-org,LUIZ JOSE,lacerda,rodrigues,mattos,20081957,330580,127
rec-141-org,ABEL MACARIO,cerdeira,souza,amorim,24021931,330455,20
rec-142-org,VANDECI OLIVEIRA,rocha,santos,carneiro,7101960,330455,15
rec-143-org,FRANCISCO,cardim,amorim,nascimento,26071935,330455,46
rec-144-org,CARLOS JAIME,monteiro,carneiro,carballo,27061929,330205,146
rec-145-org,LUIZ,silva,siqueira,mormo,17052013,330045,139
rec-146-org,JEFFERSON,lagreca,caldas,silva,16061926,330320,21
rec-147-org,JOAO JOSE,souza,quintanilha,pereira,29101942,330510,38
rec-148-org,SATIRO,bispo,santos,volotao,21011967,330630,7
rec-149-org,AROLDO,pereira,oliveira,mendes,24021964,330160,50
rec-15-org,WILLIAM RODRIGUES,souza,andrade,ferreira,28081930,330510,46
rec-150-org,ADELINO,peres,oliveira,silva,5011945,330455,157
rec-151-org,ALVARO,cruz,garcez,teixeira,20021939,330550,139
rec-152-org,AURINO,silva,souza,abreu,15021928,330000,46
rec-153-org,MARCOS ANDRE,silva,silva,oliveira,18021959,330310,10
rec-154-org,ANDERSON PAULO,mateus,santos,sobrinho,25022013,330370,157
rec-155-org,SEVERINO XAVIER,oliveira,basilio,oliveira,2021939,330455,141
rec-156-org,CIPRIANO LUIZ,araujo,pereira,santos,3121974,330350,81
rec-157-org,PAULO FERNANDO,araujo,mello,conceicao,11111935,330630,46
rec-158-org,JUCEMIR ANTONIO,lima,castro,souza,8091942,330455,149
rec-159-org,JOSE CARLOS,nogueira,avellar,rocha,24081952,330330,50
rec-16-org,LUIZ CARLOS,carvalho,monteiro,lima,7081929,330060,149
rec-160-org,WALDERMINO,sousa,silva,tavares,2101978,330490,51
rec-161-org,SEVERINO,pereira,fernandes,rodrigues,3021925,330455,113
rec-162-org,GONCALO,calixto,silva,silva,1071926,330455,15
rec-163-org,PEDRO,conceicao,santos,monteiro,4111929,330350,56
rec-164-org,FRANCIMAR,silva,silva,assis,5081960,330100,155
rec-165-org,JOSE NUNES,oliveira,silva,gomes,15011931,330170,401
rec-166-org,EDMILSON,santos,araujo,souza,22041958,330630,114
rec-167-org,LUIS ALEXANDRE,oliveira,lannes,oliveira,23061938,330227,124
rec-168-org,JORGE FRANCISCO,bahia,silva,blaudt,13011957,330455,54
rec-169-org,FABIO ANTONIO,assumpcao,santos,santos,29101955,330600,9
rec-17-org,RAPHAEL DIMAS,valdivieso,silva,santos,21121957,330455,43
rec-170-org,LUCAS CASTRO,cortes,gomes,santos,2101938,330285,41
rec-171-org,FRANCISCO JOSE,leandro,ferreira,cardoso,12021948,330330,141
rec-172-org,FRANCISCO CANDIDO,ramos,cruz,rodrigues,4031945,330100,141
rec-173-org,JOSE MARIA,arduim,fonseca,silva,19031936,330100,49
rec-174-org,CELIO,silva,gomes,assis,8061938,330455,76
rec-175-org,MIGUEL,rollin,silva,gomes,5021926,330580,131
rec-176-org,EDSON,santos,barcelos,silva,16111975,330455,801
rec-177-org,AYTON AVELINO,santos,matias,couto,2021928,330480,24
rec-178-org,JULIO CESAR,mattos,sampaio,ferreira,18031930,330490,79
rec-179-org,ERIKI,passos,andrade,marques,28091968,330550,104
rec-18-org,JORGE MIGUEL,kelmer,souza,ferreira,20091958,330100,140
rec-180-org,MAURO DOMINGOS,demerciano,oliveira,ramos,6101933,330250,120
rec-181-org,JOSE ANTONIO,conceicao,santos,silva,4071934,330455,46
rec-182-org,EDILSON,silva,soares,carvalho,6081933,330455,77
rec-183-org,ADALBERTO,santos,silva,barbosa,10101941,330455,3
rec-184-org,RUBENS FERNANDO,moura,leal,santos,2041972,330455,6
rec-185-org,HEITOR,pereira,cruz,silva,30121956,330455,101
rec-186-org,ADAIR,cezar,pimentel,guimaraes,5071939,330045,72
rec-187-org,SIDNEY,lima,conceicao,goncalves,20011953,330070,13
rec-188-org,ANTONIO JERONIMO,souza,guimaraes,santo,22071953,330045,128
rec-189-org,JOSE AURELIO,souza,brasil,mattos,17111926,330460,42
rec-19-org,IRINEU,silva,alverne,ana,13021928,330455,119
rec-190-org,OSWALDO,marculino,silva,salgueiro,29031973,330010,113
rec-191-org,SEBASTIAO JOSE,andrade,silva,vieira,24041975,330414,23
rec-192-org,LUCIANO,oliveira,guimaraes,silva,29111958,330455,113
rec-193-org,ELY,alvaristo,santos,guaraciaba,16031948,330455,401
rec-194-org,ARMANDO,silva,santos,almeida,20041948,330180,9
rec-195-org,HULDEBRANDO,alves,soares,siqueira,6091961,330455,11
rec-196-org,CESAR,silva,oliveira,jannarella,10101948,330100,135
rec-197-org,CICERO SEBASTIAO,marques,bandeira,goncalves,15041939,330455,69
rec-198-org,EDNO,pereira,santos,santos,23101921,330100,153
rec-199-org,RAIMUNDO HELENO,reis,silva,braz,24101946,330455,52
rec-20-org,CARLOS ALBERTO,carvalho,pereira,silva,30071941,330490,148
rec-200-org,NELSON,azambuja,bertholo,sa,3091955,330250,40
rec-201-org,JUAN RODRIGUES,melo,conceicao,paulino,14011951,330227,7
rec-202-org,ALECIO,maciel,machado,barros,28031937,330250,24
rec-203-org,WALTER,alves,cesario,silva,3111971,330455,33
rec-204-org,LUIZ ALBERTO,cardoso,santos,pereira,13121944,330187,35
rec-205-org,JOAQUIM,bezerra,jardim,antonio,5071965,330045,24
rec-206-org,EDSON,hora,neri,amaral,21021948,330455,135
rec-207-org,NEICES CHRISTIANO,alves,freitas,silva,23021956,330455,410
rec-208-org,LINCOLN CARLOS,henriques,santos,pimentel,24041936,330250,47
rec-209-org,DJALMA FELICIANO,facre,lobo,rocha,10121926,330455,79
rec-21-org,ERASMO,velasco,carvalho,oliveira,20021943,330455,132
rec-210-org,ADEMIR RICARDO,castro,monteiro,ramos,19051931,330520,18
rec-211-org,CARLOS ALBERTO,medeiros,freitas,bezerra,19121931,330220,43
rec-212-org,FABIO FERNANDES,almeida,holur,ferreira,21111959,330455,77
rec-213-org,ANDERSON FERNANDO,marinho,martins,silva,11071995,330455,7
rec-214-org,RENEE,silva,silva,santos,23111936,330610,118
rec-215-org,JOSE,oliveira,hassano,oliveira,13111993,330455,15
rec-216-org,FRANCISCO JACINTO,silva,santos,souza,20121964,330490,301
rec-217-org,FRANCIS JORGE,lima,silva,silva,11041941,330350,62
rec-218-org,WILSON RENATO,lopes,silva,valentino,31121943,330510,110
rec-219-org,LUCAS,silva,franca,braga,12071953,330210,119
rec-22-org,JOSE JUAREZ,honorato,leon,ferreria,21031954,330455,146
rec-220-org,ANDRE LUIZ,freire,gouveia,goncalves,16031971,330390,140
rec-221-org,SEVERINO JUSTINO,oliveira,gomez,alvarenga,25071927,330025,24
rec-222-org,RIMSKY,santos,araujo,almeida,5121924,330350,107
rec-223-org,MAURO CESAR,lourenco,ferreira,kuzniec,12041945,330455,65
rec-224-org,JOSE RODRIGO,maia,macedo,ressurreicao,1111930,330380,122
rec-225-org,AECIO,ignacio,silva,moraes,23041929,330455,44
rec-226-org,SIDNEI,porco,teixeira,gusmao,3011937,330390,24
rec-227-org,CELSO,souza,conceicao,souza,10051950,330455,47
rec-228-org,ORBELIO,silva,benedito,santos,14031935,330490,45
rec-229-org,JOSE ACACIO,costa,souza,joaquim,27021989,330470,128
rec-23-org,ANTONIO,fernandes,coelho,malta,30041995,330400,140
rec-230-org,EDSON,oliveira,santos,cardoso,15091932,330455,36
rec-231-org,LUIZ CARLOS,gomes,souza,santos,20071945,330350,113
rec-232-org,JORGE,angelo,sobrinho,santos,4051935,330330,13
rec-233-org,SEBASTIAO,pimenta,paula,oliveira,14071936,330455,124
rec-234-org,CLEBER,silva,darsie,silva,20121932,330250,43
rec-235-org,RUBENILSON,ramos,santos,leite,3111942,330185,144
rec-236-org,NELSON,ribeiro,dantas,silva,16061957,330170,86
rec-237-org,WILSON,alves,farias,souza,19021926,330170,6
rec-238-org,ALLFRES,silva,carvalho,leite,23041967,330455,60
rec-239-org,BERNARDO,santos,passos,lima,2091951,330455,105
rec-24-org,ALEXANDRE,souza,duarte,aguiar,21081950,330455,7
rec-240-org,ALAIR JOSE,rosa,nascimento,pacheco,12081932,330170,24
rec-241-org,SALVADOR,silva,santana,ananias,29031929,330575,18
rec-242-org,WILSON PAULINO,copelli,teixeira,santana,23021926,330455,154
rec-243-org,GENIL,carvalho,souza,damascena,10081961,330455,147
rec-244-org,JORGE,jose,tomaz,freitas,28121944,330170,116
rec-245-org,MANUEL,silva,ferreira,santos,11101917,330455,144
rec-246-org,JOSE AUGUSTO,monteiro,costa,coelho,24061955,330045,76
rec-247-org,ENEAS FELICIANO,delgado,bonfim,machado,11082013,330350,10
rec-248-org,NILTON DELFINO,evangelista,antunes,silvano,26071923,330455,41
rec-249-org,EDGARD MARCIO,silva,lima,santos,29061979,330320,16
rec-25-org,PAULO,capuano,kindel,silva,27081934,330455,43
rec-250-org,EDIR LOURENCO,silveira,douza,silva,6051933,330455,119
rec-251-org,KAIO,feitosa,conceicao,fontes,7071953,330350,146
rec-252-org,IGOR,conceicao,carmo,lira,29102012,330045,27
rec-253-org,FRANCISCO,silva,ferreira,bizzo,16091957,330455,83
rec-254-org,JOSE AUGUSTO,silva,silva,machado,18071938,330170,999
rec-255-org,LEONARDO,batista,paes,marques,15111922,330045,149
rec-256-org,JOAO CARLOS,santos,sousa,souza,30051934,330455,22
rec-257-org,FRANCISCO CRISTOVAO,canto,oliveira,azevedo,19061926,330455,142
rec-258-org,EDUARDO,pereira,ribeiro,pinto,1061974,330510,122
rec-259-org,ARY ALONSO,barbedo,cabral,rosa,29041958,330475,145
rec-26-org,CARLOS,oliveira,sousa,santos,8011961,330360,123
rec-260-org,OTAVIO RODRIGUES,torres,alves,faria,4071951,330250,53
rec-261-org,JEFERSON,costa,santos,santos,17111974,330452,141
rec-262-org,MARCOS,montes,ana,pereira,31051943,330455,143
rec-263-org,JARBAS,fonseca,jose,oliveira,10011950,330452,4
rec-264-org,FELIPE MIGUEL,lins,feudo,antunes,28121979,330455,61
rec-265-org,ANTONIO ANGELO,sadler,martins,silva,27111949,330100,37
rec-266-org,JOSE,costa,silva,pires,12071937,330500,12
rec-267-org,JOSE,laurentino,sa,silva,28061949,330455,107
rec-268-org,FERNANDO,conceicao,goncalves,araujo,25122000,330455,203
rec-269-org,ANTENOR RODRIGUES,affonso,britto,pimentel,18081956,330455,14
rec-27-org,JOSE ELIAS,moraes,gama,almeida,10091928,330515,25
rec-270-org,RAFAEL,cardozo,souza,sousa,13101958,330455,91
rec-271-org,GILBERTO,silva,nery,alves,1081958,330455,81
rec-272-org,JOSE CANDIDO,viana,cardoso,ferreira,20061927,330170,69
rec-273-org,JOSE CARLOS,silva,gabriel,souza,20051943,330490,12
rec-274-org,JOSE VIRGINIO,oliveira,silva,cunha,18121935,330414,40
rec-275-org,IRANYSIO,silva,amaral,silva,13071935,330330,25
rec-276-org,ARLINDO,ramos,esteves,custodio,28021939,330455,86
rec-277-org,JOSE MESSIAS,pires,santos,santos,20081926,330320,56
rec-278-org,ROMARIO VICENTE,machado,macedo,silva,13111925,330455,531
rec-279-org,ADILSON,ribeiro,jesus,soares,6081944,330555,202
rec-28-org,NILTON OLIVEIRA,silva,duim,campos,10061973,330455,149
rec-280-org,ROBERTO,lopes,katz,santos,2021941,330510,149
rec-281-org,JOSE,lima,mondaini,felix,15121954,330390,71
rec-282-org,DALZIVO,oliveira,santos,lindolpho,5011958,330455,86
rec-283-org,RAUL,souza,faria,santos,25121921,330100,29
rec-284-org,MIGUEL HENRIQUE,oliveira,moraes,santos,22051955,330170,23
rec-285-org,IVO,chaves,silva,oliveira,19101939,330455,40
rec-286-org,IVAN JORGE,pereira,costa,correa,13011970,330455,38
rec-287-org,LUIZ ROBERTO,borges,lima,fernanda,23061932,330455,149
rec-288-org,HELIO,santos,amaral,camilo,18121937,330320,4
rec-289-org,LUIZ MARQUES,conceicao,firmo,siqueira,9111932,330455,801
rec-29-org,OLGACIR,barbosa,motta,souza,15111963,330455,5
rec-290-org,GETULIO,cardoso,retto,benevides,23101962,330455,66
rec-291-org,MANOEL,santos,barros,silva,3051943,330100,33
rec-292-org,ADAUUTO,santos,silva,barbosa,10121952,330050,6
rec-293-org,ANTONIO,almeida,silva,thomaz,26081950,330630,202
rec-294-org,GILSIMAR,silva,luz,miranda,2021962,330630,79
rec-295-org,MANUEL,band,vieira,vasconcelos,1121963,330455,27
rec-296-org,SIDNEI,rangel,quintanilha,santos,11112013,330455,13
rec-297-org,ALBERTO SABINO,damasceno,aloinde,ramos,6071932,330455,24
rec-298-org,ANTONIO CARLOS,pozzi,oliveira,silva,29111959,330170,704
rec-299-org,ANTONIO,santos,conceicao,silva,9041932,330000,73
rec-30-org,PAULO ROBERTO,nascimento,teixeira,medeiros,12041918,330490,41
rec-300-org,PEDRO SEBASTIAO,santos,santos,silva,6102013,330330,43
rec-301-org,BENEDICTO,machado,reuther,macedo,28111992,330330,69
rec-302-org,BEVERLY,damasceno,calixto,moreira,4041962,330130,1
rec-303-org,CICERO,silva,santos,alcantara,12111990,330455,190
rec-304-org,GIOVANI,vieira,oliveira,santos,18121959,330575,54
rec-305-org,ANTONIO DOMINGOS,jesus,oliveira,alexandre,11091940,330045,3
rec-306-org,PEDRO,fuli,kuschir,salmaso,28021928,330550,69
rec-307-org,JOSE EDUARDO,pinao,santos,rodrigues,24101934,330180,124
rec-308-org,DJALMA,barros,silva,silva,30011938,330455,85
rec-309-org,LUIZ,souza,santos,sobreira,27081949,330455,30
rec-31-org,DIOGENES,oliveira,rodrigues,viana,21091953,330250,141
rec-310-org,JHONATAN,costa,almeida,vieira,27111941,330100,87
rec-311-org,LEONARDO,santos,alberto,silva,19041916,330030,35
rec-312-org,PAULO CEZAR,nascimento,olimpio,medeiros,15101920,330015,144
rec-313-org,VALDECIR,marmo,silva,revoredo,9121910,330200,38
rec-314-org,FRANCISCO ROBERTSON,santos,cruz,santos,21011959,330270,150
rec-315-org,JOSE,mattos,pinto,medeiros,14011979,330455,17
rec-316-org,MARCOS,ferreira,silva,dias,11051920,330020,53
rec-317-org,LEONARDO,soares,souza,conceicao,6021961,330455,20
rec-318-org,ALEXANDRO,alvarenga,santos,pedroza,25091925,330045,23
rec-319-org,JULIO CESAR,gomes,azevedo,santos,24061976,330455,140
rec-32-org,MARCELO,souza,souza,andrade,10061965,330580,144
rec-320-org,EDIMAR MARIA,quinellato,sirino,silva,30071968,330350,119
rec-321-org,LUIZ CARLOS,capela,souza,santos,5081992,330455,107
rec-322-org,JOAO ALBERTO,silva,sousa,silva,24011944,330455,104
rec-323-org,RENATO,souza,ramos,guimaraes,23031951,330340,112
rec-324-org,JOSIAS,farias,perez,magalhaes,7011946,330455,141
rec-325-org,AILTON,silva,silva,souza,30091935,330455,58
rec-326-org,WALDIR JOSE,bezerra,souza,santos,13011944,330250,45
rec-327-org,FABIO JUAN,silva,santos,alo,3121930,330455,15
rec-328-org,JOSE SEBASTIAO,silva,nunes,breves,12041955,330455,11
rec-329-org,JOAO,albuquerque,felix,santos,16101933,330000,706
rec-33-org,GUILHERME HERMINIO,francisco,manhaes,campos,12121968,330100,135
rec-330-org,JORGE MANOEL,siqueira,cavalcante,silva,7011931,330025,153
rec-331-org,KELVIN,braz,nascimento,reis,12021925,330200,88
rec-332-org,FRANCISCO EDUARDO,reis,barbosa,magalhaes,18121927,330285,144
rec-333-org,CARLOS AUGUSTO,silveira,souza,pacheco,25071918,330455,139
rec-334-org,JOSE MANOEL,penna,santos,silva,3061926,330455,28
rec-335-org,LUIS VANDERLEI,rodrigues,pinto,zanezi,26021931,330330,20
rec-336-org,GILBERTO LUCAS,lima,coelho,reis,4101946,330455,114
rec-337-org,BRAULIO JORGE,lucindo,cabecinho,wanous,10091954,330455,140
rec-338-org,ROGERIO,riscado,campos,goncalves,6011942,330240,115
rec-339-org,LINDONOR GASPAR,martins,olegario,teteo,17061931,330575,718
rec-34-org,MARCY AUGUSTO,barbosa,lima,lomonaco,22051957,330490,16
rec-340-org,JOSE,silva,martins,teixeira,27021964,330455,86
rec-341-org,RODOLPHO SEBASTIAO,belan,gomes,azambuja,13081988,330415,148
rec-342-org,LAUDELINO,oliveira,souza,oliveira,6091945,330390,45
rec-343-org,NEMI,santos,andrade,barczinski,13031923,330600,98
rec-344-org,SEBASTIAO,souza,melo,alvino,30101933,330455,101
rec-345-org,LEONARDO,polverine,moraes,borges,21121923,330455,40
rec-346-org,ANTONIO,pereira,silva,santos,20061948,330455,33
rec-347-org,GILVAN,oliveira,conceicao,nunes,23041960,330455,115
rec-348-org,ADIZIO,paiva,nogueira,guimaraes,25091957,330455,71
rec-349-org,ALMIR,silva,andrade,albuquerque,22071960,330455,13
rec-35-org,LAZARO,szlecka,oliveira,cunha,25051952,330330,120
rec-350-org,JONAS,reis,lisboa,reis,20071965,330455,4
rec-351-org,ELY CESAR,nascimento,morais,martins,8101927,330330,4
rec-352-org,JAIRO FRANCISCO,marques,pereira,gomes,3111938,330455,38
rec-353-org,ERIVONALDO JOSE,borges,messias,santos,21041945,330330,68
rec-354-org,ARY RODRIGUES,moraes,raamos,kattermann,17101982,330040,29
rec-355-org,LYSIO,araujo,andrade,antunes,10121931,330490,38
rec-356-org,FRANCISCO MANOEL,souza,silva,toledo,1091937,330455,105
rec-357-org,VANDO,quintiliano,maia,moura,8011958,330190,24
rec-358-org,CARLOS ALBERTO,carreiro,falcao,amarao,1071942,330455,87
rec-359-org,SANDRO LUIZ,machado,martins,borges,15031918,330455,82
rec-36-org,IGNACIO,simoes,silva,carneiro,19041925,330455,66
rec-360-org,FLAVIO CESAR,lopes,souza,almeida,14091980,330580,66
rec-361-org,MARIO,leite,santos,souza,5121953,330070,35
rec-362-org,VICENTE,fagundes,francisco,pereira,16061975,330490,65
rec-363-org,FRANCISCO,silva,souza,barreto,22091952,330455,33
rec-364-org,RHYAN,couto,oliveira,nogueira,16031945,330455,4
rec-365-org,JOSE DOMINGOS,junqueira,oliveira,sena,28011961,330070,150
rec-366-org,VICENTE,gosto,teixeira,rodrigues,2061952,330455,116
rec-367-org,OTACILIO MARTINS,silva,cavalcante,rozeira,9061942,330025,22
rec-368-org,ALBANIR ZACARIAS,monteiro,silva,mallet,10071923,330100,50
rec-369-org,CARLOS ALBERTO,silva,carvalho,tomaz,9121929,330330,7
rec-37-org,ANTONIO OSORIO,brito,pinto,coelho,16091953,330190,114
rec-370-org,JOSE RODRIGUES,ferreira,pinto,pereira,18111951,330455,98
rec-371-org,JORSIMAR RODRIGUES,santos,vianna,carmo,5051960,330015,157
rec-372-org,BRUNO OLIVEIRA,santos,silva,lins,23101958,330350,127
rec-373-org,LUIZ CARLOS,penha,pinto,oliveira,27061943,330170,10
rec-374-org,AUSELINDO,santos,vicente,mello,5041944,330560,32
rec-375-org,MOACYR LUIZ,conceicao,dias,mota,5051951,330320,82
rec-376-org,PAULO CESAR,topini,folgosa,correa,12041920,330455,65
rec-377-org,LUCIMAR,silva,pacote,souza,25081958,330414,114
rec-378-org,NERALCI CAETANO,carvalho,felix,rodrigues,12061959,330455,147
rec-379-org,JORGE,souza,azevedo,silva,22091945,330350,70
rec-38-org,VALDECK,barbosa,moura,chagas,3071950,330045,11
rec-380-org,IVAN,silva,cezario,ferreira,23111936,330455,7
rec-381-org,WALTER,bilo,lima,maia,18061926,330560,72
rec-382-org,FRANCISCO XAVIER,kazay,silva,ribeiro,26011953,330510,49
rec-383-org,FRANCISCO DUARTE,lugao,santos,matos,21031963,330520,139
rec-384-org,MANOELINO,klippel,moreira,pereira,4011930,330285,144
rec-385-org,ALMERINDO,santos,brito,lima,1081937,330350,201
rec-386-org,LUIZ HENRIQUE,ramos,rocha,moraes,25021926,330470,77
rec-387-org,VILMAR,silva,labarba,moreira,8071930,330455,65
rec-388-org,BENJAMIN ANTONIO,scortecci,fernandes,goncalves,18081939,330227,39
rec-389-org,CARLOS ROBERTO,silva,schumack,brito,27081972,330190,3
rec-39-org,JOSE,medeiros,silva,goncalves,20071990,330070,13
rec-390-org,MANOEL,carmo,mesquita,leite,15061930,330455,13
rec-391-org,LUIZ CARLOS,ferreira,lutterbach,moura,29031929,330350,51
rec-392-org,WESLEY,ramos,ferreira,basilio,5051915,330455,5
rec-393-org,JOSE LUIZ,oliveira,abrahao,gurgel,28051948,330455,144
rec-394-org,GILSON,santos,conceicao,mendonca,5021958,330455,10
rec-395-org,VALDIR VICENTE,lima,jesus,souza,20021937,330455,146
rec-396-org,DURVAL,vieira,carvalho,gomes,24011926,330455,64
rec-397-org,SEBASTIAO VICENTE,costa,santos,bellissimo,25011946,330455,139
rec-398-org,ORLANDO,santos,melo,morais,9031941,330350,49
rec-399-org,JOSE ISRAEL,santos,rezendes,santos,2061949,330330,33
rec-40-org,JOSE JORGE,santos,rosa,duarte,27021928,330340,155
rec-400-org,MARINO FRANCISCO,pimenta,ricardo,silva,2061954,330170,144
rec-401-org,LUCAS,cruz,azerelo,ferreira,9011945,330170,54
rec-402-org,JOSE SALUSTIANO,santos,castro,souza,25071931,330020,127
rec-403-org,UBIRATAN,monteiro,silva,lima,20121935,330330,3
rec-404-org,OSMAR,papoula,alvarenga,silva,12071936,330455,113
rec-405-org,MANOEL JOAQUIM,rosa,val,gil,13021962,330455,77
rec-406-org,ORELITO,santana,menezes,correa,4031947,330455,20
rec-407-org,JORGE LUIZ,santos,ouverney,mendonca,10101954,330455,70
rec-408-org,ADAO,souza,alonso,araujo,4071981,330520,15
rec-409-org,VALCI,teixeira,nascimento,santos,23061981,330455,118
rec-41-org,GELSON ANTONIO,carijo,ferreira,gross,15091935,330510,137
rec-410-org,BARTOLOMEU,rosa,oliveira,silva,5031936,330070,301
rec-411-org,JOSE FRANCISCO,oliveira,lima,mignone,1071994,330630,202
rec-412-org,JOSE VICENTE,moraes,freitas,calixto,17011945,330330,95
rec-413-org,ANTONIO ALBERTO,lopes,meirelles,silva,23041935,330455,122
rec-414-org,JOSE SALVIANO,oliveira,marins,souza,25121932,330070,89
rec-415-org,LUIZ KLEBER,freitas,santos,andrade,23091972,330455,33
rec-416-org,PAULO SERGIO,silva,loeps,silva,12011935,330455,146
rec-417-org,FRANCISCO,lobo,moraes,silva,19051947,330020,63
rec-418-org,CLAUDIO,silva,motta,eyer,20061961,330360,20
rec-419-org,THIAGO,veloso,anunciacao,silva,27051938,330455,64
rec-42-org,ALEXANDRE NUNES,silva,santos,silva,17091983,330455,90
rec-420-org,ANTONIO FERNANDES,matos,mendonca,santos,7111937,330455,18
rec-421-org,LAVINIO,souto,souza,ceia,3011970,330455,76
rec-422-org,JOSE RAIMUNDO,marins,mendes,souza,7011941,330045,38
rec-423-org,LEVINO,oliveira,silva,mattos,7071943,330285,135
rec-424-org,PAULO CLAUDIO,conceicao,santo,basilio,28031993,330385,159
rec-425-org,CELSO OLIVEIRA,silva,silva,mattos,8061946,330455,183
rec-426-org,OSVALDO NASCIMENTO,santopietro,vaz,pinheiro,10071940,330045,36
rec-427-org,ANTONIO CASSIANO,souza,santos,vianna,29101960,330000,33
rec-428-org,GENARIO JOAO,ferreira,ribeiro,rios,9011957,330130,83
rec-429-org,MARCELO,pena,campos,silva,4121929,330455,139
rec-43-org,MOACYR,teixeira,leite,belote,8081963,330455,48
rec-430-org,SEBASTIAO CARLOS,inove,martins,rocha,16061969,330100,154
rec-431-org,LUCAS,oliveira,pinto,santos,14031930,330455,190
rec-432-org,CICERO ANA,stoduto,machado,brandao,3021916,330350,401
rec-433-org,SEBASTIAO PEDRO,santos,santos,neves,19031916,330320,77
rec-434-org,HELIO CANDIDO,silva,silva,fernandes,26051983,330170,82
rec-435-org,MOACYR,rodrigues,ramos,silva,12011959,330490,68
rec-436-org,JOAO LUIZ,preste,santos,braga,6121925,330185,118
rec-437-org,LUIZ,souza,marinho,prisco,8041938,330390,93
rec-438-org,LUIZ ALBERTO,pecanha,ribeiro,campos,24071971,330455,43
rec-439-org,RAFAEL OLIVEIRA,bittencourt,pimenta,mendes,7021933,330490,55
rec-44-org,ANTONIO AYRES,braga,silva,justino,21101948,330455,3
rec-440-org,GABRIEL MARQUES,macedo,finamoure,dias,12021941,330455,158
rec-441-org,DELZIRIO FRANCISCO,benedito,salles,almeida,6121924,330510,54
rec-442-org,JOAO ALBERTO,quaresma,carneiro,sena,3041911,330070,144
rec-443-org,MAIRY,ernest,martins,kloh,18111939,330455,118
rec-444-org,GENEZIO,pessoa,jaffar,santos,2111956,330510,15
rec-445-org,JOSE,ventura,pereira,lourenco,4091929,330455,2
rec-446-org,FERNANDO ANTONIO,souza,silva,santos,16061932,330100,68
rec-447-org,FRANCISCO,marinho,souza,carneiro,13101942,330455,141
rec-448-org,RONALDO,chaves,soares,cassago,4101955,330455,124
rec-449-org,PAULO ROBERTO,vitorino,nascimento,silva,10041926,330455,122
rec-45-org,CARLOS FELIX,silva,torres,silva,20101956,330630,57
rec-450-org,FRANCISCA,serpa,silva,fonseca,8011948,330510,3
rec-451-org,JORG,avelino,sabadini,gomes,16071951,330010,77
rec-452-org,OZEIAS,garcez,costa,silva,6081923,330455,90
rec-453-org,ELOY JOSE,neves,teixeira,pires,5032013,330330,34
rec-454-org,LUIZ,carvalho,ferreira,trojman,15081943,330340,124
rec-455-org,MANOEL FRANCISCO,damasceno,bernardi,machado,6041969,330630,149
rec-456-org,LEONARDO,correa,gomes,mendes,1111935,330455,747
rec-457-org,GENTIL,goncalves,machado,ribeiro,23061943,330455,122
rec-458-org,JOSE MARTINS,cordeiro,olimpio,grego,27051930,330190,140
rec-459-org,CARLOS RODRIGUES,breder,alves,santos,28101928,330350,74
rec-46-org,IVANILDO,oliveira,silva,soares,28011975,330455,33
rec-460-org,LUIZ ALVARO,santos,santos,paulo,4051965,330100,149
rec-461-org,JOAO PEDRO,jesus,pinheiro,santos,4031932,330490,33
rec-462-org,LUIZ CARLOS,marinato,vieira,conceicao,14081935,330455,64
rec-463-org,SERGIO,silva,antunes,silva,4101932,330455,76
rec-464-org,LUIZ,amorim,teixeira,abreu,1031945,330455,107
rec-465-org,JOAQUIM CARLOS,santos,peres,rodrigues,8111960,330455,42
rec-466-org,AYRTON LAURO,flores,vieira,gomes,4102013,330045,107
rec-467-org,CLAUDIO,silva,silva,pinto,4051932,313950,32
rec-468-org,PAULO SERGIO,costa,andrade,abreu,20011930,330455,81
rec-469-org,JOAO AGAPITO,pinto,batista,lemos,25091927,330330,4
rec-47-org,DERALDO,santos,goncalves,carvalho,11021924,330550,2
rec-470-org,HUMBERTO,custodio,costa,santos,7061922,330455,117
rec-471-org,PAULO ROBERTO,pinheiro,andrade,fagundes,18111981,330455,122
rec-472-org,MAURICIO FRANCISCO,souza,coelho,silva,1091948,330170,90
rec-473-org,HELIO JOAQUIM,chianello,camara,nunes,15121945,330412,4
rec-474-org,WALFRIDO,nunes,mello,gouvea,13051965,330250,149
rec-475-org,MARCELO MARQUES,prado,medeiros,oliveira,29051965,330620,149
rec-476-org,PEDRO FRANCISCO,assiz,silva,silva,3111917,330210,144
rec-477-org,MARCELO,alcantara,peixoto,olegario,13011921,330455,114
rec-478-org,GEDILSON,santos,alves,teixeira,28121938,330030,22
rec-479-org,ITALO,cortes,verol,guimaraes,10031932,330555,148
rec-48-org,NARCISO,silva,soares,mendes,25051925,330270,80
rec-480-org,ARTHUR,rodrigues,silva,matos,29101929,330455,7
rec-481-org,ORACIDES,silva,ribeiro,augusto,2051936,330455,53
rec-482-org,JOSE MARIA,augusto,ribeiro,martins,6051933,330350,149
rec-483-org,FRANCISCO ASSIS,neves,souza,silva,9121948,330455,46
rec-484-org,EDIS,mattos,silva,moreira,9071920,330455,141
rec-485-org,ARTHUR,silva,martins,rodrigues,28011968,330455,13
rec-486-org,MAURILIO,silva,bartholomeu,pacheco,5011943,330455,139
rec-487-org,ALUAN FLORENTINO,silva,fogos,silva,20041937,330030,3
rec-488-org,KAYO VICTOR,santos,santos,casimiro,8111925,330455,37
rec-489-org,FRANCISCO,guimaraes,basilio,coimbra,22041963,330185,33
rec-49-org,FERNANDO AFONSO,alves,campos,frizieiro,15121957,330455,132
rec-490-org,JAIR,lima,silva,pinheiro,27071961,330455,122
rec-491-org,JOSE ROBERTO,alves,lorena,ribeiro,15071957,330455,128
rec-492-org,VITOR JESUS,silva,augusto,sarmento,9081935,330455,73
rec-493-org,THALYSON ADRIANO,castro,feudo,mariano,1121927,330455,10
rec-494-org,PAULO RODRIGUES,muniz,ferreira,monsores,30031978,330455,606
rec-495-org,LUIZ,silva,fagundes,barbosa,18101930,330270,3
rec-496-org,ISIS,ferreira,carvalho,gomes,16111937,330490,15
rec-497-org,JOSE,andrade,silva,cruz,8051920,330455,18
rec-498-org,JULIO CESAR,araujo,fernandes,deus,2101921,330455,15
rec-499-org,MANOEL EUZEBIO,santos,silva,costa,14051954,330455,13
rec-50-org,FRANCISCO LUIZ,mendes,alvite,nascimento,26111923,330200,121
rec-51-org,CARLOS,silva,damasceno,hanna,24121960,330455,138
rec-52-org,OSWALDO,barbosa,ramos,fernandes,23101935,330330,143
rec-53-org,HARCILIO,santos,valente,ramos,30051927,330455,113
rec-54-org,MARCIO,freire,gomes,ramos,10071940,330455,44
rec-55-org,JERSON,oliveira,silva,zaliane,25041923,330080,114
rec-56-org,MARCELO,oliveira,pereira,abreu,28021942,330455,147
rec-57-org,AMERICO,hang,rodrigues,dahan,21111926,330490,38
rec-58-org,BRUNO,silva,santos,dias,13081946,330480,121
rec-59-org,NIVALDO QUIRINO,silva,sousa,santos,7071949,330490,123
rec-60-org,ADELINO FERNANDES,muniz,teixeira,silva,22021962,330170,403
rec-61-org,JORGE LEOPOLDINO,silva,souza,teixeira,14111960,330455,71
rec-62-org,ANDERSON OLIVEIRA,esteves,pinheiro,rosa,25011988,330250,42
rec-63-org,DOUGLAS,nascimento,costa,braga,26031980,330455,86
rec-64-org,LEOCADIO,sabino,silva,virginio,17031940,330205,103
rec-65-org,JOSE,silva,silva,silva,6011931,330350,601
rec-66-org,FRANCISCO JOAQUIM,teodoro,neves,machado,11111951,330390,132
rec-67-org,AUTINO,fabri,souza,macedo,5021935,330455,17
rec-68-org,ADELSON,cruz,neves,santos,5061979,330100,26
rec-69-org,THIAGO,cunha,rodrigues,santos,15111952,330350,20
rec-70-org,WILLIAM,seixas,lindolfo,barbosa,9121975,330023,123
rec-71-org,JORGE LUIZ,torres,oliveira,passos,1011952,330350,114
rec-72-org,SEBASTIAO MAXIMO,marcelino,costa,correa,12071933,330455,30
rec-73-org,MARCIO,santana,oliveira,silva,30051952,330455,139
rec-74-org,OLINIO,gabriel,santos,guimaraes,4091966,330390,17
rec-75-org,JOSE,andrade,marcos,souza,18031986,330320,124
rec-76-org,AMAURY,quirino,fontes,moraes,16031991,330455,67
rec-77-org,SERGIO,souza,natal,guerra,2111944,330455,18
rec-78-org,JORGE,cardoso,primo,florentino,29101973,330040,2
rec-79-org,PAULO SERGIO,arruda,guimaraes,teixeira,21011946,330580,141
rec-80-org,ALFREDO,lima,ferreira,sa,29101933,330455,86
rec-81-org,ELIAS,silva,oliveira,stavridis,26021983,330575,157
rec-82-org,ELIAS,abreu,costa,alves,1012013,330630,90
rec-83-org,JOSE CLEMENTINO,carvalho,nascimneto,portela,1101932,330025,303
rec-84-org,DILSON,silva,teixeira,barros,1011943,330350,6
rec-85-org,JOAO CARLOS,ferreira,guimaraes,rangel,2031948,330045,155
rec-86-org,FRANCISCO ASSIS,borges,ferreira,duarte,1051949,330455,51
rec-87-org,GLAUCO,jamelli,silva,silva,4031992,330270,53
rec-88-org,EVERSON CLEITON,cerqueira,silva,mello,1091930,330350,1
rec-89-org,HILDEBRANDO MARTINS,rodrigues,lippi,azeredo,9021955,330455,63
rec-90-org,JOSE AILTON,veiga,anjos,araujo,11011954,330227,149
rec-91-org,ALVARO,lima,silva,silva,22011986,330513,54
rec-92-org,LAERSO ANSELMO,oliveira,silva,rocha,9121946,330455,151
rec-93-org,NILO SERGIO,baran,rodrigues,olivera,11081936,330455,142
rec-94-org,PEDRO WALTER,figueiredo,andrade,silva,30121957,330170,18
rec-95-org,RAMON,godoy,monteiro,silva,9091938,330455,127
rec-96-org,PAULO BENTO,santana,marcelo,oliveira,1111949,330455,90
rec-97-org,JACKSON,meehan,gomes,cavalcante,1011948,330455,4
rec-98-org,LUIZ CARLOS,menezes,franco,silva,27051959,330100,89
rec-99-org,JOSE,leopoldino,souza,cabral,4041949,330350,144
