snome|count
A|3
AARECIDA|1
ABADE|1
ABBA|1
ABBADE|1
ABBOTT|1
ABDALA|1
ABDALLA|1
ABDIAS|1
ABDO|1
ABDON|1
ABEID|1
ABEIDI|1
ABEL|1
ABERONI|1
ABIB|1
ABIDO|1
ABIEIRE|1
ABIGIL|1
ABILIO|2
ABRAHAO|2
ABRAHIM|1
ABRANTES|7
ABREU|67
ACACIO|2
ACCOFORADO|1
ACETI|1
ACIMEN|1
ACIOLE|1
ACIOLI|2
ACIOLY|1
ACOSTA|2
ACREANA|1
ADAES|1
ADAME|1
ADAMI|1
ADEALES|1
ADERNO|1
ADILVA|1
ADIMIRAL|1
ADIZIA|1
ADOLFO|4
ADOSINDA|1
ADRENALINA|1
ADRIANO|3
ADUM|1
AFFLALO|1
AFFONSO|10
AFLATO|1
AFONSO|11
AGAJONOFF|1
AGAPITO|1
AGLIO|1
AGNELLO|1
AGONIO|1
AGOSTINHJO|1
AGOSTINHO|6
AGOSTINI|3
AGRICOLA|1
AGUIAR|50
AGUILERA|1
AGUSTA|1
AIDAS|1
AIDES|1
AINEZ|1
AIVARO|1
AJUDA|3
AKANIA|1
ALABREU|1
ALACOQUE|1
ALACRINO|1
ALAMINO|1
ALAMO|1
ALAOR|1
ALBANO|1
ALBARES|1
ALBERGARIAS|1
ALBERICE|1
ALBERIGI|1
ALBERNAZ|2
ALBERTIM|1
ALBERTINI|1
ALBERTO|4
ALBINO|11
ALBO|1
ALBREU|1
ALBUQUERQUE|40
ALBURQUERQUE|1
ALCANTARA|30
ALCANTRA|1
ALCEBIADES|1
ALCENIO|1
ALCIDES|2
ALCOFORADO|1
ALCURE|1
ALDANO|1
ALDECY|1
ALDEIRA|1
ALDEMIRA|1
ALDENIZA|1
ALECE|1
ALECRIM|1
ALEDY|1
ALEGRE|3
ALEGRIA|1
ALEIXO|4
ALELUIA|1
ALENCAR|3
ALEXANDRE|23
ALEXANDRIA|1
ALEXANDRINO|6
ALEXIM|1
ALEZIANA|1
ALFAIA|2
ALFAMA|1
ALFANO|1
ALFENA|1
ALFONSO|1
ALFRADIQUE|2
ALFREDO|3
ALGO|1
ALHO|1
ALI|1
ALIBRENGA|1
ALIPIA|1
ALIVIO|1
ALLEMAND|1
ALMADA|2
ALMAGRO|1
ALMEIDA|359
ALMIEDA|1
ALO|1
ALONCO|1
ALONSO|12
ALRE|1
ALSCHEFSKY|1
ALTA|4
ALTINO|1
ALTOE|1
ALVADIA|1
ALVARENGA|18
ALVARES|6
ALVAREZ|4
ALVARISTO|1
ALVARO|1
ALVE|1
ALVERNAZ|1
ALVES|875
ALVEZ|1
ALVIM|5
ALVS|1
ALYRA|1
ALZINETE|1
AMA|1
AMADEU|2
AMADI|1
AMADO|5
AMADOR|2
AMANCIA|1
AMANCIO|7
AMANCO|1
AMANDO|1
AMAPARO|1
AMARAL|83
AMARANTE|3
AMARANTES|1
AMARILIA|1
AMARO|8
AMAVEL|1
AMAZONAS|2
AMBIRE|1
AMBROSIO|2
AMBROZIO|1
AMBROZOLI|1
AMBUSEIRO|1
AMED|1
AMELVA|1
AMITA|1
AMOR|3
AMORIM|51
AMORIN|1
AMOROSO|1
AMRO|1
AMUNCIACAO|1
ANACLETO|4
ANANIAS|1
ANATOLIO|1
ANCELMO|1
ANCHIETA|2
ANDRADE|172
ANDRADES|1
ANECLETA|1
ANEISE|1
ANELLI|1
ANESTRINA|1
ANGELIA|1
ANGELIN|1
ANGELIS|1
ANGELO|11
ANGIOLA|1
ANGLADA|1
ANGOTT|1
ANGRA|1
ANGRICA|1
ANGRIZANO|1
ANGULSKI|1
ANIBAL|1
ANICETA|2
ANICETO|2
ANIDO|1
ANISIO|1
ANITTA|1
ANIZIO|1
ANJOS|64
ANN|1
ANNALIA|1
ANNUNCIACAO|2
ANNUZIATA|1
ANOMAL|1
ANSELMO|3
ANTELA|1
ANTELO|1
ANTENES|1
ANTERO|1
ANTHES|1
ANTONINO|1
ANTONITA|1
ANTUNES|65
ANUCIADA|1
AOPARECIDA|1
APA|1
APAECIDA|1
APARACIDA|2
APARAECIDA|1
APARECIDO|1
APAREDIDA|1
APAREICDA|1
APAREIDO|1
APELFELER|1
APENHA|1
APOLINARIO|6
APOSTOLA|1
APPARECIA|1
APPICELLO|1
APPONINARIO|1
APRECIDA|3
AQUINO|16
ARAEI|1
ARAGAO|8
ARANDA|1
ARANGO|1
ARANHA|2
ARANTE|1
ARANTES|4
ARAO|1
ARARAT|1
ARARIPE|2
ARARY|1
ARAUJO|290
ARBO|1
ARCANGELO|1
ARCANJO|1
ARCAS|1
ARCHANJA|1
ARCHANJO|3
ARCHER|1
ARCINIO|1
ARCOVERDE|1
AREAIS|1
AREAS|5
AREDES|3
AREES|1
AREIAS|4
ARENO|1
ARGEMIRO|1
ARGEMTINA|1
ARGOLLO|1
ARIA|1
ARIGONY|1
ARMANDA|2
ARMOND|2
ARMONE|1
ARNAUDEN|1
ARNEIRO|1
ARNOUD|1
ARONSON|1
ARRABAL|1
ARROGO|1
ARROZ|1
ARRUDA|18
ARTHUR|1
ARUJO|1
ASCENCAO|5
ASCENDINO|1
ASMAR|1
ASSAD|1
ASSE|1
ASSEF|1
ASSEM|1
ASSIERE|1
ASSINY|1
ASSIS|60
ASSUCENA|1
ASSUMPCAO|19
ASSUNSAO|1
ASSURIANO|1
ASTROGILDO|1
ATAIDE|6
ATANAZIO|1
ATHAYDE|3
ATILIA|1
ATTA|1
AUBINO|1
AUCILEIA|1
AUDAY|1
AUDECY|1
AUGUSTO|18
AUMAR|1
AURENCAO|1
AURENI|1
AUZINEIA|1
AVEIRO|1
AVELAR|8
AVELINO|10
AVELLAR|3
AVENZON|1
AVES|1
AVILA|15
AVILLEZ|1
AXELINA|1
AYALLA|1
AYRAO|1
AYRES|4
AZABEL|2
AZAMBRIJA|1
AZAMBUJA|2
AZAR|1
AZARA|1
AZARIAS|1
AZARO|1
AZEREDO|25
AZEVEDO|163
AZEVEREDO|1
AZIM|1
AZIMAR|1
AZITA|1
AZOVRY|1
AZULAY|1
B|1
BABO|1
BACARINI|1
BACELAR|1
BACELLAR|2
BACKER|1
BAETA|1
BAETE|1
BAGALHO|1
BAGOS|1
BAGRICHEVSKY|1
BAHIA|3
BAHIANA|1
BAHIENSE|1
BAIRE|1
BAIRRAL|1
BAKER|1
BALASSIANO|2
BALATA|1
BALBI|3
BALBINO|5
BALBY|1
BALDA|1
BALDACIO|1
BALDE|1
BALDEZ|1
BALDI|1
BALDIN|1
BALDIOTI|1
BALDUCI|1
BALDUINA|1
BALGA|1
BALLIN|1
BALLOUSIER|1
BALONECKER|1
BALTAZAR|1
BALTCHUK|1
BALTHAR|1
BALTHAZAR|1
BALZANA|1
BANDEIRA|21
BAPTISTA|86
BARACAT|1
BARALDE|1
BARANDIER|1
BARATA|2
BARAUNA|1
BARBALHO|1
BARBATO|1
BARBETO|1
BARBI|1
BARBIRATO|1
BARBOSA|312
BARBOZA|44
BARCELLOS|10
BARCELOS|20
BARCIA|1
BARCO|1
BARD|1
BARDASSOM|1
BARDASSON|1
BARGE|1
BARILLARI|1
BARINA|1
BARINI|1
BARLEANA|1
BARLETTA|1
BARONI|3
BARONITCHA|1
BARONTO|1
BARRA|1
BARRADAS|1
BARREIRA|2
BARREIRO|4
BARREIROS|1
BARRESE|1
BARRETO|76
BARRETTO|2
BARROCAS|1
BARROCO|1
BARROS|105
BARROSO|12
BARROZO|3
BARTHOLO|1
BARTHOLOMEU|1
BARTOLO|1
BARTOLOMEU|1
BASILIA|2
BASILIO|13
BASS|1
BASSI|1
BASSOTO|1
BASTOS|77
BATALHA|8
BATINGA|1
BATISTA|159
BATOSTA|1
BATRIZ|1
BAUER|1
BAUMGRAZ|1
BAUR|2
BAX|1
BAYER|2
BAZILIO|2
BEAUCLAIR|1
BEBIANNO|1
BECCA|1
BECHARA|1
BECKER|1
BEDRAN|1
BELARMINO|4
BELCHIOR|3
BELEM|2
BELFORT|2
BELGRANA|1
BELICIO|1
BELIENE|1
BELIENY|1
BELISARIO|3
BELITARDO|1
BELLAN|1
BELLARDI|1
BELLARMINO|2
BELLAS|2
BELLEZ|1
BELLIENY|2
BELLINI|1
BELLIZZI|1
BELLO|9
BELLONE|1
BELLOT|1
BELLOTE|1
BELMINO|1
BELMIRO|2
BELMONT|1
BELO|12
BELTRAO|1
BEM|1
BEMVINDA|1
BENASIO|1
BENDELAK|1
BENEVENTE|1
BENEVENUTO|2
BENEVIDES|4
BENICIA|1
BENICIO|2
BENILIA|1
BENINA|1
BENJAMIM|1
BENJAMIN|3
BENOLIEL|1
BENON|1
BENTES|2
BENTHER|1
BENTO|35
BENVINDO|2
BEPPLER|1
BERALDI|1
BERAS|1
BERCOT|1
BEREZOVOYA|1
BERGAMO|1
BERGER|1
BERLANDA|1
BERLANDI|1
BERLIM|1
BERLINK|1
BERMAN|1
BERNADET|1
BERNADETTI|1
BERNAR|1
BERNARDES|19
BERNARDINO|9
BERNARDO|33
BERNUCCI|1
BERRIEL|1
BERTANHA|2
BERTANHONI|1
BERTO|3
BERTOCHI|1
BERTOLINA|1
BERTOLINO|1
BERTOLY|1
BERTY|1
BESERRA|2
BESSA|7
BETANHA|1
BETANNEA|1
BETHANIA|1
BETTINA|1
BEVENUTA|1
BEVILACQUA|1
BEZERA|1
BEZERRA|72
BHEATRIZ|1
BIANCHINI|1
BIANCO|1
BIATO|1
BICALHO|1
BICHAO|1
BICHARA|2
BIDES|1
BIE|1
BIERMANN|1
BIFANO|1
BIFO|1
BIG|1
BIGIO|1
BILE|1
BILICK|1
BILLO|1
BINDES|1
BIONDO|1
BIOSA|1
BIRINGUI|1
BISPO|18
BITARELLO|1
BITENCOURT|3
BITTAR|1
BITTENCOURT|17
BIZARRIA|1
BIZERRA|2
BIZZO|2
BLACK|1
BLAINE|1
BLANC|1
BLANCO|3
BLANDINA|1
BLAZUTI|1
BLEZER|1
BLOIS|1
BLUMENTHAL|1
BOA|4
BOAVENTURA|2
BOCKS|1
BOECHAT|5
BOGACKI|1
BOGEA|1
BOHER|1
BOHRER|2
BOIA|1
BOICHAT|1
BOIKO|1
BOJIO|1
BOLCHAT|2
BOLCKAU|1
BOLDRIM|1
BOLDRIN|1
BOLLI|1
BOLZANI|1
BOM|3
BOMFIM|8
BONAN|2
BONARD|1
BONATTO|1
BONDADE|1
BONELLI|1
BONFIM|7
BONI|1
BONIFACIO|4
BONILA|1
BONIOLI|1
BONIZETTE|1
BONSUCESSO|1
BOONE|1
BORBA|4
BORDALLO|1
BORDIN|1
BOREL|1
BORGES|101
BORGHI|1
BORHRY|1
BORLONI|1
BORMANN|1
BORRAKUENS|1
BORRIELLO|1
BORRIGUEIRO|1
BORSATTO|1
BORTOCINE|1
BORTOLAZZO|1
BORTOLIN|1
BOTELHO|21
BOTTO|1
BOTTONI|2
BOUSQUET|1
BOUZAN|1
BRAGA|97
BRAGANCA|10
BRAILLE|1
BRAINE|1
BRANCO|6
BRANDAO|24
BRANDES|1
BRANDI|1
BRANQUINHO|1
BRANTES|1
BRANZO|1
BRASA|1
BRASELINA|1
BRASIL|17
BRASILIANO|1
BRAUDINA|1
BRAVO|6
BRAZ|30
BRAZELLAS|1
BRAZIEL|1
BRAZIL|6
BRAZUNA|1
BREDA|2
BREDER|1
BREUER|1
BREVES|1
BREZA|1
BRIANI|1
BRIGIDO|1
BRIGITTE|1
BRILHANTE|1
BRILLA|1
BRIONES|1
BRISCHI|1
BRITES|4
BRITO|61
BRITTO|6
BRIZIO|1
BROCANELLO|1
BROLLO|1
BROMBERG|1
BROMMERCHENKEL|1
BRUCE|1
BRUGIONI|1
BRUM|8
BRUMANO|1
BRUNE|1
BRUST|1
BRUTSCH|1
BRUYN|1
BRUZZI|1
BUARQUE|3
BUCCEDI|1
BUENO|16
BUGALHO|1
BULBOL|1
BULCAO|2
BULHOES|3
BURGER|1
BURICHE|3
BURITY|1
BURLAMAQUI|1
BUSCH|1
BUSOLI|1
BUSSINGER|1
BUSTILHO|1
C|2
CABAL|1
CABAN|1
CABIUNA|1
CABRAL|79
CABREIRA|2
CACAVALLI|1
CACCAVO|1
CADINHA|1
CAETANO|48
CAIAZZO|1
CAITANO|3
CAJAO|1
CAJUEIRO|2
CAL|1
CALABRIA|2
CALADO|3
CALAZANS|3
CALCAGNO|1
CALDAS|13
CALDEIRA|16
CALDERARO|1
CALDES|1
CALHAU|1
CALHEIRO|2
CALHEIROS|5
CALIMAN|1
CALIXTO|7
CALLEIA|1
CALLIJAO|1
CALLIOPE|1
CALMON|2
CALUMBY|1
CALVALCANTI|1
CALVETO|1
CALVI|1
CALVINO|1
CALVO|1
CALZOLARI|1
CAMACHO|4
CAMANHO|1
CAMARA|14
CAMARARAO|1
CAMARGO|5
CAMARGOS|1
CAMARINHO|1
CAMARINO|1
CAMBRAIA|1
CAMELLO|2
CAMELO|4
CAMENETSKU|1
CAMERLI|1
CAMILLO|3
CAMINHA|1
CAMINITI|1
CAMISAO|1
CAMOES|1
CAMPAGNARO|1
CAMPANA|1
CAMPANARIO|1
CAMPEIRO|1
CAMPELLO|4
CAMPELO|5
CAMPISTA|2
CAMPO|1
CAMPOS|98
CANAAN|1
CANANO|1
CANARIO|2
CANAZIO|1
CANCEICAO|1
CANCELA|1
CANDEAS|2
CANDEIAS|1
CANDIDO|38
CANDIM|1
CANDINA|1
CANDITA|1
CANDOU|1
CANEDA|1
CANEDO|1
CANEJO|1
CANELA|1
CANELAS|1
CANELLA|1
CANELLAS|1
CANET|1
CANINDE|1
CANLE|1
CANO|2
CANTANHEDA|1
CANTANHEDE|1
CANTARIA|1
CANTARINE|1
CANTARINO|1
CANTELLE|1
CANTELMO|1
CANTO|3
CANUTO|2
CAPINAM|1
CAPISTRANO|1
CAPUA|1
CAPUANO|1
CAPUCHIM|1
CAPUTO|2
CARAHY|1
CARAPINA|1
CARARINE|1
CARCIO|1
CARDELI|1
CARDIA|1
CARDIANO|1
CARDIM|1
CARDINOT|1
CARDOS|1
CARDOSO|188
CARDOZO|14
CAREJO|1
CAREN|1
CARIA|1
CARIAS|1
CARICIO|1
CARIDADE|1
CARINO|2
CARIUS|1
CARLAS|1
CARLETO|1
CARLIM|1
CARLINI|1
CARMEU|1
CARMO|479
CARMOS|3
CARNAVAL|1
CARNAVALE|1
CARNEIRO|56
CARNO|1
CAROLA|2
CAROLINNY|1
CAROLINO|1
CAROLINY|1
CAROLYNE|1
CARPANEZI|1
CARPENA|1
CARPENEDO|1
CARPES|1
CARPINETTI|1
CARR|2
CARRACO|1
CARRARA|1
CARRARO|1
CARRATI|1
CARREIRA|1
CARREIRO|1
CARRERAS|1
CARRERO|1
CARRIA|1
CARRIELLO|1
CARRIJO|1
CARRILHO|2
CARROZINO|1
CARURU|1
CARUSO|3
CARVALHAES|3
CARVALHO|373
CASADO|4
CASAES|1
CASAL|1
CASANOVA|1
CASAS|2
CASELLA|1
CASEMIRO|5
CASSAB|2
CASSEMIRA|1
CASSEMIRO|1
CASSERO|1
CASSIANA|2
CASSIANO|2
CASSIMIRO|4
CASSIS|1
CASSIU|1
CASTANHEIRA|1
CASTANHO|2
CASTELANO|2
CASTELHANO|1
CASTELLO|1
CASTELO|4
CASTELUCCIO|1
CASTELUCIO|1
CASTICO|1
CASTILHO|17
CASTILHOS|1
CASTORINO|1
CASTRO|142
CASTRRO|1
CASTURIO|1
CATAGNARI|1
CATAO|2
CATARINO|3
CATARINOZI|1
CATERIGNE|1
CATHARINO|2
CATIAS|1
CATORINA|1
CATROLI|1
CATTA|1
CAVADAS|1
CAVAGGIONI|1
CAVALCANTE|27
CAVALCANTI|23
CAVALHEIRO|4
CAVALIERI|1
CAVALINE|1
CAVALLERO|1
CAVARARO|1
CAVCALCANTE|1
CAVIA|1
CAVICHINI|1
CAVINI|1
CAVOTTI|1
CAXIAS|2
CAYRES|1
CAZE|1
CAZENTINO|1
CAZUZA|2
CEA|1
CECARIO|1
CECEANTE|1
CECILIANO|1
CECILIO|1
CECINA|1
CEIA|1
CELANO|1
CELE|1
CELERINDO|1
CELES|1
CELESTINO|6
CELME|1
CELSO|1
CELYRIA|1
CENGRUBER|1
CENTRON|1
CEO|2
CERCA|1
CERDEIRO|1
CEREJO|1
CERQUEIRA|17
CERVEIRA|2
CESAR|15
CESPEDES|1
CESTARI|1
CEU|11
CEZAR|15
CHACON|1
CHAGA|1
CHAGAS|67
CHAGASDA|1
CHAIA|1
CHAICOSKI|1
CHAINE|1
CHALEGRE|1
CHALREO|1
CHAMARELLI|1
CHAMBERLAIN|1
CHANCA|1
CHARITA|1
CHARLES|2
CHARRET|1
CHASSE|1
CHAUSSE|1
CHAUVET|1
CHAVAO|1
CHAVES|41
CHEDIAC|1
CHEMPE|1
CHENTES|1
CHERDMAN|1
CHEREM|1
CHERKES|1
CHERUT|1
CHEVE|1
CHEVRAND|1
CHIANELLO|1
CHIBAIA|1
CHICONELI|1
CHICRALLA|1
CHIDIAC|1
CHILELLI|1
CHINAGLIA|1
CHIROLHO|1
CHRISPIM|2
CHRISPINIANA|2
CHRISTINE|2
CHRISTINI|1
CHRISTOPH|1
CHRISTOS|1
CIANA|1
CIBERATA|1
CICCHITELLI|1
CICERINA|1
CICINATO|1
CID|3
CIDADE|2
CIELLO|1
CILAE|1
CILEDA|1
CIMINELLI|1
CINDA|1
CINELHA|1
CINELLI|3
CINHA|1
CINIRO|1
CINTRA|1
CIPRIANA|2
CIPRIANO|6
CIREA|1
CIRIA|1
CIRIACO|2
CIRILLO|1
CIRILO|1
CIRINO|6
CIRNE|1
CKLESS|1
CLACIDO|1
CLAMENTINA|1
CLARE|1
CLARETE|1
CLARO|1
CLASS|1
CLAUDIE|1
CLAUDINO|7
CLAUSSE|1
CLAUSSEN|1
CLAVELLO|1
CLE|1
CLEANE|1
CLEINE|1
CLEMENTE|10
CLEMENTINO|7
CLEN|1
CLENE|1
CLEOFAS|1
CLEONIRA|1
CLEUDES|1
CLEVELARES|1
CLIMACO|2
CLODIDES|1
CLOUSSEN|1
CNOP|1
COBERIO|1
COBO|2
COE|1
COELHO|120
COELI|4
COGO|1
COHEN|1
COIMBRA|10
COINTEIRO|1
COITINHO|1
COLDA|1
COLDEIRA|1
COLETTE|1
COLINA|1
COLLARES|1
COLLECTA|1
COLOCCI|1
COLODETE|1
COLOMBO|1
COLONNA|2
COMBAT|1
COMIBRA|1
CONCAEICAO|1
CONCALVES|1
CONCEBIDA|2
CONCECAO|1
CONCECIAO|2
CONCEIAO|1
CONCEICA|1
CONCEICAIO|1
CONCEIOAO|1
CONCEIOUO|7
CONCESSA|1
CONCHA|1
CONCHETA|1
CONCIECAO|1
CONCILIO|1
CONDE|3
CONDEIXAS|1
CONDIDA|1
CONEGUNDA|1
CONELLA|1
CONHASCA|1
CONRADO|6
CONSENTINO|1
CONSENZA|1
CONSOELO|1
CONSTANCIO|1
CONSTANT|1
CONSTANTINO|9
CONTAIFFER|1
CONTE|3
CONTIERE|1
CONTINENTINO|1
CONTREIRAS|1
CONTRUCCI|1
CONVEM|1
CONZINE|1
COPARI|1
COPASI|1
COPER|1
CORADI|1
CORADINI|1
CORCI|1
CORCINE|1
CORDEIRO|70
CORDIM|1
CORDOVIL|1
CORE|1
COREA|1
CORLETT|1
CORLOSKES|1
CORMACK|2
CORNELIO|2
CORPAS|1
CORREA|192
CORREIA|65
CORTAT|2
CORTAZIO|1
CORTE|2
CORTES|11
CORTEZ|1
CORTO|1
COSENDEY|1
COSENZA|2
COSME|4
COSMES|1
COSMO|2
COSNTANTE|1
COSTA|480
COSTALLAT|1
COSTERMANI|1
COSTQA|1
COTIA|1
COTONHO|1
COTRIM|2
COTRIN|1
COTSA|1
COTTA|4
COUDINE|1
COUPEY|1
COURA|1
COURI|1
COUTINHO|80
COUTO|43
COZENDEY|1
COZER|1
COZZA|1
COZZOLINBO|1
CRACAS|1
CRAMER|1
CRAMO|1
CRAVEIRO|2
CRAVINHA|1
CRAVO|1
CRECENCIA|2
CREDI|1
CREMASCO|1
CREMILDE|2
CRESCENCIO|1
CRESPO|12
CRISOSTOMO|1
CRISPIM|4
CRISPIN|1
CRISTIANO|2
CRISTIBA|1
CRISTIELE|1
CRISTIELLEN|1
CRISTINANUNES|1
CRISTINI|3
CRISTINO|1
CRISTINY|3
CRISTOVAO|2
CRIZZIO|1
CRSITINA|1
CRUA|1
CRUVELO|1
CRYISTYNA|1
CRYSTINY|1
CRYVAROT|1
CSOUZA|1
CUBA|2
CUBAS|1
CUGOLA|1
CUKIER|1
CUNDARI|1
CUNHA|114
CUNNINGHAN|1
CUPIDO|1
CUPOLILLO|1
CUPTI|1
CURCINO|1
CURCIO|3
CURIO|1
CUROPOS|1
CURTINY|1
CURTIS|1
CURTY|3
CURVELLO|4
CURY|4
CUSTIDIA|1
CUZ|1
CUZATI|1
CYD|1
CYLLIO|1
CYNARA|1
CYPRIANO|2
D|31
DABADIA|1
DACYRA|1
DAHBOR|1
DAHER|1
DAIHA|1
DAJUDA|3
DALIA|1
DALIER|1
DALIM|1
DALIRIO|1
DALLES|1
DALMACIA|1
DALMEIDA|1
DALTER|1
DALTRO|2
DALUCIA|1
DALVI|1
DALZA|1
DAMACENA|2
DAMACENO|3
DAMACINO|1
DAMARIS|1
DAMAS|1
DAMASCENA|1
DAMASCENO|18
DAMASIO|2
DAMASSENA|1
DAMAZIO|4
DAMIAO|4
DAMIM|1
DAMIQUE|1
DANEMBERG|1
DANGELA|1
DANTAS|38
DAPARECIDA|1
DAPENHA|1
DARC|23
DARCYLA|1
DARES|1
DARGAM|1
DARIO|2
DARK|1
DARMA|1
DARQUE|2
DARQUES|1
DARROCHELLA|1
DAUDT|3
DAUTO|1
DAVI|2
DAVICO|1
DAVID|11
DAVIES|1
DAVILA|3
DAYNEA|1
DEAGUIAR|1
DEANDRADE|1
DEBIANO|1
DECARVALHO|1
DECEMIRA|1
DECNOP|1
DEFONSO|1
DEISTER|1
DELESPOSTI|1
DELFINO|4
DELGADA|1
DELGADO|5
DELL|2
DELLA|1
DELLANE|1
DELNIBO|1
DELOCCO|1
DELOURDES|1
DELPHIM|1
DELSECHI|1
DELY|1
DEMBERGUE|1
DEMETRINS|1
DEMETRIO|3
DENANCIRA|1
DENAZOR|1
DENEGRI|1
DENIZ|1
DENOVANO|1
DEODORINA|1
DEOLINDO|1
DEPLAN|1
DEPOS|1
DERIZA|1
DERLANGE|1
DERMEVAL|1
DEROSSI|1
DERRUD|1
DESCHAMPS|1
DESICLERIA|1
DESIDERATI|1
DESIDERIO|1
DESLANDES|1
DESTER|1
DESTERRO|2
DEUS|8
DEUSILENE|1
DEVELLY|1
DEVEZAS|3
DEZES|1
DEZZANI|1
DIALINA|1
DIANEZI|1
DIAS|283
DIAZ|1
DIEZ|1
DILCERIER|1
DILOR|1
DIMA|1
DIMAS|2
DIMISCIANO|1
DINARD|1
DINELLI|1
DINENNA|1
DINIZ|26
DIOGENES|1
DIOGO|3
DIOLARIO|1
DIOMASIA|1
DIONELA|1
DIONISIO|4
DIUNE|1
DIURO|1
DJAIR|1
DJANNY|1
DMINGOS|1
DOACRE|1
DOBRZENSKI|1
DOLENTINO|1
DOLOROSA|1
DOMER|1
DOMICIANA|1
DOMICIANO|1
DOMIGOS|1
DOMINGOS|20
DOMINGUEZ|2
DOMINQUE|1
DONALDO|1
DONATO|4
DONEFF|1
DONETE|1
DORES|224
DORIA|4
DORNELAS|2
DOROTHEIA|1
DORS|1
DORZEE|1
DOSCILINA|1
DOTTLING|1
DOUREA|1
DOYLE|1
DRATIVA|1
DRAY|1
DREON|1
DREYER|1
DRIA|1
DRMA|1
DRUMMOND|2
DRUMOND|4
DRUMONT|1
DUALDO|1
DUARCHA|1
DUARTE|101
DUATTE|1
DUBLIN|1
DUCTRA|1
DUENHAS|1
DUFRAYER|1
DULCILETE|1
DULCINELI|1
DUPERRON|1
DUQUE|7
DUQUES|1
DURAES|2
DURAU|1
DURCE|2
DURUALINA|1
DURUY|1
DUSDITE|1
DUSSANIRA|1
DUTEL|1
DUTRA|40
DUTTON|2
DUVANERA|1
E|4
EBRENZ|1
ECARD|3
ECCARD|1
ECHEVERRIA|1
EDEUSUILIA|1
EDILEUDA|1
EDINE|1
EDIUZA|1
EDIVALDA|1
EDIVAN|1
EDJANIA|1
EDMIVA|1
EDMOND|1
EDNEIDA|1
EDNEIDE|1
EDNILZINS|2
EDTH|1
EDVARDA|1
EDVGES|1
EDVIGES|1
EFRIDA|1
EGGER|2
EGINA|1
EGITO|1
EILANA|1
EIRAS|1
EJESUS|1
EL|1
ELAEL|1
ELBERT|1
ELECIR|1
ELEINA|1
ELENE|1
ELEOTERIA|1
ELEOTERIO|2
ELESBAO|1
ELETICIA|1
ELEUTERIO|1
ELEZINA|1
ELICE|2
ELIEZER|1
ELIMA|1
ELIODORO|1
ELIZABET|1
ELIZANE|1
ELIZBETH|1
ELIZEU|1
ELIZIETE|1
ELLER|1
ELLERANICE|1
ELMAR|1
ELMARA|1
ELMER|1
ELMO|1
ELOTILDE|1
ELPIDIO|1
ELVARISTA|1
ELYDIO|1
ELYR|1
EMACULADA|1
EMANOELI|1
EMERCIANA|1
EMERENCIANA|1
EMERICH|2
EMERICK|2
EMERIK|1
EMIA|1
EMIDIO|2
EMILIANO|1
EMILIAO|1
EMILIO|2
EMITERIO|1
EMMERICK|1
EMYCIA|1
EMYGDIA|1
ENCANARCAO|1
ENCRENAZ|1
ENCRENAZI|1
ENDSON|1
ENELITA|1
ENERGINA|1
ENERVENTINA|1
ENES|1
ENGEL|1
ENIA|1
ENNES|1
ENOUT|1
ENRIQUES|1
EPIFANIO|2
EPIPHANIO|1
ERBEWES|1
ERINGIA|1
ERLEMIA|1
ERLITA|1
ERMA|1
ERMEIRA|1
ERNANDES|1
ERVITI|1
ESBELTA|1
ESBER|1
ESCAFA|1
ESCAFURA|1
ESCAFURO|1
ESCOBAR|1
ESCOVINO|1
ESCUDEIRO|1
ESIMINO|1
ESMAEL|1
ESMALTA|1
ESMAMILHA|1
ESMERI|1
ESPEDIANA|1
ESPER|1
ESPINATO|1
ESPINDOLA|3
ESPINHA|1
ESPINOLA|1
ESPINOSA|1
ESPIRITO|50
ESPOSEL|1
ESPOSITO|2
ESSINGER|1
ESTACIO|3
ESTANISLAU|2
ESTEBANEZ|1
ESTEFANEL|1
ESTELINO|1
ESTEVAM|4
ESTEVAO|8
ESTEVES|39
ESTOLA|1
ESTOPA|1
ESTORA|1
ESTORQUE|1
ESTRELLA|1
ETERNA|1
ETHELVINA|1
ETTORE|1
EUFLAUZINA|1
EUFRASIO|2
EUGENIO|2
EULENE|1
EUMCT|1
EURIDIGE|1
EURIPEDES|1
EURIZINA|1
EUSTAQUIO|1
EUTILIA|1
EUVINA|1
EUZEBIO|2
EUZEDEIA|1
EUZEMAR|1
EVAGELINA|1
EVALGELISTA|1
EVANEGELISTA|1
EVANGELISTA|16
EYER|1
EZEDIM|1
FABIANO|2
FABIAO|1
FABIO|1
FABLICIO|1
FABRI|2
FABRICIO|3
FADEL|1
FADIGA|1
FADUL|1
FAGUNDES|13
FAGUNDO|1
FAIAL|1
FAILDE|1
FAILLACE|1
FALCAO|10
FALCAOM|1
FALCH|1
FALCON|1
FALEIA|1
FALHEIRO|1
FALMERIN|1
FALQUER|1
FALSETTA|1
FALTZ|1
FALUBA|1
FANSTA|1
FANTI|1
FANTICELLI|1
FARACO|1
FARAH|1
FARIA|78
FARIAS|46
FARJALA|1
FARMAVO|1
FARO|1
FATA|1
FATIAMA|1
FAUSTINO|6
FAUSTO|1
FAVIERI|1
FAVILLA|1
FAYAD|1
FAYAO|1
FAYER|1
FAZANO|1
FEIJAO|1
FEIJO|7
FEILO|1
FEITOSA|11
FELICIANNA|1
FELICIAS|1
FELICIO|7
FELINTO|2
FELIPE|23
FELIPINA|1
FELIPPE|9
FELISARDO|1
FELISBELLA|1
FELISBERTO|3
FELISMINO|2
FELIX|56
FELIZARDA|4
FELIZARDO|3
FELOMENA|1
FENANDES|1
FENELON|1
FERBABDES|1
FERDINAND|1
FEREIRA|2
FERENADES|1
FERES|1
FERMAU|1
FERMINO|1
FERNADES|5
FERNANADES|1
FERNANDES|317
FERNANDEZ|10
FERNANDINI|1
FERNANDO|3
FERNDANDES|1
FERRACINE|1
FERRAH|1
FERRANTE|1
FERRARI|6
FERRAZ|18
FERREIRA|989
FERRER|1
FERRERA|2
FERRETTI|1
FERRIRA|1
FERRO|2
FIALHO|6
FIARES|1
FIAUX|2
FICHMAN|1
FIDALGAO|1
FIDALGO|6
FIDEL|1
FIDELES|2
FIDELIS|7
FIDELLIS|1
FIGUEIRA|21
FIGUEIREDO|61
FIGUEIRO|1
FIGUEREDO|2
FIGUEREIDO|1
FIGUERO|1
FILADELFO|1
FILGUEIRA|1
FILGUEIRAS|2
FILIER|1
FILINTA|1
FILIPO|1
FILTSOFF|1
FINETTO|1
FINPLAY|1
FIOCCHI|1
FIORAVANTE|1
FIOTA|1
FIREZA|1
FIRMA|1
FIRMINIA|1
FIRMINO|12
FIRMO|2
FISCHER|1
FIUZA|5
FLAMA|1
FLANETO|1
FLAVIO|2
FLECHTMANN|1
FLENTZY|1
FLEREMOSCH|1
FLOR|9
FLORENCIO|5
FLORENTIN|1
FLORENTINO|5
FLORES|10
FLORESTA|3
FLORET|1
FLORIANO|3
FLORIDO|2
FLORIM|2
FLORINA|1
FLORINDO|1
FOGACA|1
FOGATTO|1
FOGGI|1
FOLCH|1
FOLHES|1
FOLIGNO|1
FOLLY|4
FOLY|1
FONSECA|105
FONTAINHA|1
FONTE|2
FONTELA|2
FONTES|21
FONTOURA|6
FONTTINALT|1
FORASTEIRO|1
FORMAGGINI|1
FORMENTO|1
FORMIGA|2
FORMINO|1
FORNELLE|1
FORTES|1
FORTUNATO|5
FOSSATI|1
FOURAUX|1
FRABOWSKI|1
FRACA|1
FRACACIO|1
FRACINAS|1
FRADE|1
FRADIQUE|1
FRAGA|13
FRAGAS|1
FRAGELLI|1
FRAGOSO|5
FRAGOZO|1
FRAGUAS|1
FRANCE|1
FRANCELINO|3
FRANCILINA|1
FRANCINA|1
FRANCINI|1
FRANCINY|1
FRANCIS|1
FRANCISCIS|1
FRANCISCONE|1
FRANCISQUI|1
FRANCISQUINI|1
FRANCO|30
FRANCOSI|1
FRANCOSO|3
FRANGO|1
FRANKLIN|2
FRANOA|2
FRANSCISO|1
FRANZSKA|1
FRASAO|1
FRATANI|1
FRAUCHES|1
FRAUSINA|1
FRAVINA|1
FRAZAO|9
FREDERICA|1
FREDERICO|3
FREI|1
FREIDA|1
FREIRA|1
FREIRE|43
FREIRES|1
FREITAS|154
FRENACISCA|1
FRESTA|1
FRIAS|1
FRICK|1
FRIGO|1
FRIMINO|1
FROES|5
FRONTELMO|1
FROSSARD|3
FROTA|1
FROTTE|2
FROUCHE|1
FRRANCISCA|1
FRUTUOSO|1
FRUTUOZO|1
FUENTES|1
FULCO|1
FULGENCIO|1
FUMAUX|1
FUMEGA|1
FURQUIM|1
FURTADO|26
FURTUNATO|1
FUSTAGNO|1
GABETTO|2
GABIATTI|2
GABRIEL|11
GABRIELI|1
GABRIELLY|4
GABRY|1
GABY|1
GADELHA|3
GAFANHAO|1
GAGO|2
GAIA|4
GAIAFFA|1
GAIOTA|1
GAIOTI|1
GALANTE|1
GALARDO|1
GALASSO|1
GALAXE|1
GALDEANO|1
GALDINO|16
GALHANO|2
GALHARDI|1
GALHARDO|2
GALHETA|1
GALIZA|1
GALL|1
GALLASSI|1
GALLICCHIO|1
GALLO|1
GALLOULCKYDIO|1
GALLUZZI|1
GALOSSE|1
GALVAO|10
GALVAR|1
GALVES|1
GAMA|24
GAMEIRO|1
GANDARA|1
GANDRES|1
GANEM|1
GANGANA|1
GANIMI|1
GARCEZ|5
GARCIA|84
GARCONE|1
GARIOS|1
GARNIER|1
GARRASINTO|1
GARRIDO|2
GASPAR|12
GASPARETI|1
GASTALHO|1
GATTI|1
GAUDENCIO|3
GAUDIE|1
GAUZZI|1
GAVA|1
GAVALDA|1
GAVEA|1
GAVINHA|1
GAVINHO|1
GAYANO|1
GAYER|1
GEADA|1
GEANA|1
GEDEAO|1
GEDIDA|1
GELANI|1
GELENDER|1
GEMAQUE|1
GEMILO|1
GENADIA|1
GENAND|1
GENARO|1
GENEROSO|4
GENESI|1
GENHA|1
GENOVENA|1
GENOVEZ|1
GENRO|1
GENUINO|1
GEORGES|1
GERALCINA|1
GERALDI|1
GERALDINO|1
GEREMIAS|3
GERENILDA|1
GERHARDT|1
GERHEIM|1
GERMANIA|1
GERMANO|5
GERTRUDA|1
GERVASIO|1
GESTAL|1
GESTEIRA|1
GETULHO|1
GETULIA|1
GIANETTI|1
GIARDINO|1
GICOVATE|1
GIDNES|1
GIERLINGS|1
GIGANTE|1
GIGLIO|1
GIL|5
GILCI|1
GILETTE|1
GILGIL|1
GILKA|1
GILL|1
GILLY|1
GILSE|1
GILTA|1
GIMENES|3
GIMENEZ|1
GIN|1
GINO|1
GIOIA|1
GIORGETTI|1
GIORGINO|1
GIORGIO|1
GIOSEPPI|1
GIOVANNINI|1
GIRALDO|1
GIRARDI|1
GISELLE|1
GIVALDA|1
GIZELMA|1
GLACE|1
GLAUCIDENE|1
GLESIELE|1
GLEUTRIA|1
GLONCY|1
GOCALVES|1
GODINHO|7
GODLESKY|1
GODOY|5
GOES|9
GOGGI|1
GOIZ|1
GOLFETO|1
GOLODINO|1
GOMERCINDO|1
GOMES|748
GONALVES|1
GONCALES|2
GONCALVES|411
GONCALVEZ|1
GONCAVES|1
GONDIM|2
GONIER|1
GONOALVES|3
GONSALVES|1
GONTIJO|1
GONZAGA|12
GONZALE|1
GONZALES|1
GONZALEZ|8
GORBACH|1
GORDILHO|1
GORET|2
GORETHE|1
GORETHI|1
GORETTE|1
GORETTI|1
GORITO|2
GORM|1
GOROTE|1
GOTTETROY|1
GOTTGTROY|1
GOUDAR|1
GOUDARD|2
GOUDINHO|1
GOULART|21
GOULARTE|1
GOUVEA|16
GOUVEIA|8
GOVEA|2
GRACAS|313
GRACEANA|1
GRACIANI|1
GRACIANO|7
GRACIAS|1
GRACINDO|1
GRACIOLI|1
GRACOSKI|1
GRADISSE|1
GRAFANASSI|1
GRAFFIUS|1
GRANADO|1
GRAOAS|5
GRASIELA|1
GRASIELLA|1
GRASSI|1
GRATIVOL|1
GRAU|1
GRAVANO|1
GRAVATO|1
GRAVINO|1
GRCAS|1
GRECCO|1
GRECO|1
GREGO|1
GREGORIO|10
GREI|1
GRENWALD|1
GREY|1
GRICZYNSKI|1
GRIJO|2
GRIJON|1
GRILHE|1
GRILLE|1
GRILLO|1
GRINBERG|1
GRINER|1
GRINSPUM|1
GRIPIM|1
GRIPP|1
GROETAERS|1
GROETARES|1
GROSS|1
GROSSI|1
GROTZ|1
GUALBERTO|2
GUANABARA|1
GUANABARINO|1
GUARALDI|1
GUARANHO|1
GUARIENTO|1
GUARINO|1
GUAYANAZ|1
GUDOLLE|1
GUEDES|42
GUEIROS|2
GUERRA|11
GUERREIRO|5
GUIA|9
GUIDA|3
GUIDO|4
GUIDOTTI|1
GUIEIRO|1
GUILERMINA|1
GUILHERME|9
GUIMARAES|120
GUIMARAS|1
GUIMARES|1
GUINHOES|1
GUITZ|1
GUIZAN|1
GUIZARRA|1
GULIAS|1
GULLO|1
GUM|1
GURGEL|4
GURIANO|1
GUSMAO|2
GUSTAVO|1
GUTIERREZ|1
GUTTERES|1
H|1
HABIDE|1
HADASHA|1
HADDAD|1
HADJINE|1
HAFNER|1
HAGE|1
HAGGE|1
HAIL|1
HALFELO|1
HANSCH|1
HANSEN|2
HANSZMANN|1
HARA|1
HARACH|1
HARB|1
HARBS|1
HARDOIM|1
HART|1
HASSAM|1
HASSAN|1
HASSEL|1
HATSUMI|1
HAUM|1
HAUS|1
HECKER|1
HEDDY|1
HEHL|2
HEIM|1
HEISEN|1
HELARIO|1
HELENO|1
HELLOYZA|1
HELMA|1
HELMUNTH|1
HELOISE|1
HELT|1
HELUY|1
HEMANUELA|1
HEMETERIO|1
HENRINGER|1
HENRIQUES|23
HENRIQUETO|1
HENRQIUE|1
HENRY|1
HENRYKA|1
HENTER|1
HENTZY|1
HERDY|6
HEREZA|1
HERINGER|3
HERMANDES|1
HERMES|3
HERMIDA|1
HERNANDES|5
HEROTHILDES|1
HEROY|1
HERRERO|1
HERULIA|1
HESPANHA|1
HESPANHOL|1
HETES|1
HEVIA|2
HIGGINS|1
HIGINO|1
HILARIA|2
HILDEGARD|1
HILLEN|1
HIPOLITO|4
HOCKSPRUNG|1
HOERNER|1
HOERTEL|2
HONORATO|10
HONORIO|11
HORA|7
HORACIO|1
HORIZONTINA|1
HORTA|2
HOSKEN|1
HOSTALACIO|1
HOTTIS|1
HOTTZ|1
HOULI|1
HUCK|1
HUCS|1
HUGO|3
HUGUENIN|2
HUMIA|1
HUNGRIA|1
HUNTER|1
HYEDA|1
HYLDETH|1
I|2
IACILLO|1
IALONGO|1
IANTORNO|1
IBRAHIM|1
IBRAIM|1
IDALA|1
IDALENCIO|1
IDALETE|1
IDEAL|1
IDELFONSO|3
IDIANA|1
IDIMEA|1
IDONI|1
IESPA|1
IGLESIAS|1
IGNACIO|7
IGREJA|1
ILARIO|1
IMA|1
IMACULDA|1
IMBASSAHY|1
IMBROISI|1
IMBROZIO|1
IMMACULADA|2
INACIO|18
INDALECIO|1
INDEFONSO|1
INELE|1
INERELI|1
INFANTE|1
INNOCENCIO|2
INNOCENTI|1
INOCENCIO|2
INSAURRAULDE|1
INSSAEURRIAGA|1
INVERNICI|1
IORIO|3
IRACILDES|1
IRAI|1
IRDIA|1
IRERE|1
IRIAS|1
IRONETA|1
ISADORAH|1
ISAUFRAN|1
ISHAG|1
ISIDIA|1
ISIDIO|1
ISIDORO|1
ISIDRO|1
ISMAEL|1
ISMERIO|2
ISSA|1
ISSICABA|1
ISSMAIL|1
ISTELLA|1
ITABORAHY|2
ITAGYBA|1
ITAIPAVA|1
ITAJAHY|1
ITATYARA|1
ITAURA|1
ITHAMAR|1
IUNAR|1
IVO|6
IZANEL|1
IZARIAS|1
IZEQUIEL|1
IZIA|1
IZIDIA|1
IZIDIO|2
IZIDORO|3
IZIDRO|2
IZILENA|1
IZOLDI|1
JABOR|1
JABUB|1
JACILENE|1
JACILITA|1
JACINTHO|1
JACINTO|6
JACOB|4
JACONIANO|1
JACOVOS|1
JACQUES|1
JACUA|2
JACURU|2
JACUTINGA|1
JADIRINA|1
JAINARA|1
JANA|1
JANDER|1
JANDIDA|1
JANDIR|1
JANDRE|1
JANDRES|1
JANELLI|1
JANNUARIO|1
JANNUZZI|2
JANONI|1
JANOTT|2
JANSEN|1
JANSSON|1
JANUARIO|5
JANZ|1
JANZKOVSKI|1
JAQUES|1
JARDIM|16
JARES|1
JARIMA|1
JATAHY|1
JEAN|1
JECONITA|1
JENUARIA|1
JEORGINA|1
JEREISSATI|1
JEREMIAS|1
JERONIMO|5
JERTRUDES|1
JESS|1
JESUS|462
JEUS|1
JEZUS|1
JIN|1
JOANICOLA|1
JOANNES|2
JOAS|1
JOCUNDO|1
JOIVINA|1
JONE|1
JONES|1
JONILDE|1
JOPPERT|1
JORANO|1
JORDAO|6
JOREINA|1
JORGINETE|1
JOSEGOMES|1
JOSS|1
JOVIANO|1
JOZINA|1
JSE|1
JUCA|1
JUCELENE|1
JUDILMA|1
JUDINEIDE|1
JUDIT|1
JUEZ|1
JULIANO|1
JULIAO|4
JUNCKEN|1
JUNGER|4
JUNIOR|2
JUNQUEIRA|5
JURCELINA|1
JUSSULEIDE|1
JUSTA|3
JUSTI|1
JUSTINIANO|1
JUSTINO|12
JUSTO|2
JUVENCIO|3
JUVENIL|1
JUVENILDE|1
JUVENTINO|1
KAHL|1
KAHN|1
KAINA|1
KAIZER|1
KALEH|1
KAOLU|1
KAPES|1
KAPPAUN|2
KAPPEL|1
KARLLA|1
KASSY|1
KATHLEN|1
KATONA|1
KAVAMURA|1
KAYANER|1
KAZEM|1
KELE|1
KELLES|1
KELLI|1
KELMAN|1
KEROLLEY|1
KEROLLYN|1
KETHLYN|1
KHADIJA|1
KIARA|1
KIFFER|1
KLEIN|1
KLEM|1
KLEMIER|1
KLEN|3
KNOP|1
KNUPP|1
KNUST|1
KO|1
KOCH|1
KOCRNER|1
KOHLER|1
KOIDE|1
KOIFFMANN|1
KOILLER|1
KOPKE|1
KOPP|1
KOPPE|1
KORNER|1
KOZLOWSKI|1
KRAEMER|1
KRAEWBRING|1
KRASS|1
KRAUSS|1
KRECZMARSKY|1
KREISCHER|1
KREMER|1
KRON|1
KROPF|2
KRUSE|1
KUMAKURA|1
KURTZ|1
KURY|2
KUSSAMA|1
L|1
LA|4
LABAMA|1
LABETA|1
LABOR|1
LABORAO|1
LABOZZETA|1
LABRE|1
LACATELLI|1
LACERDA|26
LACIENI|1
LACORT|1
LADEIRA|5
LADISLAU|1
LAFAIETTE|1
LAFON|1
LAGE|8
LAGES|1
LAGO|3
LAGOAS|1
LAGOS|2
LAHR|1
LAISA|1
LAIZA|2
LAMAGO|1
LAMAS|1
LAMBARTINI|1
LAMEIDA|1
LAMELA|1
LAMELLA|1
LAMIN|1
LANCELLOTI|1
LAND|1
LANDE|1
LANDES|2
LANDIDA|1
LANDIM|2
LANDULFO|1
LANE|1
LANEDA|1
LANES|1
LANHAS|1
LANI|1
LANIADO|1
LANNES|5
LANZE|1
LANZONI|1
LAODICEA|1
LAPA|3
LAPORT|1
LARANJEIRA|2
LARANJEIRAS|1
LAROTONDA|1
LAS|1
LASNAU|1
LASNEAUX|1
LASSANCE|1
LATENCA|1
LATERCA|1
LATERZA|1
LATIFFE|1
LAUANNA|1
LAUBER|1
LAUDANO|1
LAUDEAUZER|1
LAUREANA|3
LAUREANO|2
LAURENCIO|1
LAURENTINO|4
LAURETINA|1
LAURIA|4
LAURIANO|3
LAURINDO|9
LAVANDEIRA|1
LAVAREDA|1
LAVERSVEILER|1
LAVINAS|1
LAVOURA|2
LAVRA|1
LAZARI|1
LAZARO|4
LAZIE|1
LAZIER|1
LEADINE|1
LEAL|62
LEANDRO|15
LEAO|12
LEBRE|1
LECKAR|1
LEE|1
LEEDES|1
LEFEBURE|1
LEILAH|1
LEILANDRE|1
LEIROZ|1
LEITAO|5
LEITE|68
LEIVA|1
LEJA|1
LELES|1
LELIS|1
LELLIS|1
LEME|1
LEMOS|38
LENADRO|1
LENCA|1
LENOR|1
LENTO|1
LEOBINA|1
LEOCADIO|1
LEODOVINO|1
LEONARDO|11
LEONCIA|1
LEONCIO|4
LEONE|1
LEONEL|1
LEONI|2
LEONIE|1
LEONY|1
LEOPOLDINO|2
LEORNE|1
LEPORE|2
LEPRE|2
LESCAUT|1
LESSA|21
LETTIZIO|1
LEUYLOERT|1
LEV|1
LEVANTES|1
LEVATE|1
LEVY|1
LEYLAH|1
LEYRAUD|1
LEYSER|1
LIAL|1
LIBANIO|2
LIBARDE|1
LIBERAL|1
LIBERALINO|1
LIBERATO|2
LIBORIO|1
LIBRALESSO|1
LICA|1
LICE|1
LIDORIO|1
LIDUINO|1
LIELING|1
LIELZA|1
LIENES|1
LIMEIRA|2
LINCHE|1
LINDO|1
LINDOLFO|2
LINDOMAS|1
LINE|1
LINHARES|16
LINO|17
LINS|20
LINVALDINA|1
LIONARA|1
LIONCIO|1
LIPORACE|1
LIPPO|1
LIRANGE|1
LISBOA|19
LISIEUX|1
LISONINA|1
LO|2
LOBACK|1
LOBAO|1
LOBATO|5
LOBIANCO|1
LOBO|9
LOBOSCO|1
LOCATEL|1
LOCIO|1
LODETTI|1
LOFIEGO|1
LOGATTO|1
LOIOLA|1
LOISIUX|1
LOIVOS|1
LOJA|1
LOKS|1
LOLLAGO|1
LOMBA|3
LOMEU|1
LONDRES|1
LONGARETTI|1
LONGHI|1
LONGINA|1
LONTRA|1
LOOS|1
LOPES|309
LOPEZ|3
LOPOS|1
LORANY|1
LORDES|4
LOREDO|1
LORENY|1
LORES|1
LORETI|1
LORETO|1
LORETTE|1
LORETTI|1
LOROZA|1
LORRANNA|1
LORRAYNY|1
LOS|2
LOSCHIAVO|1
LOTERIO|1
LOTRIM|1
LOUBACK|1
LOUNINE|1
LOURD|1
LOURDS|1
LOUREIRO|16
LOURES|1
LOURO|2
LOUSADA|2
LOUVISE|1
LOUYSE|1
LOUZADA|3
LOUZE|1
LOVISE|1
LOYO|1
LOYOLA|4
LUA|1
LUACES|1
LUCA|3
LUCAS|18
LUCCA|1
LUCENA|4
LUCIANO|9
LUCIBE|1
LUCIDE|2
LUCILEIDE|1
LUCINDO|3
LUCK|1
LUDGERO|1
LUDOLF|1
LUDOVINO|1
LUGON|1
LUICA|1
LUICIA|1
LUIS|6
LUIZIETE|1
LULE|1
LUNES|1
LUPPO|1
LUQUINI|1
LURDE|1
LUSIEUX|1
LUSORIO|1
LUSTOSA|2
LUXEMBURGO|1
LUZDINA|1
LUZIET|1
LUZIO|1
LUZZIOL|1
LYRIO|3
M|5
MABETE|1
MAC|1
MACARIO|2
MACEDO|59
MACELLO|1
MACENA|4
MACHADO|217
MACHARETH|1
MACHAY|1
MACIEIRA|2
MACIEL|34
MACIELO|1
MACY|1
MADALINA|1
MADEIRA|10
MADELENA|1
MADUREIRA|4
MADURO|2
MAE|1
MAEDA|1
MAESSI|1
MAESTRELO|1
MAFIA|1
MAFORT|2
MAFRA|1
MAGALHAES|58
MAGALHES|1
MAGANO|1
MAGARIDA|1
MAGARINOS|1
MAGELLA|2
MAGIOLI|1
MAGNANI|1
MAGNAVITA|1
MAGNO|2
MAGRI|1
MAHFUZ|1
MAIEIRO|1
MAILLARD|1
MAIONE|1
MAISONETTE|1
MAITO|1
MALAFAIA|2
MALAGUTTI|1
MALAQUIAS|4
MALHEIRO|2
MALHEIROS|7
MALHO|1
MALIAS|1
MALLET|1
MALREIRA|1
MALTAROLLO|1
MALUF|1
MAMA|2
MAMEDE|2
MAMPRIM|1
MANA|1
MANACEZ|1
MANACHE|1
MANAHES|1
MANDAKINI|1
MANDARINO|1
MANEDE|1
MANGABEIRA|2
MANGIA|1
MANHA|1
MANHAES|22
MANHAS|1
MANHONI|1
MANNARINO|1
MANNIS|2
MANOLITA|1
MANSILLA|1
MANSO|3
MANSORE|1
MANSUR|1
MANTELLI|1
MANTUANO|1
MANULA|1
MANZANO|1
MANZINI|1
MAPEIRA|1
MARANHAO|5
MARASCIA|1
MARASSI|1
MARCAL|4
MARCANTE|2
MARCELINO|12
MARCELLI|1
MARCELLINO|1
MARCELLO|1
MARCELO|7
MARCES|1
MARCHESANO|1
MARCHETE|1
MARCHETTI|1
MARCHIORI|1
MARCHON|3
MARCIANO|3
MARCILIO|1
MARCIS|1
MARCO|2
MARCOLE|1
MARCOLINO|6
MARCONDES|5
MARCOVECCHIO|1
MARCULINO|1
MARES|1
MARGARAIA|1
MARGARIZO|1
MARIADA|1
MARIANNE|1
MARILAC|1
MARILLAC|1
MARIM|1
MARINETTI|1
MARINHO|53
MARINIELLO|1
MARINO|2
MARIOTTI|1
MARITANA|1
MARLIMA|1
MARMELO|1
MARMUTE|1
MARONHAS|1
MAROTTI|1
MAROTTO|1
MAROUCO|1
MARQUE|2
MARQUES|207
MARQUEZINI|1
MARQUI|1
MARQUIORI|1
MARRA|1
MARRASCHI|1
MARREIROS|1
MARSOCK|1
MARTELETI|1
MARTELLETTI|1
MARTELLO|1
MARTIGNONI|1
MARTIM|2
MARTIN|3
MARTINE|1
MARTINEZ|3
MARTINHO|3
MARTINIANO|3
MARTINO|2
MARTINONI|1
MARTINS|378
MARTIS|1
MARTORELLI|2
MARUQES|1
MARXUS|1
MARYS|1
MARZULLO|1
MASALA|1
MASCARENHAS|7
MASI|2
MASINI|1
MASS|1
MASSA|2
MASSACESI|2
MASSENA|2
MASSIMO|1
MASSOLAR|1
MASSON|1
MASTELLA|1
MATA|2
MATEUS|6
MATHES|1
MATHEUS|7
MATHIAS|11
MATIAS|22
MATINS|2
MATOK|1
MATOLA|1
MATOS|36
MATSUKO|1
MATTA|5
MATTEA|1
MATTOR|1
MATTOS|55
MATTOZINHO|1
MAURAT|1
MAURICIO|8
MAURITY|1
MAURO|1
MAURY|1
MAXIMA|3
MAXIMIANO|3
MAXIMINIANO|1
MAXIMO|6
MAYNARD|1
MAZINE|1
MAZONI|1
MAZOTTO|1
MAZUR|1
MAZZINI|1
MAZZO|1
MAZZONI|2
MEANDA|1
MEATO|1
MECEDES|1
MECIAS|1
MEDALHA|1
MEDALHAS|1
MEDEIRO|1
MEDEIROS|91
MEDELA|1
MEDELLA|1
MEDES|1
MEDICE|1
MEDINA|2
MEDRADO|1
MEDROS|1
MEDTI|1
MEDUZIRA|1
MEIBER|1
MEIELLES|1
MEIMICKE|1
MEIRA|6
MEIRELES|9
MEIRELLES|11
MEL|2
MELASCHUS|1
MELBA|1
MELGAR|1
MELGAREJO|1
MELICIO|1
MELILA|1
MELITA|1
MELLADO|2
MELLO|113
MELO|73
MELQUIADES|1
MENAH|1
MENASSA|1
MENCARELLI|1
MENCHINI|1
MENDANHA|1
MENDEIROS|1
MENDEL|2
MENDES|149
MENDIS|1
MENDONCA|75
MENEGUITTI|1
MENESA|1
MENESES|3
MENEZES|75
MENINI|1
MENINO|2
MENUCCI|1
MERCANTE|1
MERCIDIA|1
MERECIANA|1
MERIADES|1
MERKER|1
MERLIM|1
MERLINDA|1
MESQUITA|24
MESSA|1
MESSINA|1
METTRAU|1
METZ|1
MEURES|1
MEXIAS|1
MEYRE|1
MICAS|1
MICELI|3
MICHAELA|1
MICHELSEN|1
MICIANO|1
MIGLIANO|1
MIGUEIS|1
MIGUEL|20
MIGUERES|1
MIILLER|1
MILAGRE|1
MILAGRES|7
MILAN|1
MILDE|1
MILEIP|1
MILHAO|1
MILHORANCE|1
MILIOLI|1
MILITAO|1
MILITINA|1
MILLATA|1
MILLEM|1
MILLER|2
MILLICONT|1
MILMAN|1
MILTON|1
MILWARD|1
MIMDA|1
MINA|1
MINASSIAN|1
MINCY|1
MINEIRO|1
MINERVINO|1
MINOGA|1
MIOTE|1
MIQUELINE|1
MIRAGAIA|1
MIRANDA|108
MISABEL|1
MIUQUI|1
MIYAMURA|1
MIZAEL|1
MJOSE|1
MLIANO|1
MNARIA|1
MOAMED|1
MOCHELIN|1
MOCO|1
MODESTO|9
MOES|1
MOGUI|1
MOHAMED|1
MOHAMMED|1
MOISES|2
MOITA|1
MOL|1
MOLINA|5
MOLINARO|1
MOLLER|1
MOLTER|1
MONACO|1
MONCAO|1
MONCE|1
MONCORVO|1
MONCOVES|1
MONEGO|1
MONETTO|1
MONGA|1
MONILHA|1
MONIZ|3
MONJARDIM|1
MONJARDINI|1
MONJELLOS|1
MONNERAT|2
MONQUEIRO|1
MONSOR|1
MONSORES|6
MONTALEONE|1
MONTANHAS|1
MONTE|5
MONTEIRO|166
MONTEL|1
MONTENEGRO|5
MONTES|1
MONTESERRAT|1
MONTICO|1
MONTMOR|1
MOON|1
MOORE|1
MORADO|1
MORAES|127
MORAGAR|1
MORAIS|23
MORALES|2
MORANDINI|1
MOREIRA|274
MORELLI|1
MORENA|3
MORENO|9
MORET|1
MORETT|1
MORETTE|1
MORGADO|4
MORISSON|1
MORJEM|1
MORLIM|1
MOROMISATO|1
MORORO|2
MORTENSE|1
MORTINEZ|1
MORTONI|1
MOSA|1
MOSCIARO|1
MOSSO|1
MOSTOF|1
MOTA|24
MOTHA|1
MOTHE|2
MOTLIS|1
MOTTA|46
MOURAO|9
MOUREIRA|1
MOURO|1
MOUSINHO|1
MOUTA|2
MOUTINHO|4
MOVAL|1
MOYSES|2
MOYZES|1
MOZA|2
MOZAGA|1
MOZARE|1
MOZELLI|1
MOZER|1
MUFALANI|1
MUGER|1
MUGUET|1
MULLER|4
MUNGER|1
MUNIZ|45
MUREB|1
MURETE|1
MURI|1
MURILO|1
MURITIBA|1
MUROS|1
MURRAY|1
MURRO|1
MURTA|1
MURY|1
MUSA|3
MUSSEME|1
MUSSER|1
MUSSI|1
MUYLAERT|1
MUZI|1
MYKAELLY|1
MYNSSEN|1
MYRRHA|1
MYRTHO|1
MYRTIS|1
MYRTLE|1
MZA|1
N|4
NABUCO|1
NACAGAWA|1
NACI|1
NACIF|1
NADA|1
NADEJE|1
NADER|2
NADINE|1
NAFFAH|1
NAGIPE|1
NAIA|1
NAJARETH|1
NAJJAR|1
NALU|1
NAME|1
NANDES|1
NANSI|1
NANSIM|1
NANTES|2
NAPOLEAO|2
NARCILIO|1
NARCISO|2
NARCIZA|1
NARCIZO|1
NARDELLI|1
NASCENTES|1
NASCIMENTO|295
NASSER|1
NASXCIMENTO|1
NATAL|1
NATARIO|1
NATIVA|1
NATURA|1
NAUAR|1
NAVARINI|1
NAVARINY|1
NAVARRA|1
NAVARRO|7
NAVEGA|1
NAVEGANTE|1
NAVEGANTES|1
NAYLOR|1
NAYMA|1
NAZAR|1
NAZARA|1
NAZARENA|2
NAZARENO|1
NAZARETA|1
NAZARETHCAVALCANTE|1
NAZARINA|1
NAZARIO|2
NE|1
NEGRAO|2
NEGREIROS|2
NEGRIN|1
NEHME|1
NEI|2
NEILDE|1
NEIMA|1
NELE|1
NELLANY|1
NEMER|1
NENO|1
NEPOMUCENO|3
NEPUMUCENO|1
NERES|2
NEREU|1
NERIS|1
NESTORINA|1
NETA|1
NETO|5
NETTO|3
NEUBA|1
NEUMAM|1
NEUMANN|4
NEURER|1
NEUZIDE|1
NEUZINHA|1
NEUZIRA|1
NEVES|159
NEYD|1
NICACIO|2
NICANOR|1
NICHOSON|1
NICODEMOS|1
NICOLAU|5
NICOLAY|1
NICOLAZZI|1
NICOMEDES|1
NIDECK|1
NIEL|1
NIELSEN|1
NIKOLY|1
NIMER|1
NISAEL|1
NITO|1
NOBERTO|1
NOBRE|6
NOBREGA|7
NOCOMEDES|1
NOEL|1
NOEM|1
NOETE|1
NOGUEIRA|109
NONATA|5
NONATO|4
NONNATO|1
NORBERTO|1
NORBIM|1
NORONHA|4
NOTERCIA|1
NOTO|1
NOVAES|11
NOVAIS|3
NOVARINO|1
NOVATO|1
NOVELINO|1
NOVO|1
NUNES|211
NUNIES|1
NUNIZ|1
NUNNES|1
O|4
OBREGON|1
OCTAVIO|1
OCTILYA|1
ODELIA|1
ODELNASCY|1
ODEMIA|1
ODORICI|1
ODWYER|1
OGALASSI|1
OGANDO|1
OJEDA|1
OLANDINA|1
OLAVO|1
OLDILIA|1
OLEGARIO|3
OLEIDINO|1
OLESIA|1
OLIMPIO|2
OLINDINO|1
OLINTO|2
OLIV|1
OLIVEIRA|1051
OLIVETO|1
OLIVETTI|1
OLIVIERI|2
OLIVINA|1
OLVEIRA|3
OLVIEIRA|1
OMENA|2
OMIZA|1
ONAIZE|1
ONEIL|1
ONEILL|1
ONESTADA|1
ONICES|1
OPYTACIANO|1
ORESTELLA|1
ORESTES|2
ORIOLI|1
ORLANDINI|1
ORLANDO|1
ORMAZINDA|1
ORMENDINA|1
ORMENTANO|1
ORMOND|1
ORNELAS|2
ORNELLAS|7
OROFINO|1
ORTEGA|3
ORTIS|1
OSANA|1
OSCALIA|1
OSCAR|1
OSCARLINA|1
OSEAS|1
OSORIA|1
OSORIO|5
OSTA|1
OSUZA|1
OTONI|2
OTTERO|1
OTTILLIA|1
OTTONI|1
OUTEIRO|1
OUVERNEY|2
OUVIDOR|1
OVICO|1
OVIDIO|1
OWCZAREK|1
OZE|1
OZIAS|1
OZORIO|3
P|1
PACHA|1
PACHECO|68
PACHU|2
PACI|1
PACIENCIA|1
PADILHA|6
PADUA|1
PAES|37
PAGE|1
PAGILARINE|1
PAGLIARO|1
PAGLIARONI|1
PAGNUZZI|1
PAIM|4
PAINEIRAS|1
PAINS|1
PAIS|3
PAIVA|59
PAIXAO|17
PALACIO|2
PALADINO|1
PALATNIK|2
PALHA|1
PALHANO|1
PALMA|2
PALMARES|1
PALMEIRA|1
PALMEIRAS|2
PALMEIRO|1
PALMER|1
PALOMARES|1
PALOMO|1
PALUMBO|1
PAMPOLHA|1
PANAYOTIS|1
PANCIO|1
PANDOLFI|1
PANNI|1
PAPA|1
PAPALEO|1
PAPERA|2
PAPI|1
PARA|1
PARADA|1
PARAGUAIO|1
PARAJARA|1
PARANHOS|3
PARAVIDINO|1
PARDINY|1
PAREIRA|1
PARENTE|2
PARENTES|1
PARENTONI|1
PARGA|2
PARKINSON|1
PARNAHYBA|1
PARODI|1
PARREIRA|7
PARREIRAS|1
PARRENO|1
PARTO|2
PARUCKER|1
PARUDE|1
PASCHAL|1
PASCHOA|1
PASCHOAL|5
PASCOA|1
PASCOAL|6
PASOLINI|1
PASSALINI|1
PASSOS|31
PASTANA|1
PASTER|1
PASTOR|2
PASTORA|2
PASTORE|1
PATERNOSTER|1
PATHRO|1
PATOLEA|1
PATRIARCA|1
PATRICIO|6
PATROCINIO|7
PAULAIN|1
PAULINE|1
PAULINI|1
PAULINO|25
PAULOS|1
PAULUCCI|1
PAURA|1
PAUTILA|1
PAVANI|1
PAVANNI|1
PAVOA|1
PAVONI|3
PAYSAN|1
PAZ|36
PECANHA|16
PECHIM|1
PECLAT|1
PECLY|1
PECORA|2
PEDRAZ|1
PEDREIRA|7
PEDRETTI|1
PEDROSO|5
PEDROZA|2
PEGOLLO|1
PEHA|1
PEIXE|2
PEIXOTO|46
PEKIM|1
PELEGRINI|1
PELEGRINO|1
PELIMA|1
PELLACANI|1
PELORES|1
PELUCIO|1
PEMENTEL|1
PENA|7
PENAFORTE|1
PENCHINA|1
PENEDO|2
PENER|1
PENHEIRO|1
PENIDES|1
PENNA|4
PENSAUA|1
PEQUENA|1
PEQUENO|4
PEQUILIO|1
PERALVA|1
PERCI|1
PERDIGAO|1
PEREGRINO|1
PEREIRA|942
PEREIRS|1
PERERIA|1
PERES|33
PEREZ|9
PERGIRA|1
PERIARD|1
PERINI|2
PERISSE|2
PERKLES|1
PERPETUO|3
PERRONE|1
PERROTA|1
PERROUTE|1
PERRUD|1
PERSON|1
PERTILI|1
PERTOIS|1
PERUCCI|1
PESANHA|1
PESSANHA|30
PESSI|1
PESSIM|1
PESSOA|20
PESTANA|5
PETER|4
PETERSEN|1
PETERSOHN|1
PETRA|1
PETROLINA|1
PETRONE|1
PETRUCCI|1
PIA|2
PIAO|1
PIAUHY|1
PIAVA|1
PICCARDO|1
PIEDRAS|1
PIEGO|1
PIEMONTE|2
PIENNTZANER|1
PIERRE|2
PIERROT|1
PIFANE|1
PIHEIRO|1
PILE|1
PILLAR|1
PILOTTO|1
PIMENTA|17
PIMENTEL|31
PIMETA|1
PINA|1
PINCIANO|1
PINEIRO|2
PINELLES|1
PINELLIS|1
PINGRET|1
PINHAO|1
PINHEIRO|118
PINHERIO|1
PINHERO|1
PINHO|17
PINHU|1
PINKUSFELD|1
PINTO|172
PIOVESAN|1
PIQUET|1
PIRES|92
PIRETE|1
PIRIS|1
PISTER|1
PITANGA|2
PITER|1
PITTA|6
PITZ|1
PLACIDA|1
PLACIDO|2
PLAISANT|1
PLANS|1
PLAZA|1
PNNA|1
POBELLES|1
POEYS|1
POGGIAN|1
POIRIER|1
POLICARPO|2
POLIDO|1
POLLASTRELLI|1
POLLASTRI|1
POLLI|1
POMBA|1
POMBEL|1
POMBO|1
POMIN|1
POMPEIA|3
PONCE|1
PONCIANO|4
PONCIO|1
PONCIONI|1
PONTE|1
PONTES|27
PONTO|1
POPPE|1
PORCIANA|1
PORCINO|2
PORCIUNCULA|3
PORFINO|1
PORFIRA|1
PORFIRIA|2
PORFIRIO|1
PORPHIRIO|1
PORPHYRIO|1
PORSOLE|1
PORTAL|1
PORTELA|5
PORTELLA|4
PORTES|3
PORTILHO|4
PORTO|42
PORTUGAL|5
POSSAS|2
POTTER|1
POVOA|1
POZZARI|1
PRADA|1
PRADO|16
PRADOS|1
PRASERES|1
PRASTO|1
PRATA|4
PRAVATO|1
PRAXEDES|3
PRAZER|1
PRECILA|1
PRECIOZA|1
PRESTES|2
PRIMA|1
PRIMO|1
PRINCIPE|1
PRIORE|1
PRISTA|1
PROCEDONE|1
PROCOPIO|6
PROENCA|2
PROSPE|1
PROUSHAN|1
PROVENZA|1
PROVENZANO|2
PROVIER|1
PRUDENCIANA|1
PRUDENCIO|3
PUCU|1
PUELLO|1
PUGLIA|1
PULCHERIO|1
PUPPIN|1
PURIFICACAO|8
PUSSENTE|1
QUADROS|1
QUAGLIANI|1
QUARESMA|8
QUEIROD|1
QUEIROS|3
QUEIROZ|48
QUELIO|1
QUELLY|1
QUELUCI|1
QUERDO|1
QUERES|1
QUERINA|2
QUERINO|1
QUEZADA|1
QUILINA|1
QUINAL|1
QUINAUD|1
QUINTA|1
QUINTAL|1
QUINTANA|1
QUINTANILHA|9
QUINTAS|2
QUINTELA|1
QUINTELLA|3
QUINTERE|1
QUINTERIO|1
QUINTIERE|1
QUINTIERI|1
QUINTILIANO|1
QUINTINO|6
QUINTO|1
QUIRINO|7
QUIRITAIRN|1
QUITETE|1
QUITLINY|1
R|1
RABELLO|11
RABELLOLEITE|1
RABELO|3
RACHID|1
RADINS|1
RAESCKY|1
RAFAEL|4
RAFAELLY|1
RAFELA|1
RAGAZZI|1
RAGAZZONI|1
RAGGI|1
RAGO|1
RAIA|1
RAIBOLT|1
RAINHA|2
RAJA|1
RAJAO|2
RAMALHO|17
RAMI|1
RAMIRO|4
RAMO|2
RAMOA|1
RAMOS|198
RANA|1
RANAURO|1
RANDOLFO|1
RANGEL|62
RAPHAEL|3
RAPISO|1
RAPOPORT|1
RAPOSO|12
RAPOZO|3
RAPUANO|1
RASTRELLI|1
RAUNHEITTE|1
RAVAGLIA|1
RAVAIOLE|1
RAVASCO|1
RAVEN|1
RAYA|1
RAYNARA|1
RDORIGUES|1
REBEL|2
REBELHO|1
REBELLO|4
REBELO|2
REBOLA|1
REBOUCAS|2
RECOL|1
REDES|1
REGAZZI|1
REGENT|1
REGES|1
REGINALDO|1
REGINO|2
REGIS|7
REGO|14
REGUIA|1
REHAN|1
REIFF|1
REIMAO|1
REINALDO|4
REIS|120
REISHOFFER|1
REMEDIOS|2
REMUS|1
RENATE|1
RENGEL|1
RENNA|1
RENTO|1
REO|1
RESENDE|13
RESI|1
RESSIGUIER|1
RESSONI|1
RESSUNCICAO|1
RESSURREICAO|2
RETAMIRO|1
RETORO|1
REUTER|1
REVELIS|1
REVELLET|1
REVOREDO|1
REY|1
REYMOL|1
REZENDE|24
REZENE|1
REZNDE|1
RHINKI|1
RIAL|1
RIANELLI|1
RIBAMAR|1
RIBAS|1
RIBEIRA|1
RIBEIRIO|1
RIBEIRO|398
RIBERIO|1
RIBEWIRO|1
RIBOREDO|1
RIBOSCHI|1
RIBOURA|2
RICARDO|14
RICHOPO|1
RICON|1
RIDA|1
RIENNA|1
RIETTE|1
RIFAN|1
RIGINA|1
RIGUEIRA|2
RIMES|4
RINALDI|1
RINALDO|1
RINES|1
RIOMAYOR|1
RIOS|8
RIPOLL|1
RIQUE|1
RISA|1
RISCADO|1
RISELDA|1
RISSARI|1
RITO|1
RITSCHEL|1
RITSON|1
RITTER|1
RIVAILDO|1
RIVELLO|2
RIVERA|2
RIZZO|2
ROBADE|1
ROBERTI|1
ROBERTINA|2
ROBERTO|13
ROBIM|1
ROBINAULT|1
ROCA|1
ROCHA|235
ROCHE|1
ROCHELLE|1
ROCHER|1
RODA|1
RODAS|1
RODE|1
RODEGHERI|1
RODIRGUES|1
RODOLPHO|1
RODOPIANO|1
RODRGUES|1
RODRIGUE|1
RODRIGUES|705
RODRIGUEZ|1
RODRIGUS|1
ROEDEL|2
ROFINO|1
ROGACIANO|1
ROGE|1
ROGERIO|3
ROHEN|1
ROL|1
ROLA|1
ROLAND|1
ROLIM|1
ROLLAS|1
ROLSZT|1
ROLY|1
ROMA|1
ROMANHOZ|1
ROMANIA|1
ROMANO|3
ROMAO|3
ROMEIRO|4
ROMERIA|1
ROMERO|2
ROMUALDO|2
ROMULO|1
RONAELI|1
RONDELLI|1
RONI|1
RONQUETTE|1
RONZATO|1
ROPDRIGUES|1
ROQUETE|1
RORIGUES|1
ROS|1
ROSAIRO|1
ROSALIND|1
ROSALINO|2
ROSAS|5
ROSATHO|1
ROSAUBA|1
ROSELANIA|1
ROSENDO|2
ROSENEA|1
ROSENO|1
ROSI|1
ROSIETE|1
ROSMANINHO|1
ROSMARINHO|1
ROSS|1
ROSSI|1
ROSSICLER|1
ROTONDANO|1
ROUSSET|1
ROXO|1
ROZARIO|5
ROZEIRA|1
ROZEMARY|1
ROZENDA|1
ROZENTINO|1
RUA|1
RUAS|2
RUBIM|1
RUBIN|1
RUBINSTEIN|1
RUCHCA|1
RUCKERT|1
RUDERINDA|1
RUDRIGUES|1
RUELA|1
RUELDER|1
RUFF|1
RUFINO|14
RUIZ|2
RUSSA|1
RUSSO|2
RUST|2
RYANNA|1
S|2
SA|43
SAADY|1
SAANTOS|1
SAAVEDIA|1
SABA|1
SABADINI|1
SABATINI|1
SABBATTINI|1
SABINE|1
SABINO|16
SABOIA|6
SABOYA|2
SACCHI|1
SACRAMENTO|8
SACRE|1
SADA|1
SADALA|1
SAETA|2
SAFRA|2
SAGARIO|1
SALATHIEL|1
SALATIEL|1
SALAZAR|1
SALDANHA|16
SALE|1
SALERMO|1
SALES|30
SALETH|1
SALGADO|17
SALGUEIRO|4
SALGUES|1
SALIM|2
SALINO|3
SALISVANE|1
SALLES|26
SALLESDE|1
SALO|1
SALOMAO|3
SALUSTANO|1
SALVADOR|12
SALVADORI|1
SALVATE|1
SALVATO|1
SALVIANO|1
SALVIATO|1
SALVINI|1
SAMAPIO|1
SAMEIRO|2
SAMORA|1
SAMPAIO|34
SAN|1
SANCHE|1
SANCHES|9
SANCHEZ|4
SANDEZ|1
SANDIM|1
SANGI|1
SANGIL|1
SANGLARD|2
SANITA|1
SANJOS|1
SANO|1
SANR|1
SANS|1
SANT|36
SANTAN|1
SANTANNA|19
SANTAREM|1
SANTESSO|1
SANTI|1
SANTIAGO|23
SANTINO|1
SANTIS|2
SANTISO|1
SANTO|1
SANTONO|1
SANTORIO|2
SANTORO|4
SANTOS|1298
SANTSO|1
SAO|8
SARABANDA|1
SARAIVA|11
SARDELA|1
SARDINHA|6
SARDO|1
SARMENTO|6
SARRAMENTO|1
SARRAQUINO|1
SARRAT|1
SARREI|1
SARTA|1
SASSI|1
SASSONE|1
SATHLER|1
SATIRO|1
SATURNINA|2
SAUDE|2
SAYAO|3
SCALA|1
SCALIA|1
SCALISE|1
SCALZILLI|1
SCALZO|1
SCARABUCI|1
SCARANO|1
SCARDIGLI|1
SCARPA|1
SCARPANO|1
SCARPARO|1
SCARPINI|1
SCHADER|1
SCHAUSTZ|1
SCHEEFFER|1
SCHENCKEL|1
SCHETTINI|1
SCHIATTI|1
SCHIECK|1
SCHIMIDT|2
SCHLUCKEBIER|1
SCHMID|1
SCHMIDT|1
SCHNAIDER|1
SCHNEIDER|1
SCHOENHARDT|1
SCHOTT|1
SCHOTTE|1
SCHRAMME|1
SCHUAB|1
SCHUABB|1
SCHUENCK|2
SCHULTZ|1
SCHUMACKER|2
SCHUNK|1
SCHUWARTZ|1
SCOFANO|1
SCORZELLI|1
SCOTELARO|1
SCOTT|1
SCRAMIGNON|1
SCRIBELK|1
SDOS|1
SE|1
SEABRA|6
SEBASTIAM|1
SEBASTIENE|1
SECCO|1
SECIN|1
SEGATTI|1
SEGUETO|1
SEGUI|1
SEGURASSE|1
SEITAS|1
SEIXAS|12
SELIA|1
SELME|1
SEMEAO|1
SEMPRINI|1
SENA|11
SENHORINHO|1
SENHOSINHA|1
SENNA|8
SENRA|3
SEODRO|1
SEPULVEDA|2
SEPULVIDA|1
SEQUEIRA|1
SERAFIM|4
SERAPHIM|3
SERAPHINA|3
SERAPIAO|1
SERDEIRA|1
SEREJO|4
SERLY|1
SERNARIS|1
SEROA|1
SERPA|5
SERQUEIRA|1
SERRA|11
SERRANO|6
SERRAO|2
SERRAT|2
SERRATE|1
SERRATH|1
SERRATHE|1
SERRI|2
SERVA|1
SESTREM|1
SETTA|1
SETUBAL|1
SEVERIANO|4
SEVERINO|9
SEVERO|7
SEVOLINO|1
SHARP|1
SHELRON|1
SHIMODA|1
SIBELE|1
SIBILIO|1
SICILIANO|1
SIDELVANE|1
SIEIRO|1
SIGNORELLI|1
SILIS|1
SILLA|1
SILMAR|1
SILVANO|1
SILVAPAZINCAS|1
SILVARES|1
SILVEIRA|101
SILVERA|1
SILVERIO|6
SILVESTRE|7
SILVINO|1
SILY|1
SIMAO|13
SIMAS|6
SIMEAO|2
SIMIRA|1
SIMOES|30
SIMON|1
SIMONASSE|1
SIMONI|1
SIMPLICIO|3
SINDRA|1
SINEIRO|1
SINFLORIO|1
SINFRONE|1
SINFROZIA|1
SINGH|1
SINHORELLI|1
SIQUEIRA|65
SIRIEIRO|1
SISS|1
SISTON|1
SITONIO|1
SIUSSI|1
SIVA|1
SIVERO|1
SIVLA|4
SLEPOY|1
SMES|1
SMITH|1
SMPLICIO|1
SNACHEZ|1
SOAR|1
SOARES|396
SOBRAL|6
SOBREIRA|3
SOBREIRO|1
SOBRINHO|2
SOBROSA|1
SOCCHIN|1
SOCORRO|93
SODRE|13
SOFYA|1
SOIDO|1
SOJIA|1
SOL|2
SOLADADE|1
SOLANO|2
SOLIDADE|2
SOMBRA|1
SONISIA|1
SONS|1
SORES|1
SORIANO|3
SOROCABA|1
SOROTINI|1
SORRENTINO|1
SOTELINO|1
SOTELO|1
SOTERO|2
SOTI|1
SOTSCHINIG|1
SOTTO|2
SOUSA|88
SOUTELHO|1
SOUTI|1
SOUTINHO|1
SOUTO|8
SOUZA|1039
SOVITA|1
SPALA|1
SPENER|1
SPEROTO|1
SPIEGEL|1
SPINELI|1
SPINELLI|2
SPOSITO|1
STAALBRAND|1
STABILE|1
STAMATO|1
STANKOWICH|1
STATZNER|1
STEFFEN|1
STEINER|1
STELET|1
STELLET|2
STELLI|1
STELMANN|1
STERQUINI|1
STHEPHANE|1
STILBEN|2
STOCCO|1
STOCKLER|1
STOPASSOLI|1
STOQUI|1
STORCH|2
STORINO|2
STOVA|1
STREFEZZA|1
STRIOTTO|2
STRUCK|1
STUCK|1
STUMPF|1
STUTZ|4
SUCASAS|1
SUCUPIRA|2
SUDRE|2
SUEDES|1
SUEILA|1
SUEIRA|1
SUEIRO|1
SUETH|1
SUHET|1
SUISSO|1
SULIDADE|1
SULLCA|1
SUMAR|1
SUMAS|1
SUMOES|1
SURIA|1
SUSANE|1
SUZANO|1
SUZAR|1
SUZART|1
SUZARTE|1
SVOBODA|1
SW|1
SZWARCMAN|1
TABOAS|1
TABOSA|1
TACAO|1
TACILA|1
TACILDE|1
TADEU|1
TAFAKGI|1
TAGER|1
TAGIBA|1
TAGNOCRHI|1
TALIULI|1
TALLES|1
TALON|1
TAMER|1
TAMIREZ|1
TAMOIO|1
TANCREDO|2
TANNER|1
TANOS|1
TANURI|1
TAPAJOS|1
TARANTO|2
TARCITANO|1
TARDELLI|1
TARDIN|2
TARDIOLI|1
TARDIT|1
TARGINO|5
TASSIA|1
TAVARES|107
TAVEIRA|3
TEBALDI|1
TEIXEIRA|240
TEIXIERA|1
TELES|23
TELLES|23
TEMPERA|1
TEMPONI|1
TENAN|1
TENORIO|4
TENORO|1
TEOBALDO|1
TEODOMIRA|1
TEODORO|13
TEODOSIA|1
TEOFILO|3
TEOTONIA|1
TEOTONIO|2
TEPERINO|1
TEREZEINHA|1
TERNI|1
TERR|1
TERRA|7
TERTO|1
TERTULIANO|1
TERTULINO|1
TERUZ|1
TERZELLA|1
TEVES|1
TEXEIRA|3
THEOBALD|1
THEODORO|6
THEOPHILO|2
THEOTONIO|1
THEREZINH|1
THIBAU|1
THIELE|1
THIMOTEO|1
THOMASIA|2
THOMASIN|1
THOMAZ|18
THOME|7
THOMPSON|2
THULER|1
THURLER|2
THURMANN|1
TIAGO|1
TIBRES|1
TIBUCIO|1
TIENGO|1
TIMOTEO|3
TINE|1
TINOCO|9
TINTO|1
TIOMNO|1
TIRADO|1
TIROL|1
TISO|1
TISSI|1
TITO|3
TOBIAS|1
TOJEIRO|1
TOLEDO|14
TOLENTINO|1
TOLLER|1
TOMAINO|1
TOMAS|1
TOMASIA|2
TOMAZ|11
TOME|5
TOMELIN|1
TONELI|1
TONHOQUE|1
TONOLLI|1
TOPEMTINO|1
TOQUER|2
TORELLI|1
TORINIS|1
TORO|1
TORQUATO|7
TORRACA|1
TORRE|1
TORRES|42
TORTORI|1
TOSCA|2
TOSETTI|1
TOSO|1
TOSTA|4
TOSTES|3
TOUFIC|1
TOURINHO|1
TRABBOLD|1
TRABULSI|1
TRAJANO|11
TRAPANEZ|1
TRAVASSOS|3
TRECE|1
TRECZOKS|1
TREMENDANE|1
TRESENA|1
TRESPADINI|1
TRETONIA|1
TREVA|1
TREVISOL|1
TRIBES|1
TRIGUEIRO|2
TRISTAO|1
TROGO|1
TROMPOWSKY|1
TRONCO|1
TROTTA|1
TUBBS|1
TUBERTINA|1
TULER|2
TULHER|1
TULIO|1
TUPINAMBA|1
TUPYNAMBA|1
TURINO|1
TURIZA|1
TURLLER|1
TUZI|1
TVARES|1
UBALDO|1
UCHOA|5
UGA|1
UHEBE|1
ULHA|1
ULRICH|1
UMBELINDA|1
UMBELINO|1
UNGARELLI|1
URBANO|2
URBINA|1
URCULINA|1
USS|1
V|1
VACH|1
VAL|2
VALADAO|3
VALADARES|4
VALADIO|1
VALCARCE|1
VALCIRENA|1
VALDEVINO|1
VALDIS|1
VALE|5
VALENCA|6
VALENCIA|1
VALENTE|10
VALENTIM|11
VALENTIN|1
VALERIANO|2
VALERIO|10
VALESK|1
VALIM|3
VALLADARES|1
VALLE|16
VALLEJO|1
VALLENTINA|1
VALLIATT|1
VALLIM|1
VALPASSO|1
VAN|4
VANDELEI|1
VANDERLEI|1
VANELLI|1
VANESCA|1
VANICE|1
VANNUCCI|1
VANTINI|1
VAO|1
VAONA|1
VAQUEZ|1
VARANDA|3
VARELLA|6
VARGAS|15
VARRIAL|1
VARZEA|1
VASCO|1
VASCONCELLOS|23
VASCONCELOS|26
VASERMAN|1
VASQUES|2
VATER|1
VAZ|20
VECCHIONI|1
VEIGA|17
VEIGAS|1
VEILLARD|1
VEIRA|1
VEL|1
VELASCO|4
VELERIA|1
VELHO|1
VELINCAS|1
VELLEDA|1
VELLOSO|9
VELLOZO|3
VELO|1
VELOSO|8
VELOZO|3
VELTRI|1
VENANCIO|15
VENCESLAU|2
VENETILHO|1
VENETILLO|1
VENEZA|1
VENGA|1
VENTIRA|1
VENTURINI|1
VENUTO|1
VERANEZ|1
VERAS|8
VERCILLO|1
VERCOSA|1
VERDADEIRO|1
VERDAM|1
VERDAN|2
VEREDIANA|1
VEREDIANO|1
VERGETTI|1
VERGILIO|1
VERGNE|1
VERISSIDO|1
VERISSIMO|10
VERLINQUE|1
VERLY|2
VERNECH|1
VERONILCE|1
VERTUOSA|1
VETERE|1
VETROMILE|1
VIALLE|1
VIANA|46
VIANELO|1
VIANNA|41
VICENTE|44
VICENTINI|1
VICTAL|2
VICTER|1
VICTOR|8
VICTORINO|5
VICTORYA|1
VIDAL|34
VIDILLE|1
VIDINHA|2
VIEGA|1
VIEGAS|6
VIEIRA|383
VIEIRAS|1
VIERA|1
VIETORJA|1
VIGGIANI|1
VIGNERO|1
VIGO|1
VILACA|2
VILANI|1
VILAR|3
VILARD|1
VILARDO|2
VILARINHO|1
VILAS|2
VILASBOAS|1
VILELA|12
VILHENA|1
VILITAS|1
VILLACA|1
VILLANOVA|1
VILLAR|4
VILLARINHO|1
VILLAS|4
VILLELA|10
VIMENEY|1
VIMERCATI|1
VINAGRE|2
VINCLER|1
VINHA|1
VINHAIS|1
VINHAS|2
VINICIO|1
VIOLANTE|5
VIRGEM|3
VIRGENS|5
VIRGILIO|1
VIRGINIO|2
VIRGOLINA|1
VIRGULEIRA|1
VIRGULINA|1
VIRISSIMO|1
VISITACAO|1
VITAL|5
VITALIANO|1
VITER|1
VITIPO|1
VITO|2
VITORIADA|1
VITORIANO|2
VITORINA|4
VITORINO|9
VITORIO|2
VITORYA|2
VIVAS|1
VIVEIROS|2
VIVIANI|1
VIZEU|1
VIZZANI|1
VIZZONI|1
VOCTORIA|1
VOGEL|1
VOLDA|1
VOLFZON|1
VOLINO|1
VON|1
VOTTERO|1
VRIES|1
VVE|1
WABIA|1
WACHHOLZ|1
WAHIB|1
WAJNBERG|1
WAKSMAN|1
WALDERRAMOS|1
WALDY|1
WALGER|1
WALKER|1
WALLENTYNE|1
WALSH|1
WALTER|1
WALTRAUT|1
WANDERLEY|5
WASA|1
WASHINGTON|1
WATANABE|1
WEBBER|2
WEBER|1
WEI|1
WEIRICH|1
WENCESLAU|1
WENDLER|1
WENDLING|1
WENTRICH|1
WERDAN|1
WERGLES|1
WERNECH|2
WERNECK|5
WERNER|1
WESTPHALL|1
WIBELMINE|1
WICHAN|1
WIDHOLZER|1
WIENEKOSKI|1
WIGGBERTO|2
WILANI|1
WILLEMANN|1
WOELBERT|1
WOERDENBAG|1
WOLF|1
WYLLER|1
WZOREK|1
XAIER|1
XARC|1
XAVIER|87
XEXEU|1
XIMENES|2
XINA|1
XISTO|1
YANASE|1
YASMINE|1
YIM|1
YUKIE|1
ZACARIAS|5
ZADOROSNY|1
ZAKI|1
ZALY|1
ZAMAGNA|1
ZAMPIER|1
ZANDONELLA|1
ZANELATO|1
ZANGEROLAME|1
ZANIRA|1
ZANON|1
ZARANZA|1
ZARINS|1
ZAURINDO|1
ZAVAREZ|1
ZEFERINA|1
ZEFERINO|2
ZENA|1
ZERBINATO|1
ZERBONE|1
ZEZA|1
ZILBER|1
ZILMAR|1
ZIMERMANN|1
ZINGO|1
ZIO|1
ZIORETTE|1
ZOPELARA|1
ZOTTI|1
ZOTTOLO|2
ZOUAIN|1
ZOZINA|1
ZUELY|1
ZULIANI|1
ZVEITER|1
