narr,count
a,1
abarca,1
abboud,1
abdala,2
abdalla,2
abdu,1
abel,1
abelha,1
abellas,1
abeno,1
abibe,1
abiesb,1
abilio,1
abissulo,1
abitibol,1
abizaid,1
aboal,2
abrahao,8
abrahim,1
abranches,1
abrantes,10
abrao,1
abreu,192
abril,1
abs,1
abud,1
acacio,1
acciari,1
accioly,3
aces,1
acha,1
achcar,1
acioly,1
acipreste,1
acom,1
acouri,1
acuna,1
adad,1
adamczyk,1
adami,1
adao,9
adba,1
adelino,1
adeodato,1
ades,1
adibbe,1
adissi,1
adolfo,2
adriano,3
affonseca,1
affonso,16
afoncio,1
afonso,20
agapito,2
agarez,1
aghnatios,1
agia,1
agnes,2
agostinho,9
agra,4
agricola,1
agualuza,1
aguas,1
agueda,1
agues,1
aguiar,122
aguila,1
aguirre,1
aguocha,1
ahmad,1
ahrenos,1
aieta,1
aiolfi,1
aires,5
aiuto,1
ajara,1
akel,1
akerman,1
aksdal,1
akutsu,1
alameida,1
alamo,1
alampi,1
alarcao,3
alargon,1
alban,1
albano,2
albergaria,1
alberi,1
alberigues,1
albernaz,3
alberoni,1
albertassi,1
albertim,1
albertino,2
alberto,8
albino,6
albuquerque,89
alcaforado,1
alcantara,44
alcici,1
alcino,1
alcofardo,1
alcoforado,3
alcofra,1
aldao,1
aldeia,1
alecrim,3
alegre,1
aleixo,5
alelluia,1
aleluia,2
alemida,1
alencar,22
alencastro,1
alenoes,1
alessio,1
alevato,1
alexandre,30
alexandria,1
alexandrino,5
alfama,1
alfaya,1
alfeno,1
alferino,3
alfradique,5
alfredo,4
alhanati,1
alho,1
alledi,1
allemande,1
almada,4
almagro,1
almansa,1
almedia,1
almeida,719
almida,1
almimtana,1
almiron,1
almo,1
alo,1
aloe,1
aloinde,1
alonso,10
alpande,1
alpino,1
alpoim,1
alt,2
altino,1
altivo,1
alto,1
altomar,2
altunian,1
aluiza,1
aluizio,1
alvadia,1
alvao,1
alvaraes,1
alvarenga,42
alvares,6
alvarez,4
alvarino,1
alvaristo,1
alvaro,1
alvela,1
alverne,1
alves,595
alvetti,1
alvim,8
alvino,2
alvite,2
amabile,1
amado,6
amador,2
amancio,12
amaral,122
amarao,2
amarelle,1
amaro,18
ambires,1
ambrosano,1
ambrosio,6
ambrozino,1
ambrozio,2
ameixoeira,1
amelia,1
amelio,1
amendola,2
amer,1
americo,6
amichi,1
amici,1
amico,2
amim,1
amin,1
ammon,1
amoedo,2
amopariola,1
amora,1
amorelli,1
amorim,116
amparo,4
ampuero,1
amroim,1
ana,17
anacleto,5
anacreto,1
anadrade,1
anaes,1
ananias,5
anastacio,7
anastasio,1
ancelmo,1
anchieta,8
anderson,1
ando,1
andrada,1
andrade,387
andrades,1
andre,11
andrea,1
andrehalden,1
andrey,1
andrieta,1
andriewiski,1
andriola,1
aney,1
angelo,18
angeltreit,1
angiolella,1
angote,2
aniceto,2
anisia,1
anizio,1
anjo,1
anjos,51
anklan,1
anna,42
annecchini,1
annunciacao,1
annunziatto,1
ansell,1
anselmo,11
antenor,1
antero,3
antoni,1
antonieto,1
antonio,38
antos,1
antunes,75
anunciacao,2
anunn,1
aono,1
aparecida,1
aparecido,1
apelian,1
aperibencio,1
apolinario,11
aporcino,1
apparicio,1
aquino,50
aquio,1
aragao,11
arakaki,1
aranda,1
aranha,6
arano,1
arantes,12
arao,1
arapiraca,1
araudo,1
araujo,656
arbex,1
arcanjo,6
archanjelo,1
archanjo,1
arcis,1
arcuri,1
arduim,1
area,1
areas,9
aredes,1
areia,1
areias,4
areosa,2
aresta,1
argenta,1
argento,1
arias,3
arieira,1
armada,1
armaroli,1
armindo,1
armond,1
armstrong,1
arnet,1
arnold,1
arotildes,1
arouca,6
arpino,1
arrais,1
arrea,1
arrellaga,1
arrenta,1
arrepia,1
arrigoni,1
arruda,45
arsel,1
arthur,1
artilles,1
artur,1
aruajo,1
arueira,1
arujo,3
asaig,1
ascoly,1
asevedo,2
asilva,1
asnes,1
asouza,1
assad,3
assemany,1
assenheimer,1
assis,122
assiz,1
assumpcao,25
assuncao,20
assunpcao,1
assupcao,1
asthine,1
astine,1
astrogildo,1
asty,1
asvolinsque,1
ataide,10
ataides,2
atallah,1
atanasio,1
atanazio,1
ataro,1
atayde,1
athaliba,1
athanazio,2
athaydes,1
atie,1
attayde,1
audi,1
augustinho,2
augustiniz,1
augusto,37
aureliano,1
aurelio,1
aurnheimer,1
autran,2
avarigmon,1
avelar,11
avelino,12
avellaneda,1
avellar,5
avendana,1
avendano,1
averbuch,2
aviade,1
avila,17
avilla,1
aviz,1
avolio,1
avvad,1
awano,1
ayala,1
ayoubi,1
ayres,10
azambuja,2
azarias,1
azariti,1
azaro,1
azedias,4
azedo,1
azelman,1
azer,1
azeredo,36
azerelo,1
azerrad,1
azevedo,308
azevedor,1
azeveo,1
azine,1
azini,1
azulay,2
azuma,1
azvedo,3
azzini,1
baarbosa,1
babilon,1
babisck,1
babo,1
babsky,1
bacaltchuk,1
bacelar,3
bacellar,1
bach,1
bachour,1
bachs,1
badajos,1
badaro,2
badejo,1
badiani,1
badofsky,1
baesso,1
baeta,1
baffa,1
bagarelli,1
bago,1
bahia,6
bahiana,1
bahiano,1
baia,3
baiao,1
baiense,2
baier,1
bailly,1
baioco,1
bairral,2
bajsic,1
balaban,1
baladan,1
balanza,1
balbino,17
baldanza,1
balder,1
baldi,4
baldissara,1
baldner,1
baleixo,1
baliano,1
balint,1
balisa,1
ballonecker,1
balonecker,1
balsa,1
balsamo,1
baltar,3
baltazar,5
balthar,2
balthazar,1
band,2
bandarra,1
bandeira,15
bange,1
banito,2
baptista,85
bar,1
baracho,2
barafa,1
baran,1
barata,3
baratta,1
barauna,3
barbalho,2
barbara,3
barbato,1
barbedo,1
barbeiro,1
barbeitas,1
barbetto,1
barbieri,2
barbio,1
barbirato,1
barbo,1
barbosa,506
barboza,51
barca,2
barcala,1
barcante,1
barcaui,1
barcelar,1
barcellos,26
barcelos,53
barczinski,1
bardanca,1
bardon,1
bardoni,1
barel,1
bareto,1
barga,1
bari,1
barilari,1
barnabe,1
barond,1
barone,2
baroni,1
baronio,1
barra,4
barrach,1
barradas,2
barral,2
barreira,7
barreiro,4
barreiros,12
barrese,1
barreto,164
barretto,1
barrias,1
barriello,1
barril,1
barrinha,1
barrios,1
barros,257
barroso,35
barrozo,5
barth,1
bartholo,1
bartholomeu,1
bartoli,1
bartolo,1
bartras,1
bartz,1
basile,1
basilio,23
bassa,1
bassani,1
bastos,117
batalha,5
batista,181
bauer,1
bauerfeldt,1
baumgarten,1
baumreld,1
bayao,1
bayer,1
baylao,1
bayma,1
baza,1
bazarello,1
bazet,1
bazeth,1
bazilio,4
bazoli,1
bazoni,1
bebiano,1
bechara,2
bechille,1
beck,2
becker,3
beckerig,1
bedran,1
beff,2
beigelman,1
beiosca,1
beiragrande,1
beiral,1
beja,2
bela,1
belan,1
belarmino,6
belchior,2
belegote,1
belem,5
beles,1
beleza,1
belfort,2
belham,1
beliene,1
beling,1
belinha,1
belinho,1
belisario,3
belizario,2
bell,1
belleza,1
belliene,1
bellinger,1
bellissimo,1
bello,11
belmino,1
belmiro,1
belmonte,1
belo,14
belote,1
belotti,1
belsito,1
beltrami,1
beltrao,7
bem,2
bena,1
benac,1
benaion,2
benaqui,1
benardino,1
benarros,1
benatti,1
bencivenga,1
bendavid,1
benedetto,1
benedicto,3
benedito,15
benek,1
benete,1
benevides,7
benfeitas,1
benicio,2
benine,1
benita,1
benitah,1
benites,1
benjamim,1
benjo,1
bennabi,1
benossi,1
bensabat,1
bensimon,1
benteillen,1
bentes,2
bento,49
benucio,1
benvenuti,1
benvindo,3
benzamat,1
beralde,1
beraldi,1
beraldini,2
beraldo,3
berardi,1
berbat,3
berbert,1
bercot,4
berenbaum,1
berenguer,1
bereta,1
bergami,1
berge,1
bergel,1
bergiante,1
berguerao,1
berlaudo,1
berlim,1
berling,1
berlinski,1
bermonte,1
bermudes,1
bernadino,1
bernardes,16
bernardi,2
bernardino,7
bernardo,46
berquo,1
berriel,3
berros,1
berruezo,1
bertao,2
bertellotti,1
berthold,1
bertholini,1
bertholo,1
bertin,1
berto,3
bertolde,1
bertoldo,1
bertoletti,1
bertolo,1
beserra,5
besilio,1
bessa,12
bessier,1
bethiato,1
betta,1
bettiol,1
bevilacqua,1
bevilaqua,1
bezena,1
bezenil,1
bezerra,97
bezerril,1
bezerro,1
bezrra,2
biaes,1
biagiotti,1
biaia,1
biancardi,1
bianchi,2
bianchini,1
bianco,5
bianquim,1
bibiano,1
bicalho,5
bicego,1
bichara,4
bicharra,1
bicodo,1
bicudo,1
biebow,1
bigate,1
bigeschi,1
bighi,1
bigler,1
bignon,1
bigonha,1
bilac,1
bilbao,1
bilhene,1
bilizario,1
bilo,1
biloia,1
bimbato,1
binda,2
binder,1
bini,2
bino,1
biondi,1
biosoli,1
bis,1
biscacio,1
biskup,1
bispado,1
bispo,21
bisquolo,1
bitancourt,1
bitencorte,1
bitencourt,6
bitschnan,1
bittar,1
bittencourt,27
bizarro,1
bizerra,2
bizerril,1
bizzo,2
bladino,1
blaiotta,1
blanc,3
blanco,3
blandt,1
blasques,1
blatt,1
blaudt,1
bloise,2
bloomfield,1
blum,2
boaes,1
boanerges,1
boaretto,1
boas,8
boaventura,2
boavista,1
bocafoli,1
bocampagni,1
bocchino,1
bockhorny,1
bodas,1
boechat,8
boeno,1
boeta,1
bogea,1
boggi,1
bohadana,1
boherer,1
bohher,1
bohn,1
boi,1
boica,1
boiteux,1
bokol,1
bolato,1
boldrim,1
boldrini,1
bollos,1
bolonho,1
bolonini,1
bolota,1
bom,5
bombonati,1
bomboni,1
bomfim,19
bonachina,1
bonan,2
bonatti,1
bondarenko,1
bondi,1
bondim,1
bonelli,2
boner,1
bonfield,1
bonfim,24
bonguardo,1
bonicontre,1
bonifacio,11
bonini,2
boniolo,1
bonomo,1
bonorino,1
boquimpani,1
borba,9
borborema,1
borchelho,1
borda,1
bordalho,1
bordallo,1
borde,1
bordin,1
boredel,1
borel,4
borensztein,1
boreto,1
borge,1
borges,130
borher,1
borneo,1
borralho,1
borre,1
borrher,1
borsari,1
borsatto,2
bosch,1
bosisio,1
bossart,1
botafogo,1
botelho,36
bottentuit,1
bottiger,1
bottino,3
boube,1
boucas,3
boudard,1
bougado,1
boullon,1
bourseau,1
bousquet,1
bove,2
bowicz,1
boy,3
boyd,1
boynard,1
braga,134
braganca,19
braganoa,2
bragato,1
braha,1
braier,1
brakarz,1
brambila,1
bramili,1
branco,20
brand,1
brandao,60
brandl,1
brando,1
brangada,1
brant,1
brantes,1
brants,1
bras,2
brasa,1
brasao,1
brasil,17
brasileiro,2
brasiliense,2
braulio,2
brauns,1
braunstein,1
brava,1
bravo,6
brayner,2
braz,42
brazil,1
brazola,1
brazuna,1
breder,4
breglia,1
breia,2
breida,1
brelim,1
breno,1
bresadin,1
bresciani,1
breves,4
breyer,2
bria,1
bridges,1
brigido,1
briginga,1
brilhante,1
brinatti,1
briones,1
brisson,1
brites,6
brito,165
brits,1
britto,30
brivid,1
brochado,3
broges,1
brollo,1
brown,1
browns,1
brucoli,1
brugger,1
brum,20
brune,1
brunet,2
bruni,2
bruno,11
brunocilla,1
brunorio,1
bruschi,1
brusdzenski,1
brust,3
bruste,1
buarque,4
buccos,1
buchmuller,1
bueno,9
buffom,1
bugallo,1
bukschtein,1
bulhoes,6
bulle,1
bunel,1
bungner,1
bunn,1
burati,1
burger,1
burgues,1
buriche,1
burichovich,1
burlein,1
burlini,1
bursztyn,1
buschmann,1
bussion,1
bustamanti,1
butturini,1
caamano,1
cabanez,1
cabaral,1
cabeca,1
cabecinho,1
cabira,1
cabo,2
caboi,1
cabral,92
cabrero,1
cacaille,1
cacais,1
caccavo,1
cachico,1
cachoeira,1
caciatore,1
cacilia,1
caciro,1
caculilo,1
cadei,1
cadete,1
cadimo,1
cadinelli,1
caeiro,1
caetano,53
cafe,1
cafeeiro,1
cahet,1
cahue,1
caiado,1
caiafa,1
caiaffa,1
caiano,1
caiata,1
caichierchio,1
cailleaux,1
caio,1
caires,1
cairo,5
cairrao,2
caito,1
caixeta,1
cajao,2
caju,1
cajueiro,2
calabri,1
calado,1
calamari,1
calastrial,1
calazans,4
calcanho,1
caldara,1
caldas,29
caldeira,12
caldellas,1
calderari,1
caldes,1
caled,2
calegario,1
calhao,1
calheiro,2
calheiros,6
california,1
calil,2
calina,1
calisto,1
calixto,12
callado,3
callegario,2
callipo,1
calmeta,1
calmon,2
calobrisi,1
calota,1
cals,1
calunga,1
caluy,1
calvano,2
calvelli,1
calvet,4
calzolari,2
camacho,3
camara,23
camarao,2
camare,1
camargo,19
camargos,1
camarinha,1
camella,1
camelo,5
camila,1
camili,1
camillo,3
camilo,16
caminha,3
camisao,1
cammandella,1
camoes,2
camozzato,1
campanario,1
campanati,1
campanille,1
campbell,1
campeao,1
campello,4
campelo,7
campinho,1
campista,5
campitelli,1
campo,2
campolim,1
campolino,1
campos,209
canaam,1
canal,1
canalli,1
cananea,1
canario,2
canaverde,1
canavez,1
canay,1
cancela,1
candadio,1
candeco,1
candeia,1
candeias,1
candida,1
candido,49
canduro,1
caneca,1
canedo,8
canella,1
canellas,4
canema,1
canetti,1
cangussu,1
canha,1
caniscola,1
cannalonga,1
cannizza,1
cano,1
canoza,1
cantalice,1
cantaluppi,1
cantanhede,1
cantareli,1
cantares,1
cantarin,1
cantarino,1
cantisano,1
canto,10
cantorino,1
canuto,4
canutt,1
caonsenza,1
capaci,1
capanema,1
capano,1
capanowicz,1
caparelli,1
capela,3
capella,3
capelo,1
capetini,1
capett,1
capibaribe,1
capistano,1
capitanio,1
capizzano,1
capobianco,1
capozzi,1
capuano,1
caputi,1
caputo,3
carage,1
caram,2
caramate,1
caramuru,2
carapito,2
carauta,1
caravelas,1
carballo,1
carbonel,1
cardeal,1
cardiano,1
cardias,1
cardim,2
cardinali,1
cardinot,1
cardona,1
cardoso,257
cardosos,1
cardozo,30
careaga,1
carelli,1
cargnin,1
cariaca,1
carias,2
caribe,1
caridade,3
caride,1
cariello,1
carijo,1
carin,1
carinhanha,1
carino,2
caris,1
carius,5
carletto,1
carli,1
carlin,1
carloni,1
carlos,32
carlson,1
carlucio,1
carmelo,1
carmo,84
carnaval,3
carnbeiro,1
carne,2
carneiro,110
carnevale,4
carolino,6
carollo,1
caroni,1
carotta,1
carpentieri,1
carpinteiro,1
carpintero,1
carquejo,1
carrancho,1
carrapatosoribeiro,1
carrara,1
carrasco,1
carrasqueira,1
carrazedo,1
carre,1
carrega,1
carreira,6
carreiro,10
carrera,1
carrero,2
carrico,1
carriello,1
carrilho,2
carrossino,1
carrozzino,1
carta,1
caruncho,1
caruso,2
carvalhaes,8
carvalhal,4
carvalheira,1
carvalho,738
carvalhosa,1
carvalindo,1
carvas,1
casablancas,1
casado,1
casadonte,1
casaes,2
casal,1
casanova,4
cascardo,1
casciano,1
cascimiro,1
case,1
caseira,3
casemiro,6
casher,1
casimiro,3
casotto,1
casquilho,1
cassa,1
cassador,1
cassago,1
cassane,1
cassano,1
cassaro,2
cassavara,1
cassemiro,2
cassi,1
cassia,1
cassiano,9
cassibi,1
cassimiro,5
cassin,1
cassio,1
castanhede,1
castanheira,3
castanhel,1
castanho,4
castelano,1
castelhano,1
castellon,1
castelo,2
castilho,22
castilhos,1
castinheiras,1
castria,1
castro,250
cataldo,4
catanduba,1
catao,1
catapreta,1
catarina,3
catarino,2
catazeiroz,1
catharino,1
catoso,1
catrib,1
cattoni,1
catundo,1
caula,1
caumo,1
cauterrucio,1
cavalampi,1
cavalaro,1
cavalcante,59
cavalcanti,36
cavaleiro,1
cavalhaes,1
cavalheiro,3
cavaliere,1
cavalieri,1
cavalini,1
cavallante,1
cavaltori,1
cavichini,1
caxias,2
caxile,1
cazassus,1
caze,1
cazemiro,1
cdnel,1
cea,2
ceaqueira,1
ceara,1
ceci,1
cecilia,1
cecilio,4
ceda,1
cedessari,1
cedo,1
cedro,1
cegalla,1
ceh,1
ceia,2
celano,1
celeste,2
celestino,13
celli,1
cena,2
centelles,1
ceppas,1
cerbino,1
cerdeira,3
cereja,2
ceriaco,1
cerigorovski,1
cerqueira,35
cerquise,1
cerri,1
cesar,20
cesario,9
cespe,1
cespom,1
cestello,1
cetano,1
ceville,1
cezar,11
cezarino,1
cezario,11
chada,1
chaga,1
chagas,86
challita,1
chalupp,1
chamarelli,2
chambarelli,1
chame,1
chammas,1
chamon,1
chamovitz,1
champ,1
champion,1
chanca,1
chanfays,1
chao,2
chapelem,1
chapelin,1
chappatte,1
charles,2
charret,3
chatah,1
chauter,1
chavante,1
chavantes,1
chaves,114
chavier,2
cheli,1
cherem,1
cherene,2
chermont,1
cherolle,1
chevrand,1
chianca,1
chianello,2
chiani,1
chiappetta,1
chiara,1
chiarelli,3
chiariello,1
chibante,1
chicanel,1
chicarini,1
chicarino,1
chiesse,1
chieza,1
chilelle,1
chiletto,1
chilinque,1
chiluglli,1
chinellato,1
chini,1
chlan,1
choeri,1
chousinho,1
chrisman,1
chrispe,1
chrispin,1
christ,1
christani,1
christi,1
christiano,1
christino,1
christmann,1
christo,1
christovao,1
chucre,1
chuff,1
chung,1
chychu,1
cialdini,1
ciambarella,2
ciampa,1
cicco,1
cicero,1
cid,3
cidaco,1
cidade,3
cidao,1
cidra,1
cidri,1
ciganda,1
cima,1
cimenielli,1
cimonato,1
cinca,1
cincinatus,1
cinelli,2
cinquinis,1
cintra,2
cinza,1
cipolla,1
cipreste,1
cipriana,1
cipriano,2
cipulli,1
ciquiro,1
ciria,1
ciriberri,1
cirilo,5
cirino,6
cirne,2
cirsoso,1
cirto,1
cisnane,1
citriniti,1
cittadino,1
ciuffo,2
clara,1
claret,1
claril,1
clarindo,1
clarisse,1
claro,4
claudino,9
claudio,10
clavico,1
clelio,1
clemente,15
clementino,5
clerier,1
clery,1
cleto,5
climaco,1
clito,1
closs,1
cmiel,1
co,1
cobalea,1
coboski,1
cobra,2
cocchi,1
cocco,1
cochito,1
cockell,1
coda,1
codeco,1
coelho,178
coffone,1
cohen,3
cohn,2
coimbra,19
coithino,1
coito,1
cokotos,1
cola,1
colabianque,1
colares,3
colhaco,2
colicigno,1
colin,1
colino,1
collares,1
collelo,1
colli,1
colombo,2
colopy,1
colosso,1
colpas,1
comba,1
comeia,1
comper,1
compioni,1
cona,1
concas,1
conceciao,1
conceicao,452
conceiouo,2
concicao,1
condack,1
conde,5
condinho,1
condor,1
conforto,1
conrado,7
conrrado,1
consentino,1
considera,1
console,1
constancio,7
constante,1
constantino,8
consuel,1
contancio,1
conte,2
contijo,1
contreira,1
contreiras,2
contti,1
cooper,1
copalo,1
copelli,2
copello,1
copio,1
coqman,1
corado,1
corbacho,1
corbo,1
cordao,1
cordeiro,89
cordella,1
cordenonsi,1
cordoeira,1
cordovil,3
coreea,1
corguinha,1
coriozano,1
coritiba,1
corneiro,1
cornelio,2
coro,1
coroa,1
coronel,1
correa,265
correga,1
correia,75
cortasio,1
cortat,2
cortaz,1
cortes,20
cortese,1
cortez,3
cortinho,1
corujo,1
corvino,1
cosentino,1
cosenza,1
cosme,4
cosmo,2
cossetti,1
cossich,1
cosso,1
costa,1193
costas,1
costeira,1
cota,2
cotendey,1
cotia,1
cotrim,5
cotta,4
coura,2
coury,1
coutinho,117
couto,95
covinha,2
cozendey,1
cozumba,1
craveiro,4
cravinho,1
cravino,1
cravo,1
crawshaw,1
crecencio,1
crelier,1
cremonez,1
cremoneze,1
crepaldi,2
crescencio,1
crespo,19
crestane,1
cretton,3
crevelaro,1
crevelin,1
crhispim,1
crichigno,1
crisostomo,3
crisostomos,1
crisp,1
crispe,1
crispim,6
crispiniano,2
cristallini,1
cristi,1
cristiano,2
cristo,1
cristofori,1
cristovam,2
cristovan,1
cristpino,1
crivano,1
crode,1
cropper,1
crus,1
cruz,347
cruzeiro,2
crzuz,1
csantos,1
cshwacke,1
csota,1
cudischevitch,1
cuerci,2
cuha,1
cumplido,1
cunha,290
cupello,3
cupertino,2
cupt,1
curcio,1
curi,3
curione,1
curitiba,1
curti,2
curto,1
curty,6
curvello,1
curvelo,1
cury,3
custodio,23
cutalo,1
cutea,1
cutis,1
cyaneiros,1
cymerman,1
cypriano,2
cyriaco,1
cyrillo,1
cyrilo,1
cyrne,1
cytrynbaum,1
dabkirmicz,1
dacosta,1
dahan,1
daher,2
daister,1
dalgea,1
dalgolbo,1
dalio,1
dallari,1
dalleprane,1
dallio,1
dalma,1
dalmeida,1
daltas,1
daltoe,1
daltro,2
damacena,2
damaceno,3
damas,3
damascena,4
damasceno,43
damasio,4
damaso,3
damato,2
damazio,4
dames,1
damiane,1
damiani,1
damiao,9
danemberg,1
dangelo,1
daniel,14
danielli,2
daniels,1
danshin,1
dantas,75
dante,1
daraujo,2
darck,1
dardes,1
dareal,1
dargam,1
darilio,1
dario,1
darmont,1
daroz,1
darriaux,1
darrieux,1
darsie,1
darwin,1
das,1
dasilva,3
dassie,1
dassumpcao,1
dassuncao,1
dau,1
daudt,3
daumas,3
davi,2
david,14
davidovich,1
davies,1
davila,1
davoli,1
dawidovich,1
daye,1
dayrell,1
dazeredo,1
dealmeida,1
deassis,1
debiase,1
debortole,1
debossam,1
deccache,1
defante,1
dehler,1
deister,2
delaia,1
delamare,1
delduque,1
delfino,8
delgado,15
delmiro,1
delphim,2
delphino,1
deluiz,1
delvito,1
demelvou,1
demerciano,1
demerval,1
demetrio,2
demetro,1
demolinari,1
demoura,1
deodoro,1
deolindo,1
deoliveira,1
deonisio,1
derbli,1
dererichs,1
derio,1
derme,1
desiderio,2
desidorio,1
dessaune,1
dester,1
desterro,1
dethloff,1
detogne,1
detori,1
dettogni,1
deus,22
deusvindo,1
deveza,1
devillart,1
devino,2
dextro,1
deziderio,2
dezze,1
diamante,1
diamantino,1
diana,1
dias,368
dib,2
diego,1
diegues,2
dietrich,1
digiotno,1
dimas,2
dimuro,1
dimus,1
dinis,1
diniz,56
dinucci,2
diogenes,1
diogo,8
diola,1
diomisio,1
dionisio,8
dionizio,3
dirques,1
disco,1
ditadi,1
diveira,1
divino,3
diz,1
djak,1
dmacedo,1
doarth,1
dock,1
doctcors,1
dodibei,1
dolejsi,1
dollmger,1
domeciano,1
domiciano,3
domieri,1
domingo,1
domingos,47
domingues,35
dominguez,3
donado,1
donati,1
donato,8
donola,1
dores,8
doria,3
dormindo,1
dornas,1
dornelles,1
dorotea,1
dos,1
dossantos,1
dostal,1
dourado,5
douto,1
douza,2
doval,1
dovales,1
drago,1
dreher,1
drubscky,1
drumond,4
duarte,127
duarti,1
dubovski,1
duclos,1
duczmal,1
duda,1
duek,1
duffrayer,1
dufrayer,1
duim,1
dumas,2
dumonte,1
duncan,1
dunker,1
dupont,1
duprat,1
duque,10
durade,1
durado,2
duraes,3
durand,1
durante,1
durao,3
duro,2
durques,1
durval,2
dutra,64
duval,1
dwyer,1
dziekaniak,1
ecard,1
eccard,2
echkardt,1
eckhardt,1
edimundo,1
eduardo,9
efigenio,2
egger,1
egidio,2
egreja,1
egypto,1
egyto,1
ehrhardt,1
eichles,1
einert,1
einsfeld,1
eiras,5
eise,1
eitner,1
ejnysman,1
eksterman,1
electo,1
eleoterio,1
eleuterio,2
elias,26
eliaw,1
elioterio,1
elisario,1
elisiario,1
eliso,1
elizeu,1
eliziano,1
eliziario,1
eller,5
elmor,1
eloi,1
eloy,2
elvas,1
elvidio,1
ely,1
emerencio,1
emerich,1
emerick,1
emidio,1
emiliano,4
emilio,2
emmanuel,1
emmel,1
emmerich,2
emmerick,1
emmolt,1
emrich,1
encarnacao,6
eneas,1
enes,1
engel,1
ennes,2
enpoito,1
epifanio,1
epstein,1
erce,1
ercole,1
ermida,4
ernandi,1
ernest,1
ernesto,3
erthal,3
ertima,1
escaleira,1
escamilha,1
escarlate,1
escobar,2
escocard,1
escola,1
escolapio,1
escolarte,1
escolastica,1
escosteguy,1
escovedo,1
esmael,1
esouza,1
espagolla,1
esper,1
esperanca,2
esperidiao,1
espilar,1
espinar,1
espindola,13
espinheira,1
espinhoza,1
espinola,3
espirito,1
espogeiro,1
esposito,3
esposte,2
espuante,1
esquioga,1
estacio,1
estanislau,2
estarneck,1
estavao,1
estebanez,1
estefan,1
estefaneli,1
estefanio,1
estelino,1
estephaneli,1
estevam,3
estevan,1
estevao,5
esteves,45
estevino,1
estevo,1
estigarribia,1
estorque,2
estrela,4
estrella,4
estulano,1
etchart,1
euclides,3
euclydes,1
eufrasio,1
eufrazia,1
eufrosio,1
eugenio,10
eulalia,1
eutachi,1
euzebio,5
evance,1
evangelista,28
evaristo,8
eveling,1
evora,1
evres,1
ewing,1
expedito,1
eyer,2
eymard,1
eyng,1
ezequiel,6
fabbro,1
fabello,1
fabiano,2
fabiao,1
fabio,1
fabri,1
fabricio,6
fabry,1
faccion,1
facil,1
facre,1
facundo,3
fadel,3
fadlalah,1
fagundes,18
faial,1
faiao,1
faini,1
fajardo,1
falcao,19
falco,1
falcone,1
falheiro,1
falleiro,2
falsfein,1
faltz,1
famas,1
fandino,1
fanelli,2
fani,2
fantana,1
fantinel,1
farah,2
farber,1
fardo,1
farelli,1
farelo,1
fares,2
faria,171
farias,133
farneta,1
faro,3
faroe,1
farroco,1
farsura,1
fartura,1
farves,1
fasolo,1
fasselli,1
faulhaber,2
faustino,16
fautino,1
favagrossa,1
favoreto,2
fazenda,1
fazzioni,1
fecher,2
federici,1
fedozzi,2
fegueira,1
feijao,1
feijo,8
feijoli,1
feijoo,1
feio,2
feitosa,19
feitoso,1
feitoza,6
felice,2
feliciano,10
felicio,7
felicissimo,2
felipe,23
felippe,9
felisardo,2
felisberto,4
felisbino,1
felismina,1
felismino,1
felix,52
felizardo,6
feno,2
fenonato,1
fenstermaker,1
fenta,1
fereira,2
ferenczi,1
feres,1
fernades,2
fernanda,1
fernandes,366
fernandez,10
fernando,1
fernnades,1
ferraiuolo,1
ferrao,4
ferrarez,2
ferrari,4
ferraro,3
ferraz,21
ferrazani,1
ferre,1
ferreia,1
ferreira,999
ferreirinha,1
ferrer,3
ferrera,1
ferreria,1
ferri,1
ferro,6
ferssura,1
fessel,1
festas,1
feu,3
feudo,1
feuro,1
fialho,9
ficher,1
fideles,1
fidelis,13
fidencio,1
fieppo,1
figueira,38
figueiras,2
figueiredo,122
figueirinho,1
figueiro,3
figueredo,11
figueroa,1
fihlo,1
filadelfo,1
filardi,1
filet,1
filgueira,1
filgueiras,5
filh,1
filha,2
filho,1669
filipe,1
filippo,1
finamoure,1
finelli,1
fingolo,1
finkelstein,1
fioravante,1
fiori,1
fiqueira,1
fiquene,1
fireman,1
firmiano,6
firmimo,1
firmino,20
firmo,2
fisch,1
fischdick,1
fitaroni,2
fittipaldi,1
fiuza,10
flaeschen,1
flanck,1
flausino,1
flauzino,1
fleck,1
flexa,1
flho,3
fliege,1
flinkas,1
flor,8
flora,1
flordell,1
florenciano,1
florencio,5
florenco,1
florentino,7
flores,20
floret,2
floriano,5
florido,1
florin,1
florindo,2
floripes,1
floristhe,1
floro,1
fogaca,4
foge,1
fogos,1
folco,1
folgosa,1
folha,1
foli,1
folino,1
folly,9
foly,1
fonseca,236
fontainha,1
fontana,3
fonte,7
fontenele,1
fontenelle,2
fontes,49
fontinha,1
fontinhas,1
fontoura,4
foradini,1
forma,1
formiga,1
forni,1
forny,1
forster,1
forte,2
fortes,13
fortuna,4
fortunato,4
fourax,1
foureaux,1
foutoura,1
fradique,1
fraenkel,1
fraga,18
fragoso,6
fragozo,1
franca,98
france,1
francelino,9
franceschi,1
francez,1
francini,1
francino,1
francioni,1
francis,1
francisco,103
franciscone,1
francisquiri,1
franco,40
francu,1
frandik,1
frandoloso,1
frangnelli,1
frankel,1
franklim,1
franklin,7
franoa,2
franque,1
franqueira,1
frantao,1
fratane,1
fratani,1
fratis,1
frazao,9
frech,1
frederico,3
frediman,1
fredo,1
freiberger,1
freiman,2
freire,78
freires,3
freitas,299
freixieiro,1
freixinho,1
freixo,2
frey,1
freyesleben,1
frez,2
frias,7
fridman,1
frigeri,1
frizieiro,1
frizoni,1
froes,6
frois,1
frolick,1
fronard,1
frontino,1
frontoura,1
frossard,3
frota,3
frotas,1
frotta,1
frotte,2
fructuoso,2
fructuozo,1
frullani,1
frutuoso,3
fuchs,2
fucks,1
fuentes,1
fuks,2
fulgencio,2
fuli,2
fuly,2
fumaca,1
furer,1
furlan,2
furlanetto,1
furriel,1
furtado,37
furtunato,1
fusta,1
fuzato,1
gaban,1
gabetto,1
gabi,2
gabina,1
gabino,1
gabriel,20
gabrielli,1
gabrig,1
gabril,1
gabry,5
gaby,3
gadelha,6
gaede,1
gagliano,1
gago,2
gaia,1
gaigher,1
gaio,1
galamba,1
galan,1
galante,2
galaso,1
galaxe,1
galdeano,1
galdencio,1
galdingo,1
galdino,22
galeao,1
galeno,1
galeti,1
galhano,1
galhardi,1
galhardo,2
galheiro,2
galhoes,1
galil,1
galimidi,1
galindo,1
galinis,1
gall,2
gallas,1
galleazzi,1
galli,1
gallipoli,1
gallo,2
galo,1
galrao,1
galvanho,1
galvano,1
galvao,28
galvino,1
gama,53
gamacho,1
gamarano,1
gamba,1
gambarra,1
gambati,1
gamboa,1
gameiro,1
gameleira,1
gancalves,1
gandra,6
ganem,2
ganga,1
gangorra,1
ganhadeiro,1
ganon,1
garces,2
garcez,3
garcia,118
gardzinski,1
gargano,1
garrido,7
garute,1
gascao,1
gaspar,18
gasparini,1
gastaldelo,1
gastao,2
gato,2
gatto,5
gaucia,1
gaudereto,1
gauna,1
gavarone,1
gavarrao,1
gavina,2
gavinho,1
gayao,1
gayer,2
gaygher,1
gaze,1
gazeta,1
gazineo,1
gazzani,1
geiger,1
gelain,1
gelard,1
geledan,1
gellert,1
gelman,1
gemino,1
generoso,4
genesio,1
genovez,1
gentil,5
gentile,1
genuino,2
georg,1
geovonini,1
geralda,1
geraldino,3
geraldo,22
gerard,1
gerbasi,1
gerber,1
geremias,1
gerhard,2
gerheim,1
geri,1
gerico,2
germano,11
gernandes,1
geronimo,1
gerpe,1
gerude,1
gerundo,1
gervasio,5
gervazoni,1
gestal,1
geudes,1
gevigir,1
gewandsznajder,1
ghamen,1
ghazi,1
ghersberg,1
ghiotti,1
ghossi,1
giacomolli,1
giagio,1
giardino,1
giarlini,1
gibao,1
gierkens,1
giesteira,1
giglio,3
gil,11
gildo,1
gimenes,1
gimenez,4
ginnari,1
giornes,1
giovannetti,1
giovannozzi,1
giraldez,1
girao,2
girardi,1
girizotti,1
girola,1
giron,1
giroto,1
gitany,1
gitirana,1
gititana,1
gitti,1
giudice,1
gloria,12
gnecco,1
gnipp,1
gobbi,1
gobo,1
godeiro,1
godim,1
godinho,15
godoi,1
godois,1
godolphim,1
godomiczer,1
godoy,6
goes,25
goetsch,1
goichman,1
gois,4
goivinho,1
goldenstoin,1
goldfeld,1
goldmann,1
goldzweig,1
golinelli,1
golovac,1
gombron,1
gomes,751
gomez,4
gomrd,1
goncalo,5
goncalves,446
goncalvez,1
gonclaves,1
gondar,1
gondin,1
gondinho,1
gonet,1
gonik,1
gonoalves,3
gonsalves,1
gontijo,1
gonzaga,23
gonzales,3
gonzalez,11
gonzalles,1
gonzo,1
gordo,1
gorges,1
gorni,1
gorsani,1
gosi,1
gosne,1
gosto,1
gottlieb,1
goulart,36
gouvea,19
gouveia,26
govea,1
goveia,1
gozineo,1
grabikoski,1
graca,16
gracas,1
gracie,1
graciliano,1
graciolli,1
gradim,1
grado,1
gradw,1
graffino,1
graick,1
grana,2
grand,1
grande,4
grandi,1
grandim,1
grandini,1
granells,1
granem,1
grangeiro,1
granha,1
granito,1
granja,6
granjeiro,1
graoas,1
grarrido,1
grassine,1
grassini,1
grativo,1
grau,1
grauja,1
gravitol,1
graziani,1
grazinoli,1
grecchi,1
grecia,1
gredas,1
gredilha,1
greenhalgh,1
grega,1
grego,1
gregorio,23
gremiao,1
griebeler,1
griffo,1
grijo,4
grillo,1
grinberg,1
griner,1
grion,2
gripa,1
gripp,2
grippa,1
groba,1
grodetzky,1
groetaers,1
gross,1
grossman,1
grosso,2
grumach,1
grunblatt,1
grunefeld,1
grunier,1
gryzagoridis,1
guajajara,1
gualande,1
gualter,1
gualtieri,1
guandeline,1
guaraciaba,1
guarany,1
guaranys,1
guarda,2
guarilha,1
guarino,2
guarisa,1
guarnier,1
guayanaz,1
gubler,1
guebel,1
guedes,76
guererro,1
guerra,29
guerreiro,2
guerrero,1
guersola,1
guevara,1
guia,4
guida,4
guides,1
guido,1
guidugli,1
guignoni,1
guilarfucci,1
guilherme,11
guilhermino,1
guilhon,1
guillhon,1
guimaraes,234
guimil,1
guiomar,1
guiste,1
guizardi,1
gullo,1
guowen,1
gureusky,1
gurgel,4
gurjao,1
gursel,1
guscetti,1
gusman,1
gusmao,15
gussem,1
gustavao,1
gustavo,2
guterres,1
gutierrez,2
gutler,1
haas,2
habib,2
habibe,1
hacar,1
hack,1
haddad,5
haffner,1
haidamus,1
hajdu,1
halfeld,1
hall,1
halliday,1
halmack,1
hamaty,1
hamdar,2
hamilton,1
hammes,4
hammurshimidt,1
hang,2
hanges,1
hanna,1
hanschke,1
hansen,3
hantzschel,1
happ,1
haracio,1
harari,1
harber,1
harfouche,1
harlache,1
hartalian,1
harte,1
hartt,1
hassano,1
hassib,1
hatakeyama,1
hatano,1
haubrich,2
haude,1
haus,1
hausen,1
haussler,1
hayashi,1
haydt,1
heckert,1
heimer,1
heinrichs,1
heinz,1
heinze,1
heinzelmann,1
heiser,1
heitor,1
heizer,2
helena,2
heleodoro,1
helmer,1
helmold,1
helouani,1
helov,1
henck,2
henrichs,2
henrique,29
henriques,23
hense,1
henud,1
henze,1
herbster,1
herculano,6
hercules,2
herdeiro,1
herdy,5
heredia,1
hering,1
heringer,4
herling,1
herman,1
hermanson,1
hermes,2
hermida,1
hermogenes,1
herms,1
hernandes,1
hernandez,1
herrmann,1
herzog,1
hiamachita,1
hiath,2
hidasy,1
higino,3
hilario,8
hill,2
himmelsbach,1
hipolito,5
hippertt,1
hippolito,1
hirabal,1
hiraga,1
hirota,1
hirth,1
hock,1
hoelse,1
hofacker,1
holanda,6
holtz,1
holur,1
holz,1
holzberg,1
holzmann,1
homem,3
honeim,1
honorato,5
honorio,13
hora,18
horacio,4
horandi,1
horato,1
horita,1
horsth,1
horta,4
hortas,2
hortega,1
hortencio,1
hott,1
hottes,1
hottz,1
hotz,1
houaiss,1
hoz,1
huaick,1
huback,1
hubner,1
hubscher,1
hudemann,1
hudson,1
huf,1
huguemim,1
huguenin,1
huiwen,1
humberto,1
hygino,1
hyodo,1
iacillo,1
iannie,1
ibano,1
ibraim,1
ida,1
idio,1
iglecia,1
iglesias,2
ignacio,14
ikedo,1
ildefonso,2
ilha,1
imbrosio,2
inacio,23
indiguiton,1
ingaglia,1
innecco,1
innocencio,2
inocencio,5
inove,2
iorio,2
iost,1
iotte,1
irias,1
irineu,1
irmao,14
irorre,1
iruata,1
isaias,2
isconianni,1
isidoro,2
ismael,3
ismerin,1
israel,2
issobe,1
itaborai,1
itajahy,1
itatty,1
iuchtman,1
iunes,1
iva,1
ivan,1
ivo,3
iwamoto,1
izabel,2
izar,1
izecksohn,1
izidero,1
izidio,1
izidorio,2
izidoro,5
jacintho,5
jacinto,6
jackson,1
jaco,1
jacob,3
jacobina,1
jacobs,1
jacoby,1
jacomino,1
jacomo,1
jaconiano,1
jaconiasni,1
jacovazzo,1
jacques,3
jaeger,1
jaegger,1
jaffar,1
jaguary,1
jakmak,1
jalci,1
jalkh,1
jaloto,2
jamelli,1
jander,2
jandre,1
janeiro,2
janjao,1
jannarella,1
jannyzi,1
janovicci,1
januario,21
jarbas,1
jardim,22
jareta,1
jarosevschi,1
jasmim,1
jaspan,1
jassus,1
jaudy,1
jauhar,1
javorita,1
jax,1
jeitani,1
jeite,1
jeremias,2
jerobnymo,1
jeronimo,5
jeronymo,6
jeski,1
jesuino,1
jesus,233
jesuz,1
jeus,1
jimenez,1
joana,1
joannes,1
joao,1
joaquim,14
job,1
jober,1
jochem,1
jodegishi,1
jodiehek,1
johnston,1
joia,2
jonard,1
jonas,1
jones,1
jopeter,1
jordao,12
jorge,31
jose,23
josefino,1
josme,1
jospin,1
jouberth,1
jovan,1
jovem,1
jovencio,1
jr,1
juannes,1
jublot,1
judice,1
julianelli,1
juliani,1
juliao,8
julieto,1
julio,11
julioa,2
junes,1
junger,2
junio,2
junior,564
junqueira,9
junto,1
jurema,1
jussara,1
jussim,1
justa,1
justen,2
justiniano,1
justino,17
justo,5
juvenal,2
juvencio,1
kadopuchi,1
kahn,1
kai,1
kaiser,1
kaizer,1
kajishima,1
kalaf,1
kalli,1
kaneko,1
kaplan,1
kapp,1
kappaun,1
kappius,1
kapps,1
karelneijts,1
karll,1
kastrup,3
kattermann,1
katz,4
katzwinkel,1
kaufman,1
kaufmann,1
kayat,1
kayser,1
kazay,1
kehl,1
keller,1
kelly,4
kelmer,1
kenupp,1
kepsold,1
kern,1
kerr,2
khoury,1
kichin,1
kieffer,1
kienteca,1
kilim,1
kimelblat,2
kindel,1
kinupp,1
kirstein,1
kistenmacker,1
kistler,1
kitagawa,2
klaim,1
klausner,1
kleim,1
klein,5
kleinman,1
klem,1
klen,4
klimaschenski,1
kling,1
klippel,1
kloh,3
kloske,1
knaver,1
knox,1
knupp,9
kny,1
kochem,1
kodos,1
koeler,1
koenigsdorf,1
kohagura,1
konitz,1
konoplin,1
kopke,1
koplim,1
koppe,1
koppel,1
kossuga,1
kozlowski,1
krapp,1
krasinski,1
kratzer,1
krein,1
kreischer,2
kretzmann,1
kronemberger,1
kroph,1
kropp,1
kruschewsky,1
kubec,1
kulina,1
kung,1
kuperberg,1
kurija,1
kurz,1
kuschir,1
kuzniec,1
kyaw,1
labandera,1
labarba,1
labeche,1
labio,1
lacave,1
lacerda,35
lacir,1
lacopo,1
ladeira,9
ladislau,3
ladoga,1
lage,16
lages,2
lago,8
lagoa,3
lagoas,5
lagoia,1
lagos,2
lagreca,4
lahud,1
laia,2
lain,1
laino,1
laiun,1
lalico,1
lamare,1
lamas,2
lamata,1
lambert,1
lamblet,1
lamego,1
lameira,2
lamelas,1
lamen,1
lamenca,1
lameri,1
lamim,2
lamin,1
lamour,1
lamy,1
lamyr,1
lana,3
lanceiro,1
landau,1
landi,1
landim,2
laneiro,1
lanes,1
langoni,1
lanhas,1
lankamp,1
lannes,5
lanor,1
lansillote,1
lanto,1
lanzellotti,1
lanzillota,1
lanzoni,1
lapa,1
laplace,1
laport,1
laporte,1
laque,1
lara,5
larangeira,3
laranja,1
laranjeira,5
laranjeiras,1
larcher,1
larichia,1
lario,1
larragoiti,1
larres,1
larroque,2
larrubia,1
larsen,1
lascola,1
lasserve,1
latavanha,2
latge,1
latuga,1
lau,2
laucas,1
laudano,1
laudelino,1
lauffer,1
lauletta,1
laureano,8
laurentino,4
lauria,2
lauriano,2
laurindo,15
lauro,1
laursano,1
lauxmann,1
laveglia,1
lawal,1
lazarine,1
lazarino,1
lazaro,1
lazera,1
leal,86
leandro,21
leao,22
leborio,1
lebranque,1
leccy,1
ledesuna,1
ledo,1
leifeld,1
leira,2
leiros,1
leiroz,2
leitao,21
leite,159
leitinho,1
leituga,1
leiva,1
leivas,1
leixas,1
lelles,2
lellis,1
leme,6
lemek,1
lemes,1
lemos,85
lena,1
lencastre,3
lenczynski,1
lengruber,1
lentini,1
lento,1
leoa,1
leocadio,3
leon,3
leonardo,11
leoncio,3
leone,2
leonel,2
leonemi,1
leones,1
leoni,1
leoniza,1
leopoldino,3
leopoldo,2
leoterio,1
lepsch,1
lerma,1
leroux,1
les,1
leslie,1
lessa,34
lestard,1
lestayo,1
leta,2
letiere,1
leuzinger,1
levis,1
levkovits,1
levy,1
liama,1
liao,1
libanio,1
libardi,1
libera,1
liberato,3
libertino,1
liberto,1
liborio,2
licker,1
licurgo,2
lidugerio,2
lidugero,1
lieres,1
lifschitz,1
lili,1
lima,985
limas,3
limeira,2
limoeiro,2
limongi,1
linde,1
lindes,1
lindolfo,2
lindolpho,2
linhares,21
lino,19
lins,29
lioneza,1
lioterio,1
liporace,1
lippi,1
lippincott,1
lira,26
lirio,5
lisboa,34
liveira,1
livino,1
livramento,1
lixa,1
lizak,1
lizeu,1
lloveras,1
loanda,1
lobao,2
lobato,9
lobianco,1
lobo,22
lobre,1
locasso,1
locatelli,2
loche,1
locken,1
loeblein,1
loeps,1
loesch,1
loeta,1
lofeudo,1
logatti,1
loggerenberg,1
loio,1
loiola,2
lois,1
loivos,1
lomar,1
lomba,3
lombardi,1
lomelino,1
lomengo,1
lomeo,1
lomeu,3
lomonaco,1
london,1
longo,5
lontra,4
looback,1
lopes,380
lopez,5
loppes,1
lorang,2
lorch,1
lordelo,2
loredo,2
loreiro,1
lorena,4
lorencao,1
lorenzeto,1
lorenzo,2
lorenzoni,1
loreto,3
loretti,1
lorinho,1
lorusso,1
loss,1
lotero,1
loubach,1
louback,4
loubactz,1
loura,2
louredo,3
loureiro,50
lourenco,59
lourenoo,1
loures,4
lourindo,1
louro,4
louroza,1
lousada,2
louvem,1
louzada,8
louzano,1
lovantino,1
loyola,1
lua,1
lucao,1
lucas,24
lucassali,1
lucateli,1
lucca,2
lucchesi,2
lucena,9
luciana,1
luciano,18
lucindo,4
lucio,11
luder,1
ludolff,1
ludugero,1
lueiro,1
lugao,6
lugo,1
luigi,1
luis,2
luiz,57
lula,1
luma,1
luna,11
lunes,1
lung,1
luparelli,1
lupatini,1
lupinacci,1
lupriano,1
luque,1
luqueci,1
luquinda,1
lussac,1
lustosa,1
lustoza,1
lustroza,1
lutte,1
lutterbach,1
luvizaro,1
luz,49
luzia,1
luzio,1
lyra,8
lyrio,7
lyszy,1
mac,1
macabu,1
macaiba,1
macal,1
macambira,1
macario,7
macchiarulo,1
macedo,117
macena,11
macentosh,1
machaado,1
machaco,1
machado,405
macharet,1
macharete,1
macharette,1
machulis,1
macias,1
macieira,4
maciel,83
macilon,1
maciqueira,1
madaffari,1
madalena,1
madeira,16
madeiro,1
madoreira,1
madruga,3
madureira,8
madureiro,1
maduro,2
maechelburg,1
maezano,1
maffei,1
maffort,1
maffra,1
mafort,4
mafra,4
magalahaes,1
magaldi,1
magalhaes,133
magao,1
magarian,1
magaton,1
magdaleno,1
magdanello,1
magdenier,1
magela,2
mageste,1
magestic,1
magnezi,1
magno,1
magnon,1
magnoni,1
magon,1
magrani,1
magro,1
mahmed,1
mahomed,2
maia,135
maiaratti,1
maiato,1
maillard,1
mainente,1
maini,1
mainiere,1
maior,2
mairynk,1
maitre,1
malafaia,5
malagris,1
malaquias,3
malaspina,1
malavaes,1
malavasi,1
malcher,1
maleh,1
malena,1
malfacini,1
malha,1
malhano,1
malheiro,2
malheiros,9
malher,1
malheta,1
malito,1
mallet,3
malleval,1
malta,3
maltez,1
malungo,1
malva,1
mamede,4
mamedes,1
manacorda,1
manaia,1
mancebo,1
mancino,1
manco,1
mandarino,1
mandonet,1
mandriola,1
mandu,1
mandura,1
manes,1
manfredo,1
manfro,1
mangabeira,1
mangefesti,1
mangia,2
mangifeste,1
mango,1
manhaes,43
manhold,1
manier,1
manna,1
mannarino,1
mannerat,1
mannshardt,1
mano,1
manoel,15
mansera,1
manske,1
manso,8
mansores,1
mansour,1
manstrom,1
mansur,6
mantelli,1
mantero,1
mantesso,1
mantilha,1
mantovani,1
mantuan,1
mantuano,1
manzano,1
manzini,1
manzolillo,1
maranhao,6
maravilha,5
marca,2
marcal,5
marcek,1
marcela,1
marcelino,26
marcelli,1
marcello,4
marcelo,5
marcenal,1
marcera,1
marchese,1
marchesi,1
marchetti,1
marchi,1
marchon,3
marciano,4
marcilio,2
marcionilio,1
marcleino,1
marco,1
marcoli,1
marcolino,7
marcondes,3
marcos,4
marculino,2
marendaz,5
mareque,1
marfir,1
margarida,1
margarido,1
margarizo,1
margcal,1
margino,1
margulis,1
maria,29
marianno,1
mariano,48
mariante,1
marica,2
marie,1
mariel,1
marin,1
marina,1
marinato,2
marinelli,1
marinho,99
marinhos,1
marini,1
marino,2
marinone,1
marins,67
marinspereira,1
mario,2
mariotini,1
mariotti,1
mariz,2
marmello,1
marmelo,2
marmo,1
marochi,1
marongiu,1
marota,1
marotta,1
maroun,1
marque,1
marques,219
marqui,1
marquiz,1
marrecas,1
marreiros,1
marriel,1
marrocos,1
marrom,1
marrozo,1
marsiglia,1
marta,3
martelloti,1
martha,1
marthias,1
martignoni,1
martimiano,2
martinelli,2
martinez,8
martinho,4
martiniano,4
martinianos,1
martino,5
martins,484
martns,1
martorelli,1
martuche,2
marturelli,1
marujo,1
marvila,1
marx,1
mary,2
marzullo,1
mascarenhas,13
mascena,2
mascouto,1
masega,1
masini,1
maso,1
massa,1
massano,1
massanti,1
massaro,1
massi,1
massot,1
mastrangelo,1
mata,12
mataruna,2
mates,1
mateus,14
matheus,11
mathias,19
matias,23
matiello,1
matins,1
mato,1
matos,107
matoso,4
matsumoto,1
matsumura,1
matta,16
mattar,1
matte,1
mattesco,1
mattias,2
mattos,114
mattoso,1
maturana,1
mauad,1
maura,2
maurelli,1
maurer,1
mauricio,13
maurieli,1
maurity,1
mauro,1
maves,1
mavrente,1
max,1
maximiano,5
maximiliano,1
maximiniano,1
maximino,1
maximo,9
maxnuk,1
may,2
maya,1
mayer,1
mayrinck,1
mayworm,1
mazambone,1
mazareth,1
mazega,1
mazullo,1
mazulo,1
mazur,1
mazza,3
mazzei,2
mazzini,1
mcgregor,1
meana,1
meb,1
medeiro,3
medeiros,185
medici,1
medina,8
medrado,2
meehan,1
mefano,1
meggiolaro,1
meinicke,1
meira,6
meire,1
meireles,20
meirelles,20
meisterhoper,1
melcher,1
meleiro,1
melendez,1
melgaca,1
melhorance,1
meliante,1
melich,1
mellado,1
mellis,1
mello,188
melo,248
melon,1
melquiades,1
melsert,1
memere,1
menaget,1
menasche,1
mendelski,1
mendes,204
mendlowjcz,1
mendonca,134
mendonoa,1
mendonoca,1
menegati,1
menegatti,1
menegoy,1
meneguelli,1
meneguit,1
meneguite,1
meneses,11
menezes,150
menis,1
mensch,1
menta,1
mentzeingen,1
mercadande,1
mercadante,2
mercante,2
merces,4
mercez,1
mercier,1
mercurio,2
mergulhao,1
merheb,1
merhy,1
merlim,1
merlino,1
merlo,1
merly,1
mermelstein,1
meroto,1
mery,1
mesmer,1
mesqueita,1
mesquita,66
mesquitela,1
mesquito,1
messeca,1
messias,10
messina,1
metson,1
metti,1
metzgen,1
mexias,1
meyer,4
meziat,1
mezo,1
mezzalira,1
michaelis,1
michalczuk,1
michels,2
michilles,1
micia,1
miekeley,1
mignone,1
migueis,3
miguel,28
miguens,1
migues,1
miguez,2
milagres,3
milan,1
milanes,1
milanez,1
milani,1
milao,1
milazzo,1
mileippe,1
milen,1
miler,1
milese,1
milezi,1
milfont,1
milheiro,2
milichman,1
milione,1
militao,1
miller,3
mills,1
miloski,1
milward,1
minan,1
minas,1
minda,1
miney,1
minguta,1
miniguelo,1
mininguelo,1
ministerio,1
minto,1
minucci,1
minvielle,1
miqueles,1
miquelotti,1
mirad,1
miranda,172
misael,1
misquita,1
missena,1
mitchell,1
mitidieri,1
mitsuya,1
mizael,4
mizman,1
mizrahy,1
moacyr,1
moamed,1
moco,8
modesto,12
modrach,1
moebus,2
moes,1
moises,3
moita,1
molares,1
molina,8
molinari,1
molinario,1
molinaro,1
molinos,1
molleta,1
molteno,1
moncao,3
mondaini,3
mondego,1
monegalha,1
monerat,2
moni,1
moniz,1
monkin,1
monlevad,1
monnerat,2
monoro,1
monsoldo,1
monsores,11
monsuete,1
montassier,1
monte,17
monteiro,229
montejo,1
montemor,1
montenegro,9
montervinos,1
montes,8
montezuma,1
montico,1
montinho,2
montovani,1
montuana,1
moraaeaux,1
morada,1
moraes,262
moragat,1
morais,71
moralde,1
morales,2
morandi,1
morbeck,1
more,1
moreira,330
morem,1
morena,1
moreno,16
moret,2
moreto,1
morett,2
moretti,1
morfira,1
morgado,8
morilho,1
morin,1
morisco,1
morizawa,1
mormo,1
moro,1
morone,1
moroni,1
morsch,1
morta,1
morte,4
mortes,1
moshkovich,1
mosia,1
mosqueira,1
mosquera,1
mostacada,1
mota,78
moteiro,1
motinho,1
motizuki,1
motta,94
moulin,1
moura,232
mourao,12
mouratelli,1
mourilhe,1
mourito,1
mousa,1
mouta,2
moutinho,9
mouzinho,2
moyses,4
moza,1
mozart,2
mozer,5
mudjalieb,1
muey,1
muhari,1
muinos,1
mulatinho,1
mulato,1
mulim,1
muller,6
mullo,1
mullulo,1
munch,1
muneratto,1
munhao,1
munhoz,1
munier,1
muniz,68
munksgaard,1
munoz,3
murad,1
murakami,1
murat,1
mureliano,1
muritiba,1
murito,1
murly,1
muros,1
murray,2
murtinho,1
mury,2
mussauer,1
mussi,1
mutis,1
muyor,1
muzi,3
muzy,1
naar,1
nabbout,1
nabeth,1
nabor,1
nacamdi,1
nacarati,1
nacif,2
nacort,1
nadais,1
nader,2
naegele,1
nagao,1
nahum,1
naine,1
naked,1
naldi,1
nandolff,1
nantes,1
napoleao,1
napolitano,2
narciso,13
narcizo,2
nascentes,3
naschpitz,1
nasciamento,1
nascibem,1
nasciemento,1
nascimento,847
nascimentop,1
nascimentotavares,1
nascimneto,2
nascimnto,1
nasore,1
nasr,1
nassar,2
nasser,1
natal,5
natalino,2
natividade,4
naturano,1
nautone,1
navarro,4
navarros,1
nave,1
navega,3
naves,1
navio,1
naylor,2
naymayer,1
nazara,1
nazare,3
nazareth,13
nazario,4
nazaro,1
ne,1
necco,2
neco,1
negrao,1
negre,1
negreiros,3
negrini,1
negromonte,1
neimeiskchtz,1
neiva,3
nelon,1
nelson,1
nelvo,1
nembri,1
nenegussi,1
nenes,1
neofotistos,1
nepomoceno,1
nepomuceno,3
neponuceno,1
nerdy,1
nere,1
neres,1
neri,6
neris,1
nery,22
neto,390
netto,104
neugarten,1
neughin,1
neunan,1
neves,199
ney,2
nicacio,5
nicali,1
nicau,1
nicodemo,1
nicodemos,1
nicodemus,2
nicola,2
nicolau,16
nicolella,1
nicolete,2
nicolini,1
nicolino,1
nicolussi,1
nicomedio,1
nidech,1
niedermeier,1
nigri,2
nigro,1
nigui,1
nilton,1
nina,1
nitzche,1
nizzo,1
noblat,1
nobre,8
nobrega,15
nobriga,2
nocito,1
noel,2
nogueira,187
nohrstedt,1
noite,1
nolasco,2
nolding,1
nonato,1
nonno,1
noqui,1
noraes,1
norato,2
norberto,5
norbiato,1
norek,1
normandes,2
noronha,12
norte,1
nosoulia,1
notes,1
nouco,1
nova,5
novaes,28
novais,8
novelli,1
novello,2
novena,1
novo,8
noya,2
nudelman,1
nunes,241
nuno,1
nupcias,1
nuss,1
nuthimacher,1
nyaradi,1
o,3
oaks,1
oaquim,1
obi,1
obrapovic,1
occhiuzzo,1
ocerqueira,1
ochiuzzi,1
odilon,2
ofredi,1
ogawa,1
ohana,1
oiko,1
oiterio,1
oiticica,1
oiveira,1
oka,1
okawa,1
oki,3
olegario,4
olievira,1
olimpio,8
oliva,4
olivei,1
oliveiera,1
oliveira,2714
oliveirar,1
olivera,2
oliveri,1
oliveria,3
olivia,1
oliviera,2
olivieri,1
olivieria,1
olm,1
olmedo,1
olsen,1
oluchi,1
olveira,5
olvieira,3
omena,3
omura,1
onca,1
ondeza,1
oneto,1
onias,1
onida,1
onofre,2
onofrio,1
onorato,1
onorio,1
opilhar,1
oratteini,1
ordonho,1
ordrigues,1
orem,1
oriente,1
orlanda,1
orlandini,1
orlando,3
orlikowski,1
ormond,2
ornelas,4
ornellas,5
oro,1
orofino,2
orona,1
orosco,1
orsino,1
ortega,1
ortiz,3
ortola,1
oscar,1
oshima,1
osni,1
osorio,8
osti,1
oswaldo,2
otavio,1
otero,2
otogali,1
otoni,2
otranto,1
ottavio,1
otte,1
ottero,3
ottesen,1
ottoline,1
ottolini,1
ourique,2
ourive,1
outeiro,4
ouverney,8
ovalle,1
ovanovick,1
ozala,1
ozama,1
ozava,1
ozorio,3
paasch,1
paboudjian,1
pacca,1
pacheco,76
pachiega,1
paciencia,1
pacifica,1
pacifico,2
pacote,1
padeira,1
padial,1
padilha,10
padovani,1
padrao,2
padua,1
padulla,1
paes,32
pagani,1
paganini,1
pagano,1
pages,1
pagliares,1
pagliuso,1
pahldorf,1
paim,4
paimex,1
pain,1
pains,1
paio,1
pais,3
paislon,1
paiten,1
paiva,117
paixao,66
paixuo,1
palacio,4
paladino,1
palagar,1
palas,1
palazzo,2
palencia,1
palermo,3
palha,1
palhares,1
palheiros,1
palhete,1
palinos,1
palma,10
palmares,3
palmeira,13
palmeiras,2
palmiere,1
palmieri,1
palombo,1
palomo,1
palumbo,1
pamplona,2
panaro,2
panazio,1
pancotti,1
paneiro,1
paneto,1
panice,1
panio,1
panisio,1
panizza,1
panno,1
pantoja,3
pantojo,1
panza,1
panzariello,1
pao,2
paolantim,1
paolino,1
papa,3
papadopoulos,1
papazian,1
papeira,1
papera,2
papini,1
papoula,1
para,2
paradela,1
paradeles,1
paradella,1
parago,1
paraguayo,1
paraiso,2
paraizo,4
paranhos,7
parcial,1
pardal,2
pardinho,1
pardo,1
pardon,1
paredes,1
parente,4
paret,1
pargos,1
paris,1
parracho,1
parreira,3
parreiras,3
parrilha,1
parrini,3
paschoa,1
paschoal,6
pascoa,1
pascoal,3
pascole,1
pasquarelle,1
passagem,1
passarone,1
passerini,1
passos,56
pastore,1
pastoriza,1
pate,1
pateira,1
patrao,3
patricio,6
patrinieri,1
patrocinio,8
patuelli,1
pauilino,1
paula,231
pauline,1
paulino,25
paulo,41
paulucci,2
paura,1
pauseiro,1
pavan,2
pavao,3
pavon,1
pavone,1
pavonne,1
pavuna,1
payer,1
paz,23
pazmerim,1
pazos,2
pdro,1
peano,1
pecanha,33
pecci,1
peclat,3
pecles,1
pecli,1
pecoraro,1
peculas,1
pedemeiras,1
pederneiras,1
pedra,6
pedrao,1
pedreira,3
pedro,42
pedrosa,9
pedroso,7
pedroza,4
pedrozo,2
pegas,1
pego,1
pegollo,1
pegoraro,1
peitudo,1
peixao,1
peixe,1
peixoto,94
pejol,1
pelegrini,1
pellegrini,2
pellenz,1
pelluso,1
pelosi,1
pena,16
penaforte,1
peneda,1
penedo,1
peneiras,1
peneluppi,1
penha,25
peniche,1
penido,4
penna,9
pennafort,1
pentagna,1
peoanha,2
pequeno,11
peraizo,1
perales,1
peralta,1
peralva,2
perbeils,1
percincula,1
percoff,1
perdigao,3
perdiz,1
perdomes,1
perdonati,1
perdone,1
peregoni,1
peregrino,1
pereira,1078
perenciolo,1
perenha,1
perera,1
peres,33
perete,2
peretti,2
pereyra,1
perez,11
perfeito,1
periard,2
perico,1
perini,1
perisse,3
peroba,1
perozini,1
perpetuo,1
perrett,1
perri,1
perroni,1
perrota,2
perrotta,2
perroud,2
perrout,2
perrut,2
persegani,1
persson,1
perugini,1
peryassu,1
pesaro,1
pesenato,1
pessanha,53
pessata,1
pessi,1
pessoa,40
pessonha,1
pessute,1
pestana,9
peterson,1
petito,1
petris,1
petrocchi,2
petrocelli,1
petrochelle,1
petrocinio,1
petrolla,1
petrone,3
petruccio,1
peyon,1
pezente,1
pezzella,1
pezzino,1
pfasterer,1
philippsborn,1
philippsen,1
piagge,1
pianissola,1
piascentini,1
piassabussu,1
piaui,1
piazza,1
picaluga,1
picanca,1
picancio,1
picanco,4
pichum,1
picoli,1
picone,1
piculi,1
piedade,7
piermattei,1
pierri,1
pieterse,1
pietro,1
pifano,3
pilar,1
pillar,1
piller,1
pimenta,39
pimentel,69
pina,7
pinao,1
pinas,1
pinasso,1
pinel,1
pinenta,1
pingret,1
pinha,1
pinheiro,151
pinheiros,3
pinho,34
pinna,5
pinnock,1
pinsaro,1
pinta,1
pinto,395
pinudo,1
pio,8
piola,1
piovesan,1
piqueno,1
piraciaba,1
piragibe,1
piraino,1
piran,1
piratininga,1
pireli,1
pires,137
pirotti,1
pirozi,1
pisano,1
pisco,1
pismel,1
pissurno,1
pita,4
pitanga,4
pitchon,1
pitel,1
pitoco,1
pitombeira,1
pitta,4
pituba,1
pitzer,1
piuleiro,1
piumbimi,1
piva,1
piza,1
pizoeiro,1
pizzato,1
placido,3
plata,1
plerari,1
plinio,1
plischke,1
pnegioni,1
pobes,1
pocas,1
poeys,1
poeyz,1
pogian,1
polegar,1
polibiano,1
policani,2
policardo,1
policarpio,1
policarpo,4
policarte,1
policastro,1
polidoro,1
polila,1
polito,1
poll,1
pollo,1
polo,1
polverine,1
poly,2
polydoro,3
pombeiro,1
pombel,1
pombo,2
pomeroy,1
pompeo,1
pompeu,3
pomponet,2
pomuceno,1
ponce,1
ponciano,1
ponte,4
pontes,63
ponzo,1
poppolino,2
porcel,1
porciuncula,2
porco,1
porfia,1
porfirio,3
portanova,1
portela,11
portella,10
portes,10
porthun,1
portilho,3
portinha,1
porto,60
portugal,14
posino,1
possas,2
posse,1
possidonio,1
possimuzer,1
possole,1
potiguara,1
pott,1
poubel,6
poulet,1
pourbaix,1
pousada,1
povoa,5
powell,1
pozes,1
pozzi,2
praca,1
pracownik,1
prado,41
prados,1
pralto,1
prass,1
prassa,1
prata,16
prates,3
prati,1
praun,1
praxedes,2
prazeres,10
precht,1
premio,1
premoli,1
presce,1
prescott,1
preste,1
prestes,1
preta,1
prevot,1
preza,1
priami,1
prieto,1
priinet,1
primo,8
princisval,3
priori,1
prioste,1
prisco,1
privatti,1
proba,1
probst,1
procoli,1
procopio,5
prodanoff,1
prodrigues,1
proenca,4
proence,1
proencio,1
proesio,1
proeza,1
prolo,1
protencio,1
provazi,1
provenzano,2
prudencio,3
prudente,3
ptzer,1
puga,2
pugliese,1
pulga,1
pullig,2
pupo,1
pureza,2
purificacao,1
pyrrho,1
qanderley,1
quadrio,1
quadros,7
quaglia,1
quaglio,1
quaresma,7
quartin,1
quastacio,1
queiroga,3
queiros,2
queiroz,86
queres,1
querino,1
querute,1
quiarios,1
quieto,1
quinan,1
quinellato,1
quinta,1
quintaes,1
quintana,1
quintanilha,39
quintano,1
quintans,1
quintao,1
quintas,5
quintela,2
quintella,3
quintieri,1
quintiliano,1
quintillan,1
quintino,8
quintos,1
quinupa,1
quirino,17
quiroz,1
quiterio,2
quites,1
quitete,3
quntaes,1
raad,1
raamos,1
rabello,10
rabelo,11
rabha,1
rabitti,1
raeder,1
raesky,1
rafacsky,1
rafael,6
raggio,2
raguse,1
raibolt,2
raimuardo,1
raimundi,1
raimundo,22
rainha,2
rainho,2
raizer,1
rajao,1
ralha,1
ramaldes,2
ramalhete,1
ramalho,26
ramao,1
rambalt,1
ramilo,1
ramires,4
ramirez,1
ramiro,3
ramm,1
ramoa,3
ramon,2
ramos,300
ramuz,1
range,1
rangel,128
ranhada,2
ranieri,1
ransatti,1
ranson,1
raphael,1
raposo,26
rapoza,1
rapozo,1
raquel,1
raradella,1
rasch,1
raul,2
raupp,1
ravaioli,1
rayae,1
rayes,1
raymindo,1
raymondi,1
raymundo,12
real,4
rebel,2
rebelho,1
rebello,8
rebelo,3
reboredo,1
reboucas,2
rebougas,1
recarey,1
rechtman,1
rechwan,1
redelico,1
redes,1
redig,1
redlier,1
redon,1
regadas,2
regan,1
regard,1
reges,1
regis,2
rego,27
reguine,2
regula,1
rehfeldt,1
rei,2
reifschreider,1
reigoto,1
reilly,1
reimann,1
reimol,1
rein,1
reinaldo,2
reinalt,1
reinte,1
reis,287
reissmann,1
reixeira,1
relva,1
relvas,1
remedios,4
remigio,1
rempto,2
renha,1
renna,1
renne,1
reno,1
renovato,5
rente,3
renti,1
resende,16
reserva,1
ressalva,1
ressiguier,1
ressiquier,1
ressurreicao,1
resueno,1
retonde,1
retto,1
reuther,1
revelles,1
revoredo,2
rey,2
reyes,1
rez,1
rezende,66
rezendes,1
rezk,1
rginaldo,1
ri,1
rianelli,1
ribas,11
ribe,1
ribeiral,1
ribeiro,614
ribera,1
riberto,1
ricardo,17
ricart,1
ricce,1
ricci,1
ricciardi,1
riccioppo,1
richa,2
richard,2
richimitti,1
richo,1
rici,1
rickli,1
rico,1
ridolfi,1
riedel,1
rieiro,2
rifan,1
rigadas,1
righini,1
rigo,2
rigolizzo,1
rigon,1
rigueira,1
riguetti,1
riji,1
rimas,1
rimes,3
rinaldi,2
rio,2
rios,18
ripardo,1
riscado,1
riskalla,1
riski,1
risques,1
rissi,2
risso,2
rita,3
rito,1
rittmeyer,1
rivelini,1
rivello,1
rivero,1
rivola,1
rivoli,1
rizo,2
rizzo,2
rizzon,1
roa,1
robaina,2
robert,1
roberto,14
robertson,1
robetim,1
robinson,1
roble,1
robledo,1
roboredo,1
rocadas,1
rocas,1
rocco,1
rocha,473
rocholino,1
rocio,1
rocque,1
rocrigues,1
rodas,1
rodolfo,1
rodolpho,1
rodopriano,1
rodovalho,1
rodrgiues,1
rodrigo,1
rodrigue,1
rodrigues,684
rodriguez,8
rodriigues,1
roeles,1
rogerio,4
roha,1
roham,1
rohem,3
roiff,1
roimicher,1
roiz,1
roizenblit,1
rojo,1
rokbrand,1
roldao,1
rolemberg,1
rolfs,1
roli,1
rolim,4
rollemberg,1
rollin,1
rolo,3
rolszt,1
roma,4
romagnoli,1
romana,1
romaneli,1
romano,4
romao,11
romay,1
romeiro,1
romeo,1
romero,2
romeu,7
romoaldo,1
rompovet,1
romualdo,3
roncetti,1
ronculi,1
ronda,1
rondao,1
rondon,1
ronren,1
roque,19
roris,1
roriz,3
rosa,313
rosadas,1
rosado,2
rosal,1
rosalino,2
rosari,1
rosario,26
rosas,7
roscala,1
roseno,1
rosenthal,1
rosenzweig,1
rosmaninho,1
ross,1
rossetti,1
rossi,7
rossoni,1
rossteuscher,1
roth,1
rotondano,1
rotter,1
rougemont,1
roulien,1
roupa,1
roure,1
roxo,4
roza,7
rozalino,1
rozario,6
rozeira,1
rozlowky,1
rozolen,1
rua,1
ruas,5
rubim,3
rubin,1
rubio,1
rubioli,1
rudge,1
ruffo,1
rufino,12
rufo,1
ruis,1
ruivo,1
ruiz,1
rumao,1
rumbelsperger,1
rung,1
russel,1
russiel,1
russier,1
russo,4
ruszynski,1
rutigliani,1
rutiliano,1
ruting,1
ruy,2
sa,95
saadi,3
saantos,1
saar,1
saba,1
saback,1
sabadini,1
sabara,1
sabbagh,1
sabbatini,1
sabino,14
saboia,1
sabonario,1
sacco,1
sacia,1
sacramento,23
sacrpelli,1
sad,1
sader,2
sadler,1
saenen,1
safi,1
sagrette,1
sahid,2
saiol,1
saior,1
saisse,2
salaman,1
salamargo,1
salame,1
salas,1
salazar,2
salcedes,1
saldanha,17
saleh,1
salem,3
salema,2
salermo,1
sales,68
salgado,23
salgueiro,6
salim,2
salino,2
salles,36
salmaso,1
salomao,7
salome,1
salonikios,1
salsa,1
salum,1
salustiano,3
salustino,1
salva,1
salvado,1
salvador,13
salvadoretti,1
salvaya,1
salviano,2
salvini,1
salvino,1
samapio,1
samasso,1
sameiro,1
samet,1
samico,1
sampaio,68
sampedro,1
samuel,2
san,1
sanabris,1
sancassini,1
sancedo,1
sancha,1
sanches,12
sanchez,1
sancho,1
sander,2
sanders,1
sandes,3
sandi,1
sandim,1
sandora,1
sandre,1
sangenito,1
sanglar,1
sangy,1
sanna,1
sansao,1
santa,2
santaan,1
santamaria,1
santana,204
santanna,26
santarem,3
santarone,1
santaroni,1
santiag,1
santiago,66
santino,1
santo,59
santolin,2
santopietro,1
santorno,1
santoro,6
santos,4018
santospinto,1
saores,1
sape,1
sapha,1
saraiva,20
sarandao,1
sarches,1
sardinha,12
sardon,1
sardote,1
sardou,1
sarlo,2
sarmento,12
sarno,1
sarote,1
sarpa,1
sarrazin,1
sarria,1
sartie,1
sarto,1
sartori,1
sartorio,3
sarzedas,2
sassim,1
sasso,1
sathler,1
satilo,1
satiro,5
sato,1
satuchengo,1
saturio,1
saturnino,4
satyro,2
saucier,1
savastano,1
saverio,1
savi,1
savino,2
sayao,1
sayignon,1
sbano,1
scala,1
scalercio,1
scali,1
scangarelli,1
scardine,1
scardini,1
scarpa,2
scarpate,1
scarpitta,1
scazzuso,1
scharenberg,1
scharf,1
scheffer,1
scheidegger,2
scheidemontel,1
schelige,1
schelles,1
schemes,1
schenckel,1
scherer,2
scherrer,1
scherz,1
schettine,1
schiavo,1
schimidt,2
schimith,1
schindvain,1
schiper,1
schirnhofer,1
schittini,1
schluckebier,1
schlukebier,1
schmid,1
schmidt,2
schmitt,1
schmitz,1
schnabl,1
schneider,3
schoppa,1
schott,2
schprejer,1
schramm,1
schreider,1
schttini,1
schuabb,1
schuaber,1
schuchman,1
schuck,1
schueler,1
schuenck,3
schuengue,1
schuindt,1
schuller,1
schulman,1
schulze,1
schumack,1
schumacker,1
schumann,1
schvartzman,1
schwan,2
schwartz,2
sciammarella,2
scieszko,1
scofano,3
scofiel,1
scoralick,1
scoralik,1
scortecci,1
scorza,1
scramignom,1
se,2
seabra,5
sebastiao,7
secco,2
secondo,1
secundino,3
secunho,1
seda,1
sedano,2
sedeu,1
seelinger,1
segadaes,1
seghetto,1
segre,1
segui,1
segundo,5
seguro,1
sehade,1
sehatz,1
seibel,1
seichas,1
seidel,1
seifeddine,1
seixas,16
seliprandy,2
selles,1
selva,1
sema,1
semblano,1
semedo,1
semiao,2
seminario,1
sena,20
senader,1
senaro,1
senas,1
senatore,1
senceita,1
senger,1
sengling,1
senha,1
senhora,1
senhorinho,2
senna,11
senra,6
sentineli,1
sepeda,1
sepulveda,3
sepulvida,1
sequeira,5
serafim,14
serafino,1
seraphim,3
serapiao,1
seraquine,1
seraquini,1
serdeira,1
sereio,1
serejo,2
sereno,2
sergio,4
serino,1
serio,1
serodio,1
seroes,1
serois,1
serpa,5
serqueira,1
serra,13
serralheiro,2
serrano,9
serrao,2
serrazine,1
serri,1
serrinha,1
serulha,1
servare,1
serzedello,1
sesas,1
sessa,1
sestine,1
seta,2
seura,1
sevalho,1
severiano,3
severino,13
severo,4
sgaraglia,1
sgarbi,1
sgro,1
shad,2
shaefer,1
sheikha,1
shgidio,1
shieber,1
shinkado,1
shinzato,1
shiratori,1
shiroiwa,1
shor,1
sias,6
sibanto,1
sichi,1
sidronio,1
sieto,1
siffert,1
sigaia,1
siggelkow,1
sila,1
siliacio,1
siliyrand,1
silna,1
silova,1
silv,1
silva,8934
silvano,4
silvaos,1
silvaq,1
silvares,1
silvasilva,1
silveira,161
silvello,1
silverio,7
silvestre,5
silvestri,1
silvino,5
silvio,2
silvo,1
simao,14
simas,18
simbra,1
simeao,2
simeiro,1
simi,1
simiao,2
simoes,42
simon,1
simonato,2
simone,2
simonelli,1
simoni,3
simonin,1
simonini,1
simplicio,7
simpolis,1
sinder,1
sindorf,1
sing,1
singer,1
sinhorinho,1
sinquini,1
sion,1
sipauba,1
siqueira,157
siqueiras,1
siratheau,1
sirino,1
sirnes,1
siteli,1
siulva,2
siva,1
sivla,3
sivori,1
skacel,1
skaramagas,1
skinner,1
slama,1
slva,2
smao,1
smiriglio,1
smith,2
sntos,1
soares,474
sobral,19
sobreira,5
sobreiro,1
sobrinho,168
sobrino,1
socci,1
socorro,3
sodre,17
soeiro,4
sogevia,1
sohn,1
sol,1
solano,2
soldati,1
sole,2
soledade,1
soledonio,1
soler,1
solerinho,1
soliva,1
solle,1
solozabal,1
solva,1
solza,1
sombra,1
somers,1
someson,1
sondre,1
sonetos,1
songbo,1
sonti,1
soousa,1
sores,1
soria,1
soriano,2
sorrentino,1
sosa,1
sotello,1
soterio,1
sotiropaulos,1
souer,1
souiza,1
soulet,1
sousa,270
souto,18
souza,2562
souzart,1
spadari,1
spera,1
speranza,1
spindola,1
spinelis,1
spinelli,1
spinto,1
spitz,1
sposito,1
sprone,1
sprung,1
spuza,1
stabila,1
stahl,1
staib,1
stalli,1
stanescon,1
starck,1
stark,1
stary,1
stasio,1
stathakis,1
stavale,1
stavridis,1
stefanini,1
stefano,1
stefanon,1
steib,1
steichel,1
stein,2
steinberg,2
stellet,1
stephano,1
sterce,1
stern,1
stersi,1
stesse,1
stivanin,1
stoco,1
stoduto,1
stolzelima,1
stor,1
storch,1
storck,2
storino,1
strambi,1
streng,1
strutt,1
sttelet,1
stuck,1
stulbach,1
stumm,1
stumpf,2
stutz,2
suares,2
suarez,3
suassuna,1
suave,1
sucena,1
sucupira,1
sudre,1
sueira,1
sueth,1
sugahara,1
sugiura,1
suhett,4
suimasa,1
suisso,4
sul,2
sulik,1
summaviele,1
supriano,2
surein,1
sutter,1
suzan,1
suzana,1
suzano,3
suzedo,1
swanborn,1
sylvio,1
szafran,1
szanto,1
szigethy,1
szlecka,1
sznejder,1
szteinberg,1
szterenbuch,1
szwarcbarg,1
t,1
tabah,1
tabas,1
tabasnik,1
taboada,2
taborda,1
tacho,1
tacques,1
tada,1
taddei,1
tadeu,1
tafuri,1
tagarro,1
taguti,1
tajima,1
takaoka,1
takeuchi,1
tal,1
talarico,1
talaveira,2
taliatos,1
talissano,1
tallarida,1
talon,1
tamaki,1
tambasco,1
tamelin,1
taminato,1
tana,1
tanaka,2
tanaque,1
tancredi,1
tancredo,2
tani,1
tanigmti,1
tannouz,1
tanore,1
tanque,1
tanure,1
tapia,1
tarantino,1
taranto,1
tardem,1
tardim,2
tardin,7
tardio,2
tardivo,1
tardogue,1
targarro,1
targino,5
tarnopolsky,1
tarsia,1
tartaruga,1
tassara,1
tatagiba,2
tauil,1
taurcio,1
tavaes,1
tavares,183
tavarico,1
taveira,12
taverniso,1
tavil,1
tavolaro,1
tavora,1
taxa,1
taylor,1
tebaldi,1
teistler,1
teixeira,353
teixeirao,1
telarico,1
teles,22
telho,1
telles,25
tellini,2
telva,1
temoteo,1
temponi,1
temporim,1
tenorio,5
tenorioi,1
tenreiro,1
teodoro,15
teodozio,1
teofilo,1
teotonio,1
tereza,3
terra,20
terranova,1
terry,2
terto,1
tertuliano,1
tesch,2
testa,1
testhay,1
teteo,1
teves,1
texeira,2
tezolin,1
thadeu,1
thaler,1
thebald,1
thedim,3
theis,1
theiss,1
themudo,1
theobald,1
theodoro,5
theophilo,2
thiago,6
thiengo,1
thimoteo,1
thobias,1
thomasi,1
thomaz,13
thomazio,1
thome,4
thompson,2
thomson,1
thuler,1
thureau,1
thurler,5
thurm,1
thus,1
tiago,2
tiao,1
tiberto,2
tibirica,1
tiburcio,3
ticom,1
tiene,1
tienglo,1
timoteo,3
timotheo,1
tinico,1
tinin,1
tinoco,17
tinog,1
tinto,1
tiradentes,3
tirapelli,1
tiscate,1
tissi,1
tito,6
tobias,4
tody,1
tofani,1
toffano,1
toigo,1
tojal,1
tojeiro,1
toledo,22
tolentino,1
tolino,1
tolosa,1
tomas,1
tomaz,10
tomazine,1
tome,4
tomes,1
tommaso,1
tonelli,1
tonheres,1
tonini,1
tonolli,1
topini,2
toppini,1
torcho,1
torelly,1
toretta,1
torno,1
torquato,4
torraca,1
torrao,1
torre,2
torres,96
torri,1
tortato,1
tortelli,1
torteloti,1
torterella,1
torturelli,1
toscano,1
tosta,4
toste,1
tostelote,1
tostes,7
touguinho,1
tourinho,3
toutoungi,1
tozato,1
tozzi,1
trabbold,1
trajano,7
trancoso,3
trancozo,1
transmontano,1
travassos,4
travesedo,1
trechau,1
tregioni,1
trentin,2
tressoldi,2
trevelin,1
trianon,1
tricani,1
tricarico,1
trigo,1
trigoli,1
trigueiro,2
trindade,45
trintin,1
tripodi,1
tristao,4
triumpho,1
trocoli,1
troise,1
trojman,1
trope,2
trotte,1
trovao,1
trovato,1
troyack,2
truta,1
tschiuvaliski,1
tsubone,1
tsuda,1
tudesco,1
tufani,1
tuppan,1
turaca,1
turino,1
turkienicz,1
turl,1
turmo,1
turque,1
turques,2
turra,1
turso,1
tussini,2
tutunji,1
tuxen,1
ubak,1
ubeira,1
ublado,1
uko,1
uliano,2
ulisses,1
ulloa,1
ulrich,2
ulrichsen,1
ulyssea,1
unger,1
urbani,1
ursula,1
utzeri,1
vago,1
vairo,1
val,7
valadao,4
valadares,11
valberto,1
valdes,1
valdieiro,1
valdivieso,1
vale,28
valenca,7
valencio,1
valente,16
valentim,15
valentin,2
valentino,4
valeriano,3
valerio,8
valeriote,2
valero,1
vales,2
valetim,1
valfre,1
valgas,1
valiengo,1
valim,5
valinha,1
valinho,1
valkmer,1
valladao,2
valladares,6
valle,31
valles,1
vallim,1
vallois,1
valneca,1
vanatko,1
vancato,1
vance,1
vancelotte,1
vanderlei,2
vandirek,1
vandystadt,1
vanelli,1
vangato,1
vani,1
vans,1
vantine,1
vanzin,1
varanda,2
varejao,1
varela,5
varella,5
vargas,35
varges,1
varjao,2
vasco,1
vasconcalos,1
vasconcellos,46
vasconcelos,60
vasques,6
vasquez,2
vassallo,1
vasti,1
vaura,1
vaz,29
vcastro,1
veiga,35
velasco,13
velasque,2
velasques,3
velez,1
velhena,1
velho,1
vellasco,1
velloso,6
vellozo,2
veloso,17
velozo,3
veltri,1
vemieiro,1
venacio,1
venancio,9
vencenzi,1
venceslao,1
venceslau,2
vendittelli,1
vendramini,2
veneroso,1
venezia,1
ventana,1
ventapane,2
ventura,42
venturi,1
venturine,1
veras,9
vercosa,2
vercy,1
verdam,2
verdan,1
verde,1
vereza,1
vergara,3
vergette,1
vergilio,1
verginio,1
vergueiro,2
vergulino,1
verissimo,5
verli,1
verly,7
verneck,1
verol,1
veronez,1
verri,2
versari,1
vertis,1
vertuli,1
vertulli,1
vespa,1
vetere,1
viana,148
vianel,1
vianna,60
viano,1
viard,1
vicario,1
vicente,62
vicitorino,1
victor,10
victorino,4
victorio,3
vidal,51
videira,2
viegas,12
vieira,393
vieiralves,1
vieria,1
vietri,1
viga,1
vigario,1
vigilato,1
viglongo,2
vignau,1
vigne,1
vigneran,1
vignoli,1
viguenon,1
viitaniemi,1
vilaca,1
vilanova,3
vilar,4
vilardell,1
vilardo,2
vilarinhos,1
vilasco,1
vilela,12
vilhegas,1
vilhena,3
villaca,4
villafuerte,1
villanueva,1
villar,10
villares,1
villela,8
vimercati,1
vinagre,3
vinciprova,1
vincze,1
vinha,1
vinhaes,1
vinhais,1
vinhas,3
vinuto,1
violante,1
virgilio,5
virginio,6
virgulino,1
virly,1
virtuoso,2
visita,1
vita,1
vital,5
vitalino,2
vitipo,1
vitoi,1
vitonski,1
vitor,16
vitoria,9
vitoriano,1
vitorino,12
vitorio,6
vivacqua,1
vivarelli,1
vivas,3
viveiros,2
viviane,1
viviano,1
vivone,1
vizani,1
vizzoni,1
vogas,1
vogel,1
vogt,2
voigt,1
volotao,1
vouga,1
vullei,1
vulpi,1
vustodio,1
waack,1
wacker,1
wagner,4
wahrlich,1
wajsfus,1
wakimoto,1
waksman,1
waldemiro,1
waldheim,1
waldhelm,1
walfort,1
walker,1
walter,1
wanderley,5
wandernurem,1
wandick,1
wanous,1
wanzeller,2
warkington,1
warol,1
watanabe,2
wayand,3
weber,1
wedekinol,1
weid,1
weil,1
weiler,1
weller,1
welte,1
wenceslau,1
wenderosch,1
wenderroschi,1
wenderroscky,1
wenderrosky,1
wendling,1
werdt,1
wermelinger,6
werneck,14
wexler,1
white,1
wiebbelling,1
wieczorek,1
wigano,1
wigg,1
wightman,1
wildberger,1
wilemem,1
willemen,2
willerding,1
willimsen,1
wilser,1
wilson,4
winter,2
witt,1
wittine,1
woelpl,1
wolti,1
wonheld,1
woodtli,1
woolley,1
worbcken,1
woroniecki,1
wrigg,1
wunsch,1
wvenches,1
wyler,1
wzvale,1
xandu,1
xariga,1
xavao,1
xavier,90
ximenes,8
xisto,1
yamada,1
yamaguchi,1
yamamoto,1
yamashita,1
yanez,1
yanoff,1
yen,1
ygnacio,1
yokoyama,1
yomezawa,1
yrixina,1
ytatty,1
yunes,1
zacarias,6
zacconi,1
zacharias,5
zachi,1
zadrozny,1
zaghetto,1
zahal,1
zaine,1
zainotte,1
zainotti,1
zaldini,1
zaliane,1
zamazi,1
zambelli,1
zambom,1
zamgoti,1
zampier,1
zanatta,2
zancaner,1
zancca,1
zander,1
zanelli,1
zaneth,1
zanezi,1
zanganelli,1
zangerolame,1
zanin,1
zanini,2
zanker,1
zanon,3
zanoni,2
zanoti,1
zanuto,1
zanzoni,1
zao,3
zappa,1
zappatera,1
zappone,1
zaquieu,1
zarandon,1
zaror,1
zarrete,1
zaurino,1
zava,1
zebedeu,1
zebende,1
zebulun,1
zeca,2
zeferino,2
zeitune,1
zeller,1
zellweger,1
zenobio,1
zeuli,1
ziegler,1
zignago,1
zilber,1
zimbrao,1
zinkand,1
zito,2
zobelem,1
zoega,1
zottolo,1
zouxiong,1
zozimo,1
zucarino,1
zucoloto,1
zuzarte,1
