narr;count
A;1
ABARCA;1
ABBOUD;1
ABDALA;2
ABDALLA;2
ABDU;1
ABEL;1
ABELHA;1
ABELLAS;1
ABENO;1
ABIBE;1
ABIESB;1
ABILIO;1
ABISSULO;1
ABITIBOL;1
ABIZAID;1
ABOAL;2
ABRAHAO;8
ABRAHIM;1
ABRANCHES;1
ABRANTES;10
ABRAO;1
ABREU;192
ABRIL;1
ABS;1
ABUD;1
ACACIO;1
ACCIARI;1
ACCIOLY;3
ACES;1
ACHA;1
ACHCAR;1
ACIOLY;1
ACIPRESTE;1
ACOM;1
ACOURI;1
ACUNA;1
ADAD;1
ADAMCZYK;1
ADAMI;1
ADAO;9
ADBA;1
ADELINO;1
ADEODATO;1
ADES;1
ADIBBE;1
ADISSI;1
ADOLFO;2
ADRIANO;3
AFFONSECA;1
AFFONSO;16
AFONCIO;1
AFONSO;20
AGAPITO;2
AGAREZ;1
AGHNATIOS;1
AGIA;1
AGNES;2
AGOSTINHO;9
AGRA;4
AGRICOLA;1
AGUALUZA;1
AGUAS;1
AGUEDA;1
AGUES;1
AGUIAR;122
AGUILA;1
AGUIRRE;1
AGUOCHA;1
AHMAD;1
AHRENOS;1
AIETA;1
AIOLFI;1
AIRES;5
AIUTO;1
AJARA;1
AKEL;1
AKERMAN;1
AKSDAL;1
AKUTSU;1
ALAMEIDA;1
ALAMO;1
ALAMPI;1
ALARCAO;3
ALARGON;1
ALBAN;1
ALBANO;2
ALBERGARIA;1
ALBERI;1
ALBERIGUES;1
ALBERNAZ;3
ALBERONI;1
ALBERTASSI;1
ALBERTIM;1
ALBERTINO;2
ALBERTO;8
ALBINO;6
ALBUQUERQUE;89
ALCAFORADO;1
ALCANTARA;44
ALCICI;1
ALCINO;1
ALCOFARDO;1
ALCOFORADO;3
ALCOFRA;1
ALDAO;1
ALDEIA;1
ALECRIM;3
ALEGRE;1
ALEIXO;5
ALELLUIA;1
ALELUIA;2
ALEMIDA;1
ALENCAR;22
ALENCASTRO;1
ALENOES;1
ALESSIO;1
ALEVATO;1
ALEXANDRE;30
ALEXANDRIA;1
ALEXANDRINO;5
ALFAMA;1
ALFAYA;1
ALFENO;1
ALFERINO;3
ALFRADIQUE;5
ALFREDO;4
ALHANATI;1
ALHO;1
ALLEDI;1
ALLEMANDE;1
ALMADA;4
ALMAGRO;1
ALMANSA;1
ALMEDIA;1
ALMEIDA;719
ALMIDA;1
ALMIMTANA;1
ALMIRON;1
ALMO;1
ALO;1
ALOE;1
ALOINDE;1
ALONSO;10
ALPANDE;1
ALPINO;1
ALPOIM;1
ALT;2
ALTINO;1
ALTIVO;1
ALTO;1
ALTOMAR;2
ALTUNIAN;1
ALUIZA;1
ALUIZIO;1
ALVADIA;1
ALVAO;1
ALVARAES;1
ALVARENGA;42
ALVARES;6
ALVAREZ;4
ALVARINO;1
ALVARISTO;1
ALVARO;1
ALVELA;1
ALVERNE;1
ALVES;595
ALVETTI;1
ALVIM;8
ALVINO;2
ALVITE;2
AMABILE;1
AMADO;6
AMADOR;2
AMANCIO;12
AMARAL;122
AMARAO;2
AMARELLE;1
AMARO;18
AMBIRES;1
AMBROSANO;1
AMBROSIO;6
AMBROZINO;1
AMBROZIO;2
AMEIXOEIRA;1
AMELIA;1
AMELIO;1
AMENDOLA;2
AMER;1
AMERICO;6
AMICHI;1
AMICI;1
AMICO;2
AMIM;1
AMIN;1
AMMON;1
AMOEDO;2
AMOPARIOLA;1
AMORA;1
AMORELLI;1
AMORIM;116
AMPARO;4
AMPUERO;1
AMROIM;1
ANA;17
ANACLETO;5
ANACRETO;1
ANADRADE;1
ANAES;1
ANANIAS;5
ANASTACIO;7
ANASTASIO;1
ANCELMO;1
ANCHIETA;8
ANDERSON;1
ANDO;1
ANDRADA;1
ANDRADE;387
ANDRADES;1
ANDRE;11
ANDREA;1
ANDREHALDEN;1
ANDREY;1
ANDRIETA;1
ANDRIEWISKI;1
ANDRIOLA;1
ANEY;1
ANGELO;18
ANGELTREIT;1
ANGIOLELLA;1
ANGOTE;2
ANICETO;2
ANISIA;1
ANIZIO;1
ANJO;1
ANJOS;51
ANKLAN;1
ANNA;42
ANNECCHINI;1
ANNUNCIACAO;1
ANNUNZIATTO;1
ANSELL;1
ANSELMO;11
ANTENOR;1
ANTERO;3
ANTONI;1
ANTONIETO;1
ANTONIO;38
ANTOS;1
ANTUNES;75
ANUNCIACAO;2
ANUNN;1
AONO;1
APARECIDA;1
APARECIDO;1
APELIAN;1
APERIBENCIO;1
APOLINARIO;11
APORCINO;1
APPARICIO;1
AQUINO;50
AQUIO;1
ARAGAO;11
ARAKAKI;1
ARANDA;1
ARANHA;6
ARANO;1
ARANTES;12
ARAO;1
ARAPIRACA;1
ARAUDO;1
ARAUJO;656
ARBEX;1
ARCANJO;6
ARCHANJELO;1
ARCHANJO;1
ARCIS;1
ARCURI;1
ARDUIM;1
AREA;1
AREAS;9
AREDES;1
AREIA;1
AREIAS;4
AREOSA;2
ARESTA;1
ARGENTA;1
ARGENTO;1
ARIAS;3
ARIEIRA;1
ARMADA;1
ARMAROLI;1
ARMINDO;1
ARMOND;1
ARMSTRONG;1
ARNET;1
ARNOLD;1
AROTILDES;1
AROUCA;6
ARPINO;1
ARRAIS;1
ARREA;1
ARRELLAGA;1
ARRENTA;1
ARREPIA;1
ARRIGONI;1
ARRUDA;45
ARSEL;1
ARTHUR;1
ARTILLES;1
ARTUR;1
ARUAJO;1
ARUEIRA;1
ARUJO;3
ASAIG;1
ASCOLY;1
ASEVEDO;2
ASILVA;1
ASNES;1
ASOUZA;1
ASSAD;3
ASSEMANY;1
ASSENHEIMER;1
ASSIS;122
ASSIZ;1
ASSUMPCAO;25
ASSUNCAO;20
ASSUNPCAO;1
ASSUPCAO;1
ASTHINE;1
ASTINE;1
ASTROGILDO;1
ASTY;1
ASVOLINSQUE;1
ATAIDE;10
ATAIDES;2
ATALLAH;1
ATANASIO;1
ATANAZIO;1
ATARO;1
ATAYDE;1
ATHALIBA;1
ATHANAZIO;2
ATHAYDES;1
ATIE;1
ATTAYDE;1
AUDI;1
AUGUSTINHO;2
AUGUSTINIZ;1
AUGUSTO;37
AURELIANO;1
AURELIO;1
AURNHEIMER;1
AUTRAN;2
AVARIGMON;1
AVELAR;11
AVELINO;12
AVELLANEDA;1
AVELLAR;5
AVENDANA;1
AVENDANO;1
AVERBUCH;2
AVIADE;1
AVILA;17
AVILLA;1
AVIZ;1
AVOLIO;1
AVVAD;1
AWANO;1
AYALA;1
AYOUBI;1
AYRES;10
AZAMBUJA;2
AZARIAS;1
AZARITI;1
AZARO;1
AZEDIAS;4
AZEDO;1
AZELMAN;1
AZER;1
AZEREDO;36
AZERELO;1
AZERRAD;1
AZEVEDO;308
AZEVEDOR;1
AZEVEO;1
AZINE;1
AZINI;1
AZULAY;2
AZUMA;1
AZVEDO;3
AZZINI;1
BAARBOSA;1
BABILON;1
BABISCK;1
BABO;1
BABSKY;1
BACALTCHUK;1
BACELAR;3
BACELLAR;1
BACH;1
BACHOUR;1
BACHS;1
BADAJOS;1
BADARO;2
BADEJO;1
BADIANI;1
BADOFSKY;1
BAESSO;1
BAETA;1
BAFFA;1
BAGARELLI;1
BAGO;1
BAHIA;6
BAHIANA;1
BAHIANO;1
BAIA;3
BAIAO;1
BAIENSE;2
BAIER;1
BAILLY;1
BAIOCO;1
BAIRRAL;2
BAJSIC;1
BALABAN;1
BALADAN;1
BALANZA;1
BALBINO;17
BALDANZA;1
BALDER;1
BALDI;4
BALDISSARA;1
BALDNER;1
BALEIXO;1
BALIANO;1
BALINT;1
BALISA;1
BALLONECKER;1
BALONECKER;1
BALSA;1
BALSAMO;1
BALTAR;3
BALTAZAR;5
BALTHAR;2
BALTHAZAR;1
BAND;2
BANDARRA;1
BANDEIRA;15
BANGE;1
BANITO;2
BAPTISTA;85
BAR;1
BARACHO;2
BARAFA;1
BARAN;1
BARATA;3
BARATTA;1
BARAUNA;3
BARBALHO;2
BARBARA;3
BARBATO;1
BARBEDO;1
BARBEIRO;1
BARBEITAS;1
BARBETTO;1
BARBIERI;2
BARBIO;1
BARBIRATO;1
BARBO;1
BARBOSA;506
BARBOZA;51
BARCA;2
BARCALA;1
BARCANTE;1
BARCAUI;1
BARCELAR;1
BARCELLOS;26
BARCELOS;53
BARCZINSKI;1
BARDANCA;1
BARDON;1
BARDONI;1
BAREL;1
BARETO;1
BARGA;1
BARI;1
BARILARI;1
BARNABE;1
BAROND;1
BARONE;2
BARONI;1
BARONIO;1
BARRA;4
BARRACH;1
BARRADAS;2
BARRAL;2
BARREIRA;7
BARREIRO;4
BARREIROS;12
BARRESE;1
BARRETO;164
BARRETTO;1
BARRIAS;1
BARRIELLO;1
BARRIL;1
BARRINHA;1
BARRIOS;1
BARROS;257
BARROSO;35
BARROZO;5
BARTH;1
BARTHOLO;1
BARTHOLOMEU;1
BARTOLI;1
BARTOLO;1
BARTRAS;1
BARTZ;1
BASILE;1
BASILIO;23
BASSA;1
BASSANI;1
BASTOS;117
BATALHA;5
BATISTA;181
BAUER;1
BAUERFELDT;1
BAUMGARTEN;1
BAUMRELD;1
BAYAO;1
BAYER;1
BAYLAO;1
BAYMA;1
BAZA;1
BAZARELLO;1
BAZET;1
BAZETH;1
BAZILIO;4
BAZOLI;1
BAZONI;1
BEBIANO;1
BECHARA;2
BECHILLE;1
BECK;2
BECKER;3
BECKERIG;1
BEDRAN;1
BEFF;2
BEIGELMAN;1
BEIOSCA;1
BEIRAGRANDE;1
BEIRAL;1
BEJA;2
BELA;1
BELAN;1
BELARMINO;6
BELCHIOR;2
BELEGOTE;1
BELEM;5
BELES;1
BELEZA;1
BELFORT;2
BELHAM;1
BELIENE;1
BELING;1
BELINHA;1
BELINHO;1
BELISARIO;3
BELIZARIO;2
BELL;1
BELLEZA;1
BELLIENE;1
BELLINGER;1
BELLISSIMO;1
BELLO;11
BELMINO;1
BELMIRO;1
BELMONTE;1
BELO;14
BELOTE;1
BELOTTI;1
BELSITO;1
BELTRAMI;1
BELTRAO;7
BEM;2
BENA;1
BENAC;1
BENAION;2
BENAQUI;1
BENARDINO;1
BENARROS;1
BENATTI;1
BENCIVENGA;1
BENDAVID;1
BENEDETTO;1
BENEDICTO;3
BENEDITO;15
BENEK;1
BENETE;1
BENEVIDES;7
BENFEITAS;1
BENICIO;2
BENINE;1
BENITA;1
BENITAH;1
BENITES;1
BENJAMIM;1
BENJO;1
BENNABI;1
BENOSSI;1
BENSABAT;1
BENSIMON;1
BENTEILLEN;1
BENTES;2
BENTO;49
BENUCIO;1
BENVENUTI;1
BENVINDO;3
BENZAMAT;1
BERALDE;1
BERALDI;1
BERALDINI;2
BERALDO;3
BERARDI;1
BERBAT;3
BERBERT;1
BERCOT;4
BERENBAUM;1
BERENGUER;1
BERETA;1
BERGAMI;1
BERGE;1
BERGEL;1
BERGIANTE;1
BERGUERAO;1
BERLAUDO;1
BERLIM;1
BERLING;1
BERLINSKI;1
BERMONTE;1
BERMUDES;1
BERNADINO;1
BERNARDES;16
BERNARDI;2
BERNARDINO;7
BERNARDO;46
BERQUO;1
BERRIEL;3
BERROS;1
BERRUEZO;1
BERTAO;2
BERTELLOTTI;1
BERTHOLD;1
BERTHOLINI;1
BERTHOLO;1
BERTIN;1
BERTO;3
BERTOLDE;1
BERTOLDO;1
BERTOLETTI;1
BERTOLO;1
BESERRA;5
BESILIO;1
BESSA;12
BESSIER;1
BETHIATO;1
BETTA;1
BETTIOL;1
BEVILACQUA;1
BEVILAQUA;1
BEZENA;1
BEZENIL;1
BEZERRA;97
BEZERRIL;1
BEZERRO;1
BEZRRA;2
BIAES;1
BIAGIOTTI;1
BIAIA;1
BIANCARDI;1
BIANCHI;2
BIANCHINI;1
BIANCO;5
BIANQUIM;1
BIBIANO;1
BICALHO;5
BICEGO;1
BICHARA;4
BICHARRA;1
BICODO;1
BICUDO;1
BIEBOW;1
BIGATE;1
BIGESCHI;1
BIGHI;1
BIGLER;1
BIGNON;1
BIGONHA;1
BILAC;1
BILBAO;1
BILHENE;1
BILIZARIO;1
BILO;1
BILOIA;1
BIMBATO;1
BINDA;2
BINDER;1
BINI;2
BINO;1
BIONDI;1
BIOSOLI;1
BIS;1
BISCACIO;1
BISKUP;1
BISPADO;1
BISPO;21
BISQUOLO;1
BITANCOURT;1
BITENCORTE;1
BITENCOURT;6
BITSCHNAN;1
BITTAR;1
BITTENCOURT;27
BIZARRO;1
BIZERRA;2
BIZERRIL;1
BIZZO;2
BLADINO;1
BLAIOTTA;1
BLANC;3
BLANCO;3
BLANDT;1
BLASQUES;1
BLATT;1
BLAUDT;1
BLOISE;2
BLOOMFIELD;1
BLUM;2
BOAES;1
BOANERGES;1
BOARETTO;1
BOAS;8
BOAVENTURA;2
BOAVISTA;1
BOCAFOLI;1
BOCAMPAGNI;1
BOCCHINO;1
BOCKHORNY;1
BODAS;1
BOECHAT;8
BOENO;1
BOETA;1
BOGEA;1
BOGGI;1
BOHADANA;1
BOHERER;1
BOHHER;1
BOHN;1
BOI;1
BOICA;1
BOITEUX;1
BOKOL;1
BOLATO;1
BOLDRIM;1
BOLDRINI;1
BOLLOS;1
BOLONHO;1
BOLONINI;1
BOLOTA;1
BOM;5
BOMBONATI;1
BOMBONI;1
BOMFIM;19
BONACHINA;1
BONAN;2
BONATTI;1
BONDARENKO;1
BONDI;1
BONDIM;1
BONELLI;2
BONER;1
BONFIELD;1
BONFIM;24
BONGUARDO;1
BONICONTRE;1
BONIFACIO;11
BONINI;2
BONIOLO;1
BONOMO;1
BONORINO;1
BOQUIMPANI;1
BORBA;9
BORBOREMA;1
BORCHELHO;1
BORDA;1
BORDALHO;1
BORDALLO;1
BORDE;1
BORDIN;1
BOREDEL;1
BOREL;4
BORENSZTEIN;1
BORETO;1
BORGE;1
BORGES;130
BORHER;1
BORNEO;1
BORRALHO;1
BORRE;1
BORRHER;1
BORSARI;1
BORSATTO;2
BOSCH;1
BOSISIO;1
BOSSART;1
BOTAFOGO;1
BOTELHO;36
BOTTENTUIT;1
BOTTIGER;1
BOTTINO;3
BOUBE;1
BOUCAS;3
BOUDARD;1
BOUGADO;1
BOULLON;1
BOURSEAU;1
BOUSQUET;1
BOVE;2
BOWICZ;1
BOY;3
BOYD;1
BOYNARD;1
BRAGA;134
BRAGANCA;19
BRAGANOA;2
BRAGATO;1
BRAHA;1
BRAIER;1
BRAKARZ;1
BRAMBILA;1
BRAMILI;1
BRANCO;20
BRAND;1
BRANDAO;60
BRANDL;1
BRANDO;1
BRANGADA;1
BRANT;1
BRANTES;1
BRANTS;1
BRAS;2
BRASA;1
BRASAO;1
BRASIL;17
BRASILEIRO;2
BRASILIENSE;2
BRAULIO;2
BRAUNS;1
BRAUNSTEIN;1
BRAVA;1
BRAVO;6
BRAYNER;2
BRAZ;42
BRAZIL;1
BRAZOLA;1
BRAZUNA;1
BREDER;4
BREGLIA;1
BREIA;2
BREIDA;1
BRELIM;1
BRENO;1
BRESADIN;1
BRESCIANI;1
BREVES;4
BREYER;2
BRIA;1
BRIDGES;1
BRIGIDO;1
BRIGINGA;1
BRILHANTE;1
BRINATTI;1
BRIONES;1
BRISSON;1
BRITES;6
BRITO;165
BRITS;1
BRITTO;30
BRIVID;1
BROCHADO;3
BROGES;1
BROLLO;1
BROWN;1
BROWNS;1
BRUCOLI;1
BRUGGER;1
BRUM;20
BRUNE;1
BRUNET;2
BRUNI;2
BRUNO;11
BRUNOCILLA;1
BRUNORIO;1
BRUSCHI;1
BRUSDZENSKI;1
BRUST;3
BRUSTE;1
BUARQUE;4
BUCCOS;1
BUCHMULLER;1
BUENO;9
BUFFOM;1
BUGALLO;1
BUKSCHTEIN;1
BULHOES;6
BULLE;1
BUNEL;1
BUNGNER;1
BUNN;1
BURATI;1
BURGER;1
BURGUES;1
BURICHE;1
BURICHOVICH;1
BURLEIN;1
BURLINI;1
BURSZTYN;1
BUSCHMANN;1
BUSSION;1
BUSTAMANTI;1
BUTTURINI;1
CAAMANO;1
CABANEZ;1
CABARAL;1
CABECA;1
CABECINHO;1
CABIRA;1
CABO;2
CABOI;1
CABRAL;92
CABRERO;1
CACAILLE;1
CACAIS;1
CACCAVO;1
CACHICO;1
CACHOEIRA;1
CACIATORE;1
CACILIA;1
CACIRO;1
CACULILO;1
CADEI;1
CADETE;1
CADIMO;1
CADINELLI;1
CAEIRO;1
CAETANO;53
CAFE;1
CAFEEIRO;1
CAHET;1
CAHUE;1
CAIADO;1
CAIAFA;1
CAIAFFA;1
CAIANO;1
CAIATA;1
CAICHIERCHIO;1
CAILLEAUX;1
CAIO;1
CAIRES;1
CAIRO;5
CAIRRAO;2
CAITO;1
CAIXETA;1
CAJAO;2
CAJU;1
CAJUEIRO;2
CALABRI;1
CALADO;1
CALAMARI;1
CALASTRIAL;1
CALAZANS;4
CALCANHO;1
CALDARA;1
CALDAS;29
CALDEIRA;12
CALDELLAS;1
CALDERARI;1
CALDES;1
CALED;2
CALEGARIO;1
CALHAO;1
CALHEIRO;2
CALHEIROS;6
CALIFORNIA;1
CALIL;2
CALINA;1
CALISTO;1
CALIXTO;12
CALLADO;3
CALLEGARIO;2
CALLIPO;1
CALMETA;1
CALMON;2
CALOBRISI;1
CALOTA;1
CALS;1
CALUNGA;1
CALUY;1
CALVANO;2
CALVELLI;1
CALVET;4
CALZOLARI;2
CAMACHO;3
CAMARA;23
CAMARAO;2
CAMARE;1
CAMARGO;19
CAMARGOS;1
CAMARINHA;1
CAMELLA;1
CAMELO;5
CAMILA;1
CAMILI;1
CAMILLO;3
CAMILO;16
CAMINHA;3
CAMISAO;1
CAMMANDELLA;1
CAMOES;2
CAMOZZATO;1
CAMPANARIO;1
CAMPANATI;1
CAMPANILLE;1
CAMPBELL;1
CAMPEAO;1
CAMPELLO;4
CAMPELO;7
CAMPINHO;1
CAMPISTA;5
CAMPITELLI;1
CAMPO;2
CAMPOLIM;1
CAMPOLINO;1
CAMPOS;209
CANAAM;1
CANAL;1
CANALLI;1
CANANEA;1
CANARIO;2
CANAVERDE;1
CANAVEZ;1
CANAY;1
CANCELA;1
CANDADIO;1
CANDECO;1
CANDEIA;1
CANDEIAS;1
CANDIDA;1
CANDIDO;49
CANDURO;1
CANECA;1
CANEDO;8
CANELLA;1
CANELLAS;4
CANEMA;1
CANETTI;1
CANGUSSU;1
CANHA;1
CANISCOLA;1
CANNALONGA;1
CANNIZZA;1
CANO;1
CANOZA;1
CANTALICE;1
CANTALUPPI;1
CANTANHEDE;1
CANTARELI;1
CANTARES;1
CANTARIN;1
CANTARINO;1
CANTISANO;1
CANTO;10
CANTORINO;1
CANUTO;4
CANUTT;1
CAONSENZA;1
CAPACI;1
CAPANEMA;1
CAPANO;1
CAPANOWICZ;1
CAPARELLI;1
CAPELA;3
CAPELLA;3
CAPELO;1
CAPETINI;1
CAPETT;1
CAPIBARIBE;1
CAPISTANO;1
CAPITANIO;1
CAPIZZANO;1
CAPOBIANCO;1
CAPOZZI;1
CAPUANO;1
CAPUTI;1
CAPUTO;3
CARAGE;1
CARAM;2
CARAMATE;1
CARAMURU;2
CARAPITO;2
CARAUTA;1
CARAVELAS;1
CARBALLO;1
CARBONEL;1
CARDEAL;1
CARDIANO;1
CARDIAS;1
CARDIM;2
CARDINALI;1
CARDINOT;1
CARDONA;1
CARDOSO;257
CARDOSOS;1
CARDOZO;30
CAREAGA;1
CARELLI;1
CARGNIN;1
CARIACA;1
CARIAS;2
CARIBE;1
CARIDADE;3
CARIDE;1
CARIELLO;1
CARIJO;1
CARIN;1
CARINHANHA;1
CARINO;2
CARIS;1
CARIUS;5
CARLETTO;1
CARLI;1
CARLIN;1
CARLONI;1
CARLOS;32
CARLSON;1
CARLUCIO;1
CARMELO;1
CARMO;84
CARNAVAL;3
CARNBEIRO;1
CARNE;2
CARNEIRO;110
CARNEVALE;4
CAROLINO;6
CAROLLO;1
CARONI;1
CAROTTA;1
CARPENTIERI;1
CARPINTEIRO;1
CARPINTERO;1
CARQUEJO;1
CARRANCHO;1
CARRAPATOSORIBEIRO;1
CARRARA;1
CARRASCO;1
CARRASQUEIRA;1
CARRAZEDO;1
CARRE;1
CARREGA;1
CARREIRA;6
CARREIRO;10
CARRERA;1
CARRERO;2
CARRICO;1
CARRIELLO;1
CARRILHO;2
CARROSSINO;1
CARROZZINO;1
CARTA;1
CARUNCHO;1
CARUSO;2
CARVALHAES;8
CARVALHAL;4
CARVALHEIRA;1
CARVALHO;738
CARVALHOSA;1
CARVALINDO;1
CARVAS;1
CASABLANCAS;1
CASADO;1
CASADONTE;1
CASAES;2
CASAL;1
CASANOVA;4
CASCARDO;1
CASCIANO;1
CASCIMIRO;1
CASE;1
CASEIRA;3
CASEMIRO;6
CASHER;1
CASIMIRO;3
CASOTTO;1
CASQUILHO;1
CASSA;1
CASSADOR;1
CASSAGO;1
CASSANE;1
CASSANO;1
CASSARO;2
CASSAVARA;1
CASSEMIRO;2
CASSI;1
CASSIA;1
CASSIANO;9
CASSIBI;1
CASSIMIRO;5
CASSIN;1
CASSIO;1
CASTANHEDE;1
CASTANHEIRA;3
CASTANHEL;1
CASTANHO;4
CASTELANO;1
CASTELHANO;1
CASTELLON;1
CASTELO;2
CASTILHO;22
CASTILHOS;1
CASTINHEIRAS;1
CASTRIA;1
CASTRO;250
CATALDO;4
CATANDUBA;1
CATAO;1
CATAPRETA;1
CATARINA;3
CATARINO;2
CATAZEIROZ;1
CATHARINO;1
CATOSO;1
CATRIB;1
CATTONI;1
CATUNDO;1
CAULA;1
CAUMO;1
CAUTERRUCIO;1
CAVALAMPI;1
CAVALARO;1
CAVALCANTE;59
CAVALCANTI;36
CAVALEIRO;1
CAVALHAES;1
CAVALHEIRO;3
CAVALIERE;1
CAVALIERI;1
CAVALINI;1
CAVALLANTE;1
CAVALTORI;1
CAVICHINI;1
CAXIAS;2
CAXILE;1
CAZASSUS;1
CAZE;1
CAZEMIRO;1
CDNEL;1
CEA;2
CEAQUEIRA;1
CEARA;1
CECI;1
CECILIA;1
CECILIO;4
CEDA;1
CEDESSARI;1
CEDO;1
CEDRO;1
CEGALLA;1
CEH;1
CEIA;2
CELANO;1
CELESTE;2
CELESTINO;13
CELLI;1
CENA;2
CENTELLES;1
CEPPAS;1
CERBINO;1
CERDEIRA;3
CEREJA;2
CERIACO;1
CERIGOROVSKI;1
CERQUEIRA;35
CERQUISE;1
CERRI;1
CESAR;20
CESARIO;9
CESPE;1
CESPOM;1
CESTELLO;1
CETANO;1
CEVILLE;1
CEZAR;11
CEZARINO;1
CEZARIO;11
CHADA;1
CHAGA;1
CHAGAS;86
CHALLITA;1
CHALUPP;1
CHAMARELLI;2
CHAMBARELLI;1
CHAME;1
CHAMMAS;1
CHAMON;1
CHAMOVITZ;1
CHAMP;1
CHAMPION;1
CHANCA;1
CHANFAYS;1
CHAO;2
CHAPELEM;1
CHAPELIN;1
CHAPPATTE;1
CHARLES;2
CHARRET;3
CHATAH;1
CHAUTER;1
CHAVANTE;1
CHAVANTES;1
CHAVES;114
CHAVIER;2
CHELI;1
CHEREM;1
CHERENE;2
CHERMONT;1
CHEROLLE;1
CHEVRAND;1
CHIANCA;1
CHIANELLO;2
CHIANI;1
CHIAPPETTA;1
CHIARA;1
CHIARELLI;3
CHIARIELLO;1
CHIBANTE;1
CHICANEL;1
CHICARINI;1
CHICARINO;1
CHIESSE;1
CHIEZA;1
CHILELLE;1
CHILETTO;1
CHILINQUE;1
CHILUGLLI;1
CHINELLATO;1
CHINI;1
CHLAN;1
CHOERI;1
CHOUSINHO;1
CHRISMAN;1
CHRISPE;1
CHRISPIN;1
CHRIST;1
CHRISTANI;1
CHRISTI;1
CHRISTIANO;1
CHRISTINO;1
CHRISTMANN;1
CHRISTO;1
CHRISTOVAO;1
CHUCRE;1
CHUFF;1
CHUNG;1
CHYCHU;1
CIALDINI;1
CIAMBARELLA;2
CIAMPA;1
CICCO;1
CICERO;1
CID;3
CIDACO;1
CIDADE;3
CIDAO;1
CIDRA;1
CIDRI;1
CIGANDA;1
CIMA;1
CIMENIELLI;1
CIMONATO;1
CINCA;1
CINCINATUS;1
CINELLI;2
CINQUINIS;1
CINTRA;2
CINZA;1
CIPOLLA;1
CIPRESTE;1
CIPRIANA;1
CIPRIANO;2
CIPULLI;1
CIQUIRO;1
CIRIA;1
CIRIBERRI;1
CIRILO;5
CIRINO;6
CIRNE;2
CIRSOSO;1
CIRTO;1
CISNANE;1
CITRINITI;1
CITTADINO;1
CIUFFO;2
CLARA;1
CLARET;1
CLARIL;1
CLARINDO;1
CLARISSE;1
CLARO;4
CLAUDINO;9
CLAUDIO;10
CLAVICO;1
CLELIO;1
CLEMENTE;15
CLEMENTINO;5
CLERIER;1
CLERY;1
CLETO;5
CLIMACO;1
CLITO;1
CLOSS;1
CMIEL;1
CO;1
COBALEA;1
COBOSKI;1
COBRA;2
COCCHI;1
COCCO;1
COCHITO;1
COCKELL;1
CODA;1
CODECO;1
COELHO;178
COFFONE;1
COHEN;3
COHN;2
COIMBRA;19
COITHINO;1
COITO;1
COKOTOS;1
COLA;1
COLABIANQUE;1
COLARES;3
COLHACO;2
COLICIGNO;1
COLIN;1
COLINO;1
COLLARES;1
COLLELO;1
COLLI;1
COLOMBO;2
COLOPY;1
COLOSSO;1
COLPAS;1
COMBA;1
COMEIA;1
COMPER;1
COMPIONI;1
CONA;1
CONCAS;1
CONCECIAO;1
CONCEICAO;452
CONCEIOUO;2
CONCICAO;1
CONDACK;1
CONDE;5
CONDINHO;1
CONDOR;1
CONFORTO;1
CONRADO;7
CONRRADO;1
CONSENTINO;1
CONSIDERA;1
CONSOLE;1
CONSTANCIO;7
CONSTANTE;1
CONSTANTINO;8
CONSUEL;1
CONTANCIO;1
CONTE;2
CONTIJO;1
CONTREIRA;1
CONTREIRAS;2
CONTTI;1
COOPER;1
COPALO;1
COPELLI;2
COPELLO;1
COPIO;1
COQMAN;1
CORADO;1
CORBACHO;1
CORBO;1
CORDAO;1
CORDEIRO;89
CORDELLA;1
CORDENONSI;1
CORDOEIRA;1
CORDOVIL;3
COREEA;1
CORGUINHA;1
CORIOZANO;1
CORITIBA;1
CORNEIRO;1
CORNELIO;2
CORO;1
COROA;1
CORONEL;1
CORREA;265
CORREGA;1
CORREIA;75
CORTASIO;1
CORTAT;2
CORTAZ;1
CORTES;20
CORTESE;1
CORTEZ;3
CORTINHO;1
CORUJO;1
CORVINO;1
COSENTINO;1
COSENZA;1
COSME;4
COSMO;2
COSSETTI;1
COSSICH;1
COSSO;1
COSTA;1193
COSTAS;1
COSTEIRA;1
COTA;2
COTENDEY;1
COTIA;1
COTRIM;5
COTTA;4
COURA;2
COURY;1
COUTINHO;117
COUTO;95
COVINHA;2
COZENDEY;1
COZUMBA;1
CRAVEIRO;4
CRAVINHO;1
CRAVINO;1
CRAVO;1
CRAWSHAW;1
CRECENCIO;1
CRELIER;1
CREMONEZ;1
CREMONEZE;1
CREPALDI;2
CRESCENCIO;1
CRESPO;19
CRESTANE;1
CRETTON;3
CREVELARO;1
CREVELIN;1
CRHISPIM;1
CRICHIGNO;1
CRISOSTOMO;3
CRISOSTOMOS;1
CRISP;1
CRISPE;1
CRISPIM;6
CRISPINIANO;2
CRISTALLINI;1
CRISTI;1
CRISTIANO;2
CRISTO;1
CRISTOFORI;1
CRISTOVAM;2
CRISTOVAN;1
CRISTPINO;1
CRIVANO;1
CRODE;1
CROPPER;1
CRUS;1
CRUZ;347
CRUZEIRO;2
CRZUZ;1
CSANTOS;1
CSHWACKE;1
CSOTA;1
CUDISCHEVITCH;1
CUERCI;2
CUHA;1
CUMPLIDO;1
CUNHA;290
CUPELLO;3
CUPERTINO;2
CUPT;1
CURCIO;1
CURI;3
CURIONE;1
CURITIBA;1
CURTI;2
CURTO;1
CURTY;6
CURVELLO;1
CURVELO;1
CURY;3
CUSTODIO;23
CUTALO;1
CUTEA;1
CUTIS;1
CYANEIROS;1
CYMERMAN;1
CYPRIANO;2
CYRIACO;1
CYRILLO;1
CYRILO;1
CYRNE;1
CYTRYNBAUM;1
DABKIRMICZ;1
DACOSTA;1
DAHAN;1
DAHER;2
DAISTER;1
DALGEA;1
DALGOLBO;1
DALIO;1
DALLARI;1
DALLEPRANE;1
DALLIO;1
DALMA;1
DALMEIDA;1
DALTAS;1
DALTOE;1
DALTRO;2
DAMACENA;2
DAMACENO;3
DAMAS;3
DAMASCENA;4
DAMASCENO;43
DAMASIO;4
DAMASO;3
DAMATO;2
DAMAZIO;4
DAMES;1
DAMIANE;1
DAMIANI;1
DAMIAO;9
DANEMBERG;1
DANGELO;1
DANIEL;14
DANIELLI;2
DANIELS;1
DANSHIN;1
DANTAS;75
DANTE;1
DARAUJO;2
DARCK;1
DARDES;1
DAREAL;1
DARGAM;1
DARILIO;1
DARIO;1
DARMONT;1
DAROZ;1
DARRIAUX;1
DARRIEUX;1
DARSIE;1
DARWIN;1
DAS;1
DASILVA;3
DASSIE;1
DASSUMPCAO;1
DASSUNCAO;1
DAU;1
DAUDT;3
DAUMAS;3
DAVI;2
DAVID;14
DAVIDOVICH;1
DAVIES;1
DAVILA;1
DAVOLI;1
DAWIDOVICH;1
DAYE;1
DAYRELL;1
DAZEREDO;1
DEALMEIDA;1
DEASSIS;1
DEBIASE;1
DEBORTOLE;1
DEBOSSAM;1
DECCACHE;1
DEFANTE;1
DEHLER;1
DEISTER;2
DELAIA;1
DELAMARE;1
DELDUQUE;1
DELFINO;8
DELGADO;15
DELMIRO;1
DELPHIM;2
DELPHINO;1
DELUIZ;1
DELVITO;1
DEMELVOU;1
DEMERCIANO;1
DEMERVAL;1
DEMETRIO;2
DEMETRO;1
DEMOLINARI;1
DEMOURA;1
DEODORO;1
DEOLINDO;1
DEOLIVEIRA;1
DEONISIO;1
DERBLI;1
DERERICHS;1
DERIO;1
DERME;1
DESIDERIO;2
DESIDORIO;1
DESSAUNE;1
DESTER;1
DESTERRO;1
DETHLOFF;1
DETOGNE;1
DETORI;1
DETTOGNI;1
DEUS;22
DEUSVINDO;1
DEVEZA;1
DEVILLART;1
DEVINO;2
DEXTRO;1
DEZIDERIO;2
DEZZE;1
DIAMANTE;1
DIAMANTINO;1
DIANA;1
DIAS;368
DIB;2
DIEGO;1
DIEGUES;2
DIETRICH;1
DIGIOTNO;1
DIMAS;2
DIMURO;1
DIMUS;1
DINIS;1
DINIZ;56
DINUCCI;2
DIOGENES;1
DIOGO;8
DIOLA;1
DIOMISIO;1
DIONISIO;8
DIONIZIO;3
DIRQUES;1
DISCO;1
DITADI;1
DIVEIRA;1
DIVINO;3
DIZ;1
DJAK;1
DMACEDO;1
DOARTH;1
DOCK;1
DOCTCORS;1
DODIBEI;1
DOLEJSI;1
DOLLMGER;1
DOMECIANO;1
DOMICIANO;3
DOMIERI;1
DOMINGO;1
DOMINGOS;47
DOMINGUES;35
DOMINGUEZ;3
DONADO;1
DONATI;1
DONATO;8
DONOLA;1
DORES;8
DORIA;3
DORMINDO;1
DORNAS;1
DORNELLES;1
DOROTEA;1
DOS;1
DOSSANTOS;1
DOSTAL;1
DOURADO;5
DOUTO;1
DOUZA;2
DOVAL;1
DOVALES;1
DRAGO;1
DREHER;1
DRUBSCKY;1
DRUMOND;4
DUARTE;127
DUARTI;1
DUBOVSKI;1
DUCLOS;1
DUCZMAL;1
DUDA;1
DUEK;1
DUFFRAYER;1
DUFRAYER;1
DUIM;1
DUMAS;2
DUMONTE;1
DUNCAN;1
DUNKER;1
DUPONT;1
DUPRAT;1
DUQUE;10
DURADE;1
DURADO;2
DURAES;3
DURAND;1
DURANTE;1
DURAO;3
DURO;2
DURQUES;1
DURVAL;2
DUTRA;64
DUVAL;1
DWYER;1
DZIEKANIAK;1
ECARD;1
ECCARD;2
ECHKARDT;1
ECKHARDT;1
EDIMUNDO;1
EDUARDO;9
EFIGENIO;2
EGGER;1
EGIDIO;2
EGREJA;1
EGYPTO;1
EGYTO;1
EHRHARDT;1
EICHLES;1
EINERT;1
EINSFELD;1
EIRAS;5
EISE;1
EITNER;1
EJNYSMAN;1
EKSTERMAN;1
ELECTO;1
ELEOTERIO;1
ELEUTERIO;2
ELIAS;26
ELIAW;1
ELIOTERIO;1
ELISARIO;1
ELISIARIO;1
ELISO;1
ELIZEU;1
ELIZIANO;1
ELIZIARIO;1
ELLER;5
ELMOR;1
ELOI;1
ELOY;2
ELVAS;1
ELVIDIO;1
ELY;1
EMERENCIO;1
EMERICH;1
EMERICK;1
EMIDIO;1
EMILIANO;4
EMILIO;2
EMMANUEL;1
EMMEL;1
EMMERICH;2
EMMERICK;1
EMMOLT;1
EMRICH;1
ENCARNACAO;6
ENEAS;1
ENES;1
ENGEL;1
ENNES;2
ENPOITO;1
EPIFANIO;1
EPSTEIN;1
ERCE;1
ERCOLE;1
ERMIDA;4
ERNANDI;1
ERNEST;1
ERNESTO;3
ERTHAL;3
ERTIMA;1
ESCALEIRA;1
ESCAMILHA;1
ESCARLATE;1
ESCOBAR;2
ESCOCARD;1
ESCOLA;1
ESCOLAPIO;1
ESCOLARTE;1
ESCOLASTICA;1
ESCOSTEGUY;1
ESCOVEDO;1
ESMAEL;1
ESOUZA;1
ESPAGOLLA;1
ESPER;1
ESPERANCA;2
ESPERIDIAO;1
ESPILAR;1
ESPINAR;1
ESPINDOLA;13
ESPINHEIRA;1
ESPINHOZA;1
ESPINOLA;3
ESPIRITO;1
ESPOGEIRO;1
ESPOSITO;3
ESPOSTE;2
ESPUANTE;1
ESQUIOGA;1
ESTACIO;1
ESTANISLAU;2
ESTARNECK;1
ESTAVAO;1
ESTEBANEZ;1
ESTEFAN;1
ESTEFANELI;1
ESTEFANIO;1
ESTELINO;1
ESTEPHANELI;1
ESTEVAM;3
ESTEVAN;1
ESTEVAO;5
ESTEVES;45
ESTEVINO;1
ESTEVO;1
ESTIGARRIBIA;1
ESTORQUE;2
ESTRELA;4
ESTRELLA;4
ESTULANO;1
ETCHART;1
EUCLIDES;3
EUCLYDES;1
EUFRASIO;1
EUFRAZIA;1
EUFROSIO;1
EUGENIO;10
EULALIA;1
EUTACHI;1
EUZEBIO;5
EVANCE;1
EVANGELISTA;28
EVARISTO;8
EVELING;1
EVORA;1
EVRES;1
EWING;1
EXPEDITO;1
EYER;2
EYMARD;1
EYNG;1
EZEQUIEL;6
FABBRO;1
FABELLO;1
FABIANO;2
FABIAO;1
FABIO;1
FABRI;1
FABRICIO;6
FABRY;1
FACCION;1
FACIL;1
FACRE;1
FACUNDO;3
FADEL;3
FADLALAH;1
FAGUNDES;18
FAIAL;1
FAIAO;1
FAINI;1
FAJARDO;1
FALCAO;19
FALCO;1
FALCONE;1
FALHEIRO;1
FALLEIRO;2
FALSFEIN;1
FALTZ;1
FAMAS;1
FANDINO;1
FANELLI;2
FANI;2
FANTANA;1
FANTINEL;1
FARAH;2
FARBER;1
FARDO;1
FARELLI;1
FARELO;1
FARES;2
FARIA;171
FARIAS;133
FARNETA;1
FARO;3
FAROE;1
FARROCO;1
FARSURA;1
FARTURA;1
FARVES;1
FASOLO;1
FASSELLI;1
FAULHABER;2
FAUSTINO;16
FAUTINO;1
FAVAGROSSA;1
FAVORETO;2
FAZENDA;1
FAZZIONI;1
FECHER;2
FEDERICI;1
FEDOZZI;2
FEGUEIRA;1
FEIJAO;1
FEIJO;8
FEIJOLI;1
FEIJOO;1
FEIO;2
FEITOSA;19
FEITOSO;1
FEITOZA;6
FELICE;2
FELICIANO;10
FELICIO;7
FELICISSIMO;2
FELIPE;23
FELIPPE;9
FELISARDO;2
FELISBERTO;4
FELISBINO;1
FELISMINA;1
FELISMINO;1
FELIX;52
FELIZARDO;6
FENO;2
FENONATO;1
FENSTERMAKER;1
FENTA;1
FEREIRA;2
FERENCZI;1
FERES;1
FERNADES;2
FERNANDA;1
FERNANDES;366
FERNANDEZ;10
FERNANDO;1
FERNNADES;1
FERRAIUOLO;1
FERRAO;4
FERRAREZ;2
FERRARI;4
FERRARO;3
FERRAZ;21
FERRAZANI;1
FERRE;1
FERREIA;1
FERREIRA;999
FERREIRINHA;1
FERRER;3
FERRERA;1
FERRERIA;1
FERRI;1
FERRO;6
FERSSURA;1
FESSEL;1
FESTAS;1
FEU;3
FEUDO;1
FEURO;1
FIALHO;9
FICHER;1
FIDELES;1
FIDELIS;13
FIDENCIO;1
FIEPPO;1
FIGUEIRA;38
FIGUEIRAS;2
FIGUEIREDO;122
FIGUEIRINHO;1
FIGUEIRO;3
FIGUEREDO;11
FIGUEROA;1
FIHLO;1
FILADELFO;1
FILARDI;1
FILET;1
FILGUEIRA;1
FILGUEIRAS;5
FILH;1
FILHA;2
FILHO;1669
FILIPE;1
FILIPPO;1
FINAMOURE;1
FINELLI;1
FINGOLO;1
FINKELSTEIN;1
FIORAVANTE;1
FIORI;1
FIQUEIRA;1
FIQUENE;1
FIREMAN;1
FIRMIANO;6
FIRMIMO;1
FIRMINO;20
FIRMO;2
FISCH;1
FISCHDICK;1
FITARONI;2
FITTIPALDI;1
FIUZA;10
FLAESCHEN;1
FLANCK;1
FLAUSINO;1
FLAUZINO;1
FLECK;1
FLEXA;1
FLHO;3
FLIEGE;1
FLINKAS;1
FLOR;8
FLORA;1
FLORDELL;1
FLORENCIANO;1
FLORENCIO;5
FLORENCO;1
FLORENTINO;7
FLORES;20
FLORET;2
FLORIANO;5
FLORIDO;1
FLORIN;1
FLORINDO;2
FLORIPES;1
FLORISTHE;1
FLORO;1
FOGACA;4
FOGE;1
FOGOS;1
FOLCO;1
FOLGOSA;1
FOLHA;1
FOLI;1
FOLINO;1
FOLLY;9
FOLY;1
FONSECA;236
FONTAINHA;1
FONTANA;3
FONTE;7
FONTENELE;1
FONTENELLE;2
FONTES;49
FONTINHA;1
FONTINHAS;1
FONTOURA;4
FORADINI;1
FORMA;1
FORMIGA;1
FORNI;1
FORNY;1
FORSTER;1
FORTE;2
FORTES;13
FORTUNA;4
FORTUNATO;4
FOURAX;1
FOUREAUX;1
FOUTOURA;1
FRADIQUE;1
FRAENKEL;1
FRAGA;18
FRAGOSO;6
FRAGOZO;1
FRANCA;98
FRANCE;1
FRANCELINO;9
FRANCESCHI;1
FRANCEZ;1
FRANCINI;1
FRANCINO;1
FRANCIONI;1
FRANCIS;1
FRANCISCO;103
FRANCISCONE;1
FRANCISQUIRI;1
FRANCO;40
FRANCU;1
FRANDIK;1
FRANDOLOSO;1
FRANGNELLI;1
FRANKEL;1
FRANKLIM;1
FRANKLIN;7
FRANOA;2
FRANQUE;1
FRANQUEIRA;1
FRANTAO;1
FRATANE;1
FRATANI;1
FRATIS;1
FRAZAO;9
FRECH;1
FREDERICO;3
FREDIMAN;1
FREDO;1
FREIBERGER;1
FREIMAN;2
FREIRE;78
FREIRES;3
FREITAS;299
FREIXIEIRO;1
FREIXINHO;1
FREIXO;2
FREY;1
FREYESLEBEN;1
FREZ;2
FRIAS;7
FRIDMAN;1
FRIGERI;1
FRIZIEIRO;1
FRIZONI;1
FROES;6
FROIS;1
FROLICK;1
FRONARD;1
FRONTINO;1
FRONTOURA;1
FROSSARD;3
FROTA;3
FROTAS;1
FROTTA;1
FROTTE;2
FRUCTUOSO;2
FRUCTUOZO;1
FRULLANI;1
FRUTUOSO;3
FUCHS;2
FUCKS;1
FUENTES;1
FUKS;2
FULGENCIO;2
FULI;2
FULY;2
FUMACA;1
FURER;1
FURLAN;2
FURLANETTO;1
FURRIEL;1
FURTADO;37
FURTUNATO;1
FUSTA;1
FUZATO;1
GABAN;1
GABETTO;1
GABI;2
GABINA;1
GABINO;1
GABRIEL;20
GABRIELLI;1
GABRIG;1
GABRIL;1
GABRY;5
GABY;3
GADELHA;6
GAEDE;1
GAGLIANO;1
GAGO;2
GAIA;1
GAIGHER;1
GAIO;1
GALAMBA;1
GALAN;1
GALANTE;2
GALASO;1
GALAXE;1
GALDEANO;1
GALDENCIO;1
GALDINGO;1
GALDINO;22
GALEAO;1
GALENO;1
GALETI;1
GALHANO;1
GALHARDI;1
GALHARDO;2
GALHEIRO;2
GALHOES;1
GALIL;1
GALIMIDI;1
GALINDO;1
GALINIS;1
GALL;2
GALLAS;1
GALLEAZZI;1
GALLI;1
GALLIPOLI;1
GALLO;2
GALO;1
GALRAO;1
GALVANHO;1
GALVANO;1
GALVAO;28
GALVINO;1
GAMA;53
GAMACHO;1
GAMARANO;1
GAMBA;1
GAMBARRA;1
GAMBATI;1
GAMBOA;1
GAMEIRO;1
GAMELEIRA;1
GANCALVES;1
GANDRA;6
GANEM;2
GANGA;1
GANGORRA;1
GANHADEIRO;1
GANON;1
GARCES;2
GARCEZ;3
GARCIA;118
GARDZINSKI;1
GARGANO;1
GARRIDO;7
GARUTE;1
GASCAO;1
GASPAR;18
GASPARINI;1
GASTALDELO;1
GASTAO;2
GATO;2
GATTO;5
GAUCIA;1
GAUDERETO;1
GAUNA;1
GAVARONE;1
GAVARRAO;1
GAVINA;2
GAVINHO;1
GAYAO;1
GAYER;2
GAYGHER;1
GAZE;1
GAZETA;1
GAZINEO;1
GAZZANI;1
GEIGER;1
GELAIN;1
GELARD;1
GELEDAN;1
GELLERT;1
GELMAN;1
GEMINO;1
GENEROSO;4
GENESIO;1
GENOVEZ;1
GENTIL;5
GENTILE;1
GENUINO;2
GEORG;1
GEOVONINI;1
GERALDA;1
GERALDINO;3
GERALDO;22
GERARD;1
GERBASI;1
GERBER;1
GEREMIAS;1
GERHARD;2
GERHEIM;1
GERI;1
GERICO;2
GERMANO;11
GERNANDES;1
GERONIMO;1
GERPE;1
GERUDE;1
GERUNDO;1
GERVASIO;5
GERVAZONI;1
GESTAL;1
GEUDES;1
GEVIGIR;1
GEWANDSZNAJDER;1
GHAMEN;1
GHAZI;1
GHERSBERG;1
GHIOTTI;1
GHOSSI;1
GIACOMOLLI;1
GIAGIO;1
GIARDINO;1
GIARLINI;1
GIBAO;1
GIERKENS;1
GIESTEIRA;1
GIGLIO;3
GIL;11
GILDO;1
GIMENES;1
GIMENEZ;4
GINNARI;1
GIORNES;1
GIOVANNETTI;1
GIOVANNOZZI;1
GIRALDEZ;1
GIRAO;2
GIRARDI;1
GIRIZOTTI;1
GIROLA;1
GIRON;1
GIROTO;1
GITANY;1
GITIRANA;1
GITITANA;1
GITTI;1
GIUDICE;1
GLORIA;12
GNECCO;1
GNIPP;1
GOBBI;1
GOBO;1
GODEIRO;1
GODIM;1
GODINHO;15
GODOI;1
GODOIS;1
GODOLPHIM;1
GODOMICZER;1
GODOY;6
GOES;25
GOETSCH;1
GOICHMAN;1
GOIS;4
GOIVINHO;1
GOLDENSTOIN;1
GOLDFELD;1
GOLDMANN;1
GOLDZWEIG;1
GOLINELLI;1
GOLOVAC;1
GOMBRON;1
GOMES;751
GOMEZ;4
GOMRD;1
GONCALO;5
GONCALVES;446
GONCALVEZ;1
GONCLAVES;1
GONDAR;1
GONDIN;1
GONDINHO;1
GONET;1
GONIK;1
GONOALVES;3
GONSALVES;1
GONTIJO;1
GONZAGA;23
GONZALES;3
GONZALEZ;11
GONZALLES;1
GONZO;1
GORDO;1
GORGES;1
GORNI;1
GORSANI;1
GOSI;1
GOSNE;1
GOSTO;1
GOTTLIEB;1
GOULART;36
GOUVEA;19
GOUVEIA;26
GOVEA;1
GOVEIA;1
GOZINEO;1
GRABIKOSKI;1
GRACA;16
GRACAS;1
GRACIE;1
GRACILIANO;1
GRACIOLLI;1
GRADIM;1
GRADO;1
GRADW;1
GRAFFINO;1
GRAICK;1
GRANA;2
GRAND;1
GRANDE;4
GRANDI;1
GRANDIM;1
GRANDINI;1
GRANELLS;1
GRANEM;1
GRANGEIRO;1
GRANHA;1
GRANITO;1
GRANJA;6
GRANJEIRO;1
GRAOAS;1
GRARRIDO;1
GRASSINE;1
GRASSINI;1
GRATIVO;1
GRAU;1
GRAUJA;1
GRAVITOL;1
GRAZIANI;1
GRAZINOLI;1
GRECCHI;1
GRECIA;1
GREDAS;1
GREDILHA;1
GREENHALGH;1
GREGA;1
GREGO;1
GREGORIO;23
GREMIAO;1
GRIEBELER;1
GRIFFO;1
GRIJO;4
GRILLO;1
GRINBERG;1
GRINER;1
GRION;2
GRIPA;1
GRIPP;2
GRIPPA;1
GROBA;1
GRODETZKY;1
GROETAERS;1
GROSS;1
GROSSMAN;1
GROSSO;2
GRUMACH;1
GRUNBLATT;1
GRUNEFELD;1
GRUNIER;1
GRYZAGORIDIS;1
GUAJAJARA;1
GUALANDE;1
GUALTER;1
GUALTIERI;1
GUANDELINE;1
GUARACIABA;1
GUARANY;1
GUARANYS;1
GUARDA;2
GUARILHA;1
GUARINO;2
GUARISA;1
GUARNIER;1
GUAYANAZ;1
GUBLER;1
GUEBEL;1
GUEDES;76
GUERERRO;1
GUERRA;29
GUERREIRO;2
GUERRERO;1
GUERSOLA;1
GUEVARA;1
GUIA;4
GUIDA;4
GUIDES;1
GUIDO;1
GUIDUGLI;1
GUIGNONI;1
GUILARFUCCI;1
GUILHERME;11
GUILHERMINO;1
GUILHON;1
GUILLHON;1
GUIMARAES;234
GUIMIL;1
GUIOMAR;1
GUISTE;1
GUIZARDI;1
GULLO;1
GUOWEN;1
GUREUSKY;1
GURGEL;4
GURJAO;1
GURSEL;1
GUSCETTI;1
GUSMAN;1
GUSMAO;15
GUSSEM;1
GUSTAVAO;1
GUSTAVO;2
GUTERRES;1
GUTIERREZ;2
GUTLER;1
HAAS;2
HABIB;2
HABIBE;1
HACAR;1
HACK;1
HADDAD;5
HAFFNER;1
HAIDAMUS;1
HAJDU;1
HALFELD;1
HALL;1
HALLIDAY;1
HALMACK;1
HAMATY;1
HAMDAR;2
HAMILTON;1
HAMMES;4
HAMMURSHIMIDT;1
HANG;2
HANGES;1
HANNA;1
HANSCHKE;1
HANSEN;3
HANTZSCHEL;1
HAPP;1
HARACIO;1
HARARI;1
HARBER;1
HARFOUCHE;1
HARLACHE;1
HARTALIAN;1
HARTE;1
HARTT;1
HASSANO;1
HASSIB;1
HATAKEYAMA;1
HATANO;1
HAUBRICH;2
HAUDE;1
HAUS;1
HAUSEN;1
HAUSSLER;1
HAYASHI;1
HAYDT;1
HECKERT;1
HEIMER;1
HEINRICHS;1
HEINZ;1
HEINZE;1
HEINZELMANN;1
HEISER;1
HEITOR;1
HEIZER;2
HELENA;2
HELEODORO;1
HELMER;1
HELMOLD;1
HELOUANI;1
HELOV;1
HENCK;2
HENRICHS;2
HENRIQUE;29
HENRIQUES;23
HENSE;1
HENUD;1
HENZE;1
HERBSTER;1
HERCULANO;6
HERCULES;2
HERDEIRO;1
HERDY;5
HEREDIA;1
HERING;1
HERINGER;4
HERLING;1
HERMAN;1
HERMANSON;1
HERMES;2
HERMIDA;1
HERMOGENES;1
HERMS;1
HERNANDES;1
HERNANDEZ;1
HERRMANN;1
HERZOG;1
HIAMACHITA;1
HIATH;2
HIDASY;1
HIGINO;3
HILARIO;8
HILL;2
HIMMELSBACH;1
HIPOLITO;5
HIPPERTT;1
HIPPOLITO;1
HIRABAL;1
HIRAGA;1
HIROTA;1
HIRTH;1
HOCK;1
HOELSE;1
HOFACKER;1
HOLANDA;6
HOLTZ;1
HOLUR;1
HOLZ;1
HOLZBERG;1
HOLZMANN;1
HOMEM;3
HONEIM;1
HONORATO;5
HONORIO;13
HORA;18
HORACIO;4
HORANDI;1
HORATO;1
HORITA;1
HORSTH;1
HORTA;4
HORTAS;2
HORTEGA;1
HORTENCIO;1
HOTT;1
HOTTES;1
HOTTZ;1
HOTZ;1
HOUAISS;1
HOZ;1
HUAICK;1
HUBACK;1
HUBNER;1
HUBSCHER;1
HUDEMANN;1
HUDSON;1
HUF;1
HUGUEMIM;1
HUGUENIN;1
HUIWEN;1
HUMBERTO;1
HYGINO;1
HYODO;1
IACILLO;1
IANNIE;1
IBANO;1
IBRAIM;1
IDA;1
IDIO;1
IGLECIA;1
IGLESIAS;2
IGNACIO;14
IKEDO;1
ILDEFONSO;2
ILHA;1
IMBROSIO;2
INACIO;23
INDIGUITON;1
INGAGLIA;1
INNECCO;1
INNOCENCIO;2
INOCENCIO;5
INOVE;2
IORIO;2
IOST;1
IOTTE;1
IRIAS;1
IRINEU;1
IRMAO;14
IRORRE;1
IRUATA;1
ISAIAS;2
ISCONIANNI;1
ISIDORO;2
ISMAEL;3
ISMERIN;1
ISRAEL;2
ISSOBE;1
ITABORAI;1
ITAJAHY;1
ITATTY;1
IUCHTMAN;1
IUNES;1
IVA;1
IVAN;1
IVO;3
IWAMOTO;1
IZABEL;2
IZAR;1
IZECKSOHN;1
IZIDERO;1
IZIDIO;1
IZIDORIO;2
IZIDORO;5
JACINTHO;5
JACINTO;6
JACKSON;1
JACO;1
JACOB;3
JACOBINA;1
JACOBS;1
JACOBY;1
JACOMINO;1
JACOMO;1
JACONIANO;1
JACONIASNI;1
JACOVAZZO;1
JACQUES;3
JAEGER;1
JAEGGER;1
JAFFAR;1
JAGUARY;1
JAKMAK;1
JALCI;1
JALKH;1
JALOTO;2
JAMELLI;1
JANDER;2
JANDRE;1
JANEIRO;2
JANJAO;1
JANNARELLA;1
JANNYZI;1
JANOVICCI;1
JANUARIO;21
JARBAS;1
JARDIM;22
JARETA;1
JAROSEVSCHI;1
JASMIM;1
JASPAN;1
JASSUS;1
JAUDY;1
JAUHAR;1
JAVORITA;1
JAX;1
JEITANI;1
JEITE;1
JEREMIAS;2
JEROBNYMO;1
JERONIMO;5
JERONYMO;6
JESKI;1
JESUINO;1
JESUS;233
JESUZ;1
JEUS;1
JIMENEZ;1
JOANA;1
JOANNES;1
JOAO;1
JOAQUIM;14
JOB;1
JOBER;1
JOCHEM;1
JODEGISHI;1
JODIEHEK;1
JOHNSTON;1
JOIA;2
JONARD;1
JONAS;1
JONES;1
JOPETER;1
JORDAO;12
JORGE;31
JOSE;23
JOSEFINO;1
JOSME;1
JOSPIN;1
JOUBERTH;1
JOVAN;1
JOVEM;1
JOVENCIO;1
JR;1
JUANNES;1
JUBLOT;1
JUDICE;1
JULIANELLI;1
JULIANI;1
JULIAO;8
JULIETO;1
JULIO;11
JULIOA;2
JUNES;1
JUNGER;2
JUNIO;2
JUNIOR;564
JUNQUEIRA;9
JUNTO;1
JUREMA;1
JUSSARA;1
JUSSIM;1
JUSTA;1
JUSTEN;2
JUSTINIANO;1
JUSTINO;17
JUSTO;5
JUVENAL;2
JUVENCIO;1
KADOPUCHI;1
KAHN;1
KAI;1
KAISER;1
KAIZER;1
KAJISHIMA;1
KALAF;1
KALLI;1
KANEKO;1
KAPLAN;1
KAPP;1
KAPPAUN;1
KAPPIUS;1
KAPPS;1
KARELNEIJTS;1
KARLL;1
KASTRUP;3
KATTERMANN;1
KATZ;4
KATZWINKEL;1
KAUFMAN;1
KAUFMANN;1
KAYAT;1
KAYSER;1
KAZAY;1
KEHL;1
KELLER;1
KELLY;4
KELMER;1
KENUPP;1
KEPSOLD;1
KERN;1
KERR;2
KHOURY;1
KICHIN;1
KIEFFER;1
KIENTECA;1
KILIM;1
KIMELBLAT;2
KINDEL;1
KINUPP;1
KIRSTEIN;1
KISTENMACKER;1
KISTLER;1
KITAGAWA;2
KLAIM;1
KLAUSNER;1
KLEIM;1
KLEIN;5
KLEINMAN;1
KLEM;1
KLEN;4
KLIMASCHENSKI;1
KLING;1
KLIPPEL;1
KLOH;3
KLOSKE;1
KNAVER;1
KNOX;1
KNUPP;9
KNY;1
KOCHEM;1
KODOS;1
KOELER;1
KOENIGSDORF;1
KOHAGURA;1
KONITZ;1
KONOPLIN;1
KOPKE;1
KOPLIM;1
KOPPE;1
KOPPEL;1
KOSSUGA;1
KOZLOWSKI;1
KRAPP;1
KRASINSKI;1
KRATZER;1
KREIN;1
KREISCHER;2
KRETZMANN;1
KRONEMBERGER;1
KROPH;1
KROPP;1
KRUSCHEWSKY;1
KUBEC;1
KULINA;1
KUNG;1
KUPERBERG;1
KURIJA;1
KURZ;1
KUSCHIR;1
KUZNIEC;1
KYAW;1
LABANDERA;1
LABARBA;1
LABECHE;1
LABIO;1
LACAVE;1
LACERDA;35
LACIR;1
LACOPO;1
LADEIRA;9
LADISLAU;3
LADOGA;1
LAGE;16
LAGES;2
LAGO;8
LAGOA;3
LAGOAS;5
LAGOIA;1
LAGOS;2
LAGRECA;4
LAHUD;1
LAIA;2
LAIN;1
LAINO;1
LAIUN;1
LALICO;1
LAMARE;1
LAMAS;2
LAMATA;1
LAMBERT;1
LAMBLET;1
LAMEGO;1
LAMEIRA;2
LAMELAS;1
LAMEN;1
LAMENCA;1
LAMERI;1
LAMIM;2
LAMIN;1
LAMOUR;1
LAMY;1
LAMYR;1
LANA;3
LANCEIRO;1
LANDAU;1
LANDI;1
LANDIM;2
LANEIRO;1
LANES;1
LANGONI;1
LANHAS;1
LANKAMP;1
LANNES;5
LANOR;1
LANSILLOTE;1
LANTO;1
LANZELLOTTI;1
LANZILLOTA;1
LANZONI;1
LAPA;1
LAPLACE;1
LAPORT;1
LAPORTE;1
LAQUE;1
LARA;5
LARANGEIRA;3
LARANJA;1
LARANJEIRA;5
LARANJEIRAS;1
LARCHER;1
LARICHIA;1
LARIO;1
LARRAGOITI;1
LARRES;1
LARROQUE;2
LARRUBIA;1
LARSEN;1
LASCOLA;1
LASSERVE;1
LATAVANHA;2
LATGE;1
LATUGA;1
LAU;2
LAUCAS;1
LAUDANO;1
LAUDELINO;1
LAUFFER;1
LAULETTA;1
LAUREANO;8
LAURENTINO;4
LAURIA;2
LAURIANO;2
LAURINDO;15
LAURO;1
LAURSANO;1
LAUXMANN;1
LAVEGLIA;1
LAWAL;1
LAZARINE;1
LAZARINO;1
LAZARO;1
LAZERA;1
LEAL;86
LEANDRO;21
LEAO;22
LEBORIO;1
LEBRANQUE;1
LECCY;1
LEDESUNA;1
LEDO;1
LEIFELD;1
LEIRA;2
LEIROS;1
LEIROZ;2
LEITAO;21
LEITE;159
LEITINHO;1
LEITUGA;1
LEIVA;1
LEIVAS;1
LEIXAS;1
LELLES;2
LELLIS;1
LEME;6
LEMEK;1
LEMES;1
LEMOS;85
LENA;1
LENCASTRE;3
LENCZYNSKI;1
LENGRUBER;1
LENTINI;1
LENTO;1
LEOA;1
LEOCADIO;3
LEON;3
LEONARDO;11
LEONCIO;3
LEONE;2
LEONEL;2
LEONEMI;1
LEONES;1
LEONI;1
LEONIZA;1
LEOPOLDINO;3
LEOPOLDO;2
LEOTERIO;1
LEPSCH;1
LERMA;1
LEROUX;1
LES;1
LESLIE;1
LESSA;34
LESTARD;1
LESTAYO;1
LETA;2
LETIERE;1
LEUZINGER;1
LEVIS;1
LEVKOVITS;1
LEVY;1
LIAMA;1
LIAO;1
LIBANIO;1
LIBARDI;1
LIBERA;1
LIBERATO;3
LIBERTINO;1
LIBERTO;1
LIBORIO;2
LICKER;1
LICURGO;2
LIDUGERIO;2
LIDUGERO;1
LIERES;1
LIFSCHITZ;1
LILI;1
LIMA;985
LIMAS;3
LIMEIRA;2
LIMOEIRO;2
LIMONGI;1
LINDE;1
LINDES;1
LINDOLFO;2
LINDOLPHO;2
LINHARES;21
LINO;19
LINS;29
LIONEZA;1
LIOTERIO;1
LIPORACE;1
LIPPI;1
LIPPINCOTT;1
LIRA;26
LIRIO;5
LISBOA;34
LIVEIRA;1
LIVINO;1
LIVRAMENTO;1
LIXA;1
LIZAK;1
LIZEU;1
LLOVERAS;1
LOANDA;1
LOBAO;2
LOBATO;9
LOBIANCO;1
LOBO;22
LOBRE;1
LOCASSO;1
LOCATELLI;2
LOCHE;1
LOCKEN;1
LOEBLEIN;1
LOEPS;1
LOESCH;1
LOETA;1
LOFEUDO;1
LOGATTI;1
LOGGERENBERG;1
LOIO;1
LOIOLA;2
LOIS;1
LOIVOS;1
LOMAR;1
LOMBA;3
LOMBARDI;1
LOMELINO;1
LOMENGO;1
LOMEO;1
LOMEU;3
LOMONACO;1
LONDON;1
LONGO;5
LONTRA;4
LOOBACK;1
LOPES;380
LOPEZ;5
LOPPES;1
LORANG;2
LORCH;1
LORDELO;2
LOREDO;2
LOREIRO;1
LORENA;4
LORENCAO;1
LORENZETO;1
LORENZO;2
LORENZONI;1
LORETO;3
LORETTI;1
LORINHO;1
LORUSSO;1
LOSS;1
LOTERO;1
LOUBACH;1
LOUBACK;4
LOUBACTZ;1
LOURA;2
LOUREDO;3
LOUREIRO;50
LOURENCO;59
LOURENOO;1
LOURES;4
LOURINDO;1
LOURO;4
LOUROZA;1
LOUSADA;2
LOUVEM;1
LOUZADA;8
LOUZANO;1
LOVANTINO;1
LOYOLA;1
LUA;1
LUCAO;1
LUCAS;24
LUCASSALI;1
LUCATELI;1
LUCCA;2
LUCCHESI;2
LUCENA;9
LUCIANA;1
LUCIANO;18
LUCINDO;4
LUCIO;11
LUDER;1
LUDOLFF;1
LUDUGERO;1
LUEIRO;1
LUGAO;6
LUGO;1
LUIGI;1
LUIS;2
LUIZ;57
LULA;1
LUMA;1
LUNA;11
LUNES;1
LUNG;1
LUPARELLI;1
LUPATINI;1
LUPINACCI;1
LUPRIANO;1
LUQUE;1
LUQUECI;1
LUQUINDA;1
LUSSAC;1
LUSTOSA;1
LUSTOZA;1
LUSTROZA;1
LUTTE;1
LUTTERBACH;1
LUVIZARO;1
LUZ;49
LUZIA;1
LUZIO;1
LYRA;8
LYRIO;7
LYSZY;1
MAC;1
MACABU;1
MACAIBA;1
MACAL;1
MACAMBIRA;1
MACARIO;7
MACCHIARULO;1
MACEDO;117
MACENA;11
MACENTOSH;1
MACHAADO;1
MACHACO;1
MACHADO;405
MACHARET;1
MACHARETE;1
MACHARETTE;1
MACHULIS;1
MACIAS;1
MACIEIRA;4
MACIEL;83
MACILON;1
MACIQUEIRA;1
MADAFFARI;1
MADALENA;1
MADEIRA;16
MADEIRO;1
MADOREIRA;1
MADRUGA;3
MADUREIRA;8
MADUREIRO;1
MADURO;2
MAECHELBURG;1
MAEZANO;1
MAFFEI;1
MAFFORT;1
MAFFRA;1
MAFORT;4
MAFRA;4
MAGALAHAES;1
MAGALDI;1
MAGALHAES;133
MAGAO;1
MAGARIAN;1
MAGATON;1
MAGDALENO;1
MAGDANELLO;1
MAGDENIER;1
MAGELA;2
MAGESTE;1
MAGESTIC;1
MAGNEZI;1
MAGNO;1
MAGNON;1
MAGNONI;1
MAGON;1
MAGRANI;1
MAGRO;1
MAHMED;1
MAHOMED;2
MAIA;135
MAIARATTI;1
MAIATO;1
MAILLARD;1
MAINENTE;1
MAINI;1
MAINIERE;1
MAIOR;2
MAIRYNK;1
MAITRE;1
MALAFAIA;5
MALAGRIS;1
MALAQUIAS;3
MALASPINA;1
MALAVAES;1
MALAVASI;1
MALCHER;1
MALEH;1
MALENA;1
MALFACINI;1
MALHA;1
MALHANO;1
MALHEIRO;2
MALHEIROS;9
MALHER;1
MALHETA;1
MALITO;1
MALLET;3
MALLEVAL;1
MALTA;3
MALTEZ;1
MALUNGO;1
MALVA;1
MAMEDE;4
MAMEDES;1
MANACORDA;1
MANAIA;1
MANCEBO;1
MANCINO;1
MANCO;1
MANDARINO;1
MANDONET;1
MANDRIOLA;1
MANDU;1
MANDURA;1
MANES;1
MANFREDO;1
MANFRO;1
MANGABEIRA;1
MANGEFESTI;1
MANGIA;2
MANGIFESTE;1
MANGO;1
MANHAES;43
MANHOLD;1
MANIER;1
MANNA;1
MANNARINO;1
MANNERAT;1
MANNSHARDT;1
MANO;1
MANOEL;15
MANSERA;1
MANSKE;1
MANSO;8
MANSORES;1
MANSOUR;1
MANSTROM;1
MANSUR;6
MANTELLI;1
MANTERO;1
MANTESSO;1
MANTILHA;1
MANTOVANI;1
MANTUAN;1
MANTUANO;1
MANZANO;1
MANZINI;1
MANZOLILLO;1
MARANHAO;6
MARAVILHA;5
MARCA;2
MARCAL;5
MARCEK;1
MARCELA;1
MARCELINO;26
MARCELLI;1
MARCELLO;4
MARCELO;5
MARCENAL;1
MARCERA;1
MARCHESE;1
MARCHESI;1
MARCHETTI;1
MARCHI;1
MARCHON;3
MARCIANO;4
MARCILIO;2
MARCIONILIO;1
MARCLEINO;1
MARCO;1
MARCOLI;1
MARCOLINO;7
MARCONDES;3
MARCOS;4
MARCULINO;2
MARENDAZ;5
MAREQUE;1
MARFIR;1
MARGARIDA;1
MARGARIDO;1
MARGARIZO;1
MARGCAL;1
MARGINO;1
MARGULIS;1
MARIA;29
MARIANNO;1
MARIANO;48
MARIANTE;1
MARICA;2
MARIE;1
MARIEL;1
MARIN;1
MARINA;1
MARINATO;2
MARINELLI;1
MARINHO;99
MARINHOS;1
MARINI;1
MARINO;2
MARINONE;1
MARINS;67
MARINSPEREIRA;1
MARIO;2
MARIOTINI;1
MARIOTTI;1
MARIZ;2
MARMELLO;1
MARMELO;2
MARMO;1
MAROCHI;1
MARONGIU;1
MAROTA;1
MAROTTA;1
MAROUN;1
MARQUE;1
MARQUES;219
MARQUI;1
MARQUIZ;1
MARRECAS;1
MARREIROS;1
MARRIEL;1
MARROCOS;1
MARROM;1
MARROZO;1
MARSIGLIA;1
MARTA;3
MARTELLOTI;1
MARTHA;1
MARTHIAS;1
MARTIGNONI;1
MARTIMIANO;2
MARTINELLI;2
MARTINEZ;8
MARTINHO;4
MARTINIANO;4
MARTINIANOS;1
MARTINO;5
MARTINS;484
MARTNS;1
MARTORELLI;1
MARTUCHE;2
MARTURELLI;1
MARUJO;1
MARVILA;1
MARX;1
MARY;2
MARZULLO;1
MASCARENHAS;13
MASCENA;2
MASCOUTO;1
MASEGA;1
MASINI;1
MASO;1
MASSA;1
MASSANO;1
MASSANTI;1
MASSARO;1
MASSI;1
MASSOT;1
MASTRANGELO;1
MATA;12
MATARUNA;2
MATES;1
MATEUS;14
MATHEUS;11
MATHIAS;19
MATIAS;23
MATIELLO;1
MATINS;1
MATO;1
MATOS;107
MATOSO;4
MATSUMOTO;1
MATSUMURA;1
MATTA;16
MATTAR;1
MATTE;1
MATTESCO;1
MATTIAS;2
MATTOS;114
MATTOSO;1
MATURANA;1
MAUAD;1
MAURA;2
MAURELLI;1
MAURER;1
MAURICIO;13
MAURIELI;1
MAURITY;1
MAURO;1
MAVES;1
MAVRENTE;1
MAX;1
MAXIMIANO;5
MAXIMILIANO;1
MAXIMINIANO;1
MAXIMINO;1
MAXIMO;9
MAXNUK;1
MAY;2
MAYA;1
MAYER;1
MAYRINCK;1
MAYWORM;1
MAZAMBONE;1
MAZARETH;1
MAZEGA;1
MAZULLO;1
MAZULO;1
MAZUR;1
MAZZA;3
MAZZEI;2
MAZZINI;1
MCGREGOR;1
MEANA;1
MEB;1
MEDEIRO;3
MEDEIROS;185
MEDICI;1
MEDINA;8
MEDRADO;2
MEEHAN;1
MEFANO;1
MEGGIOLARO;1
MEINICKE;1
MEIRA;6
MEIRE;1
MEIRELES;20
MEIRELLES;20
MEISTERHOPER;1
MELCHER;1
MELEIRO;1
MELENDEZ;1
MELGACA;1
MELHORANCE;1
MELIANTE;1
MELICH;1
MELLADO;1
MELLIS;1
MELLO;188
MELO;248
MELON;1
MELQUIADES;1
MELSERT;1
MEMERE;1
MENAGET;1
MENASCHE;1
MENDELSKI;1
MENDES;204
MENDLOWJCZ;1
MENDONCA;134
MENDONOA;1
MENDONOCA;1
MENEGATI;1
MENEGATTI;1
MENEGOY;1
MENEGUELLI;1
MENEGUIT;1
MENEGUITE;1
MENESES;11
MENEZES;150
MENIS;1
MENSCH;1
MENTA;1
MENTZEINGEN;1
MERCADANDE;1
MERCADANTE;2
MERCANTE;2
MERCES;4
MERCEZ;1
MERCIER;1
MERCURIO;2
MERGULHAO;1
MERHEB;1
MERHY;1
MERLIM;1
MERLINO;1
MERLO;1
MERLY;1
MERMELSTEIN;1
MEROTO;1
MERY;1
MESMER;1
MESQUEITA;1
MESQUITA;66
MESQUITELA;1
MESQUITO;1
MESSECA;1
MESSIAS;10
MESSINA;1
METSON;1
METTI;1
METZGEN;1
MEXIAS;1
MEYER;4
MEZIAT;1
MEZO;1
MEZZALIRA;1
MICHAELIS;1
MICHALCZUK;1
MICHELS;2
MICHILLES;1
MICIA;1
MIEKELEY;1
MIGNONE;1
MIGUEIS;3
MIGUEL;28
MIGUENS;1
MIGUES;1
MIGUEZ;2
MILAGRES;3
MILAN;1
MILANES;1
MILANEZ;1
MILANI;1
MILAO;1
MILAZZO;1
MILEIPPE;1
MILEN;1
MILER;1
MILESE;1
MILEZI;1
MILFONT;1
MILHEIRO;2
MILICHMAN;1
MILIONE;1
MILITAO;1
MILLER;3
MILLS;1
MILOSKI;1
MILWARD;1
MINAN;1
MINAS;1
MINDA;1
MINEY;1
MINGUTA;1
MINIGUELO;1
MININGUELO;1
MINISTERIO;1
MINTO;1
MINUCCI;1
MINVIELLE;1
MIQUELES;1
MIQUELOTTI;1
MIRAD;1
MIRANDA;172
MISAEL;1
MISQUITA;1
MISSENA;1
MITCHELL;1
MITIDIERI;1
MITSUYA;1
MIZAEL;4
MIZMAN;1
MIZRAHY;1
MOACYR;1
MOAMED;1
MOCO;8
MODESTO;12
MODRACH;1
MOEBUS;2
MOES;1
MOISES;3
MOITA;1
MOLARES;1
MOLINA;8
MOLINARI;1
MOLINARIO;1
MOLINARO;1
MOLINOS;1
MOLLETA;1
MOLTENO;1
MONCAO;3
MONDAINI;3
MONDEGO;1
MONEGALHA;1
MONERAT;2
MONI;1
MONIZ;1
MONKIN;1
MONLEVAD;1
MONNERAT;2
MONORO;1
MONSOLDO;1
MONSORES;11
MONSUETE;1
MONTASSIER;1
MONTE;17
MONTEIRO;229
MONTEJO;1
MONTEMOR;1
MONTENEGRO;9
MONTERVINOS;1
MONTES;8
MONTEZUMA;1
MONTICO;1
MONTINHO;2
MONTOVANI;1
MONTUANA;1
MORAAEAUX;1
MORADA;1
MORAES;262
MORAGAT;1
MORAIS;71
MORALDE;1
MORALES;2
MORANDI;1
MORBECK;1
MORE;1
MOREIRA;330
MOREM;1
MORENA;1
MORENO;16
MORET;2
MORETO;1
MORETT;2
MORETTI;1
MORFIRA;1
MORGADO;8
MORILHO;1
MORIN;1
MORISCO;1
MORIZAWA;1
MORMO;1
MORO;1
MORONE;1
MORONI;1
MORSCH;1
MORTA;1
MORTE;4
MORTES;1
MOSHKOVICH;1
MOSIA;1
MOSQUEIRA;1
MOSQUERA;1
MOSTACADA;1
MOTA;78
MOTEIRO;1
MOTINHO;1
MOTIZUKI;1
MOTTA;94
MOULIN;1
MOURA;232
MOURAO;12
MOURATELLI;1
MOURILHE;1
MOURITO;1
MOUSA;1
MOUTA;2
MOUTINHO;9
MOUZINHO;2
MOYSES;4
MOZA;1
MOZART;2
MOZER;5
MUDJALIEB;1
MUEY;1
MUHARI;1
MUINOS;1
MULATINHO;1
MULATO;1
MULIM;1
MULLER;6
MULLO;1
MULLULO;1
MUNCH;1
MUNERATTO;1
MUNHAO;1
MUNHOZ;1
MUNIER;1
MUNIZ;68
MUNKSGAARD;1
MUNOZ;3
MURAD;1
MURAKAMI;1
MURAT;1
MURELIANO;1
MURITIBA;1
MURITO;1
MURLY;1
MUROS;1
MURRAY;2
MURTINHO;1
MURY;2
MUSSAUER;1
MUSSI;1
MUTIS;1
MUYOR;1
MUZI;3
MUZY;1
NAAR;1
NABBOUT;1
NABETH;1
NABOR;1
NACAMDI;1
NACARATI;1
NACIF;2
NACORT;1
NADAIS;1
NADER;2
NAEGELE;1
NAGAO;1
NAHUM;1
NAINE;1
NAKED;1
NALDI;1
NANDOLFF;1
NANTES;1
NAPOLEAO;1
NAPOLITANO;2
NARCISO;13
NARCIZO;2
NASCENTES;3
NASCHPITZ;1
NASCIAMENTO;1
NASCIBEM;1
NASCIEMENTO;1
NASCIMENTO;847
NASCIMENTOP;1
NASCIMENTOTAVARES;1
NASCIMNETO;2
NASCIMNTO;1
NASORE;1
NASR;1
NASSAR;2
NASSER;1
NATAL;5
NATALINO;2
NATIVIDADE;4
NATURANO;1
NAUTONE;1
NAVARRO;4
NAVARROS;1
NAVE;1
NAVEGA;3
NAVES;1
NAVIO;1
NAYLOR;2
NAYMAYER;1
NAZARA;1
NAZARE;3
NAZARETH;13
NAZARIO;4
NAZARO;1
NE;1
NECCO;2
NECO;1
NEGRAO;1
NEGRE;1
NEGREIROS;3
NEGRINI;1
NEGROMONTE;1
NEIMEISKCHTZ;1
NEIVA;3
NELON;1
NELSON;1
NELVO;1
NEMBRI;1
NENEGUSSI;1
NENES;1
NEOFOTISTOS;1
NEPOMOCENO;1
NEPOMUCENO;3
NEPONUCENO;1
NERDY;1
NERE;1
NERES;1
NERI;6
NERIS;1
NERY;22
NETO;390
NETTO;104
NEUGARTEN;1
NEUGHIN;1
NEUNAN;1
NEVES;199
NEY;2
NICACIO;5
NICALI;1
NICAU;1
NICODEMO;1
NICODEMOS;1
NICODEMUS;2
NICOLA;2
NICOLAU;16
NICOLELLA;1
NICOLETE;2
NICOLINI;1
NICOLINO;1
NICOLUSSI;1
NICOMEDIO;1
NIDECH;1
NIEDERMEIER;1
NIGRI;2
NIGRO;1
NIGUI;1
NILTON;1
NINA;1
NITZCHE;1
NIZZO;1
NOBLAT;1
NOBRE;8
NOBREGA;15
NOBRIGA;2
NOCITO;1
NOEL;2
NOGUEIRA;187
NOHRSTEDT;1
NOITE;1
NOLASCO;2
NOLDING;1
NONATO;1
NONNO;1
NOQUI;1
NORAES;1
NORATO;2
NORBERTO;5
NORBIATO;1
NOREK;1
NORMANDES;2
NORONHA;12
NORTE;1
NOSOULIA;1
NOTES;1
NOUCO;1
NOVA;5
NOVAES;28
NOVAIS;8
NOVELLI;1
NOVELLO;2
NOVENA;1
NOVO;8
NOYA;2
NUDELMAN;1
NUNES;241
NUNO;1
NUPCIAS;1
NUSS;1
NUTHIMACHER;1
NYARADI;1
O;3
OAKS;1
OAQUIM;1
OBI;1
OBRAPOVIC;1
OCCHIUZZO;1
OCERQUEIRA;1
OCHIUZZI;1
ODILON;2
OFREDI;1
OGAWA;1
OHANA;1
OIKO;1
OITERIO;1
OITICICA;1
OIVEIRA;1
OKA;1
OKAWA;1
OKI;3
OLEGARIO;4
OLIEVIRA;1
OLIMPIO;8
OLIVA;4
OLIVEI;1
OLIVEIERA;1
OLIVEIRA;2714
OLIVEIRAR;1
OLIVERA;2
OLIVERI;1
OLIVERIA;3
OLIVIA;1
OLIVIERA;2
OLIVIERI;1
OLIVIERIA;1
OLM;1
OLMEDO;1
OLSEN;1
OLUCHI;1
OLVEIRA;5
OLVIEIRA;3
OMENA;3
OMURA;1
ONCA;1
ONDEZA;1
ONETO;1
ONIAS;1
ONIDA;1
ONOFRE;2
ONOFRIO;1
ONORATO;1
ONORIO;1
OPILHAR;1
ORATTEINI;1
ORDONHO;1
ORDRIGUES;1
OREM;1
ORIENTE;1
ORLANDA;1
ORLANDINI;1
ORLANDO;3
ORLIKOWSKI;1
ORMOND;2
ORNELAS;4
ORNELLAS;5
ORO;1
OROFINO;2
ORONA;1
OROSCO;1
ORSINO;1
ORTEGA;1
ORTIZ;3
ORTOLA;1
OSCAR;1
OSHIMA;1
OSNI;1
OSORIO;8
OSTI;1
OSWALDO;2
OTAVIO;1
OTERO;2
OTOGALI;1
OTONI;2
OTRANTO;1
OTTAVIO;1
OTTE;1
OTTERO;3
OTTESEN;1
OTTOLINE;1
OTTOLINI;1
OURIQUE;2
OURIVE;1
OUTEIRO;4
OUVERNEY;8
OVALLE;1
OVANOVICK;1
OZALA;1
OZAMA;1
OZAVA;1
OZORIO;3
PAASCH;1
PABOUDJIAN;1
PACCA;1
PACHECO;76
PACHIEGA;1
PACIENCIA;1
PACIFICA;1
PACIFICO;2
PACOTE;1
PADEIRA;1
PADIAL;1
PADILHA;10
PADOVANI;1
PADRAO;2
PADUA;1
PADULLA;1
PAES;32
PAGANI;1
PAGANINI;1
PAGANO;1
PAGES;1
PAGLIARES;1
PAGLIUSO;1
PAHLDORF;1
PAIM;4
PAIMEX;1
PAIN;1
PAINS;1
PAIO;1
PAIS;3
PAISLON;1
PAITEN;1
PAIVA;117
PAIXAO;66
PAIXUO;1
PALACIO;4
PALADINO;1
PALAGAR;1
PALAS;1
PALAZZO;2
PALENCIA;1
PALERMO;3
PALHA;1
PALHARES;1
PALHEIROS;1
PALHETE;1
PALINOS;1
PALMA;10
PALMARES;3
PALMEIRA;13
PALMEIRAS;2
PALMIERE;1
PALMIERI;1
PALOMBO;1
PALOMO;1
PALUMBO;1
PAMPLONA;2
PANARO;2
PANAZIO;1
PANCOTTI;1
PANEIRO;1
PANETO;1
PANICE;1
PANIO;1
PANISIO;1
PANIZZA;1
PANNO;1
PANTOJA;3
PANTOJO;1
PANZA;1
PANZARIELLO;1
PAO;2
PAOLANTIM;1
PAOLINO;1
PAPA;3
PAPADOPOULOS;1
PAPAZIAN;1
PAPEIRA;1
PAPERA;2
PAPINI;1
PAPOULA;1
PARA;2
PARADELA;1
PARADELES;1
PARADELLA;1
PARAGO;1
PARAGUAYO;1
PARAISO;2
PARAIZO;4
PARANHOS;7
PARCIAL;1
PARDAL;2
PARDINHO;1
PARDO;1
PARDON;1
PAREDES;1
PARENTE;4
PARET;1
PARGOS;1
PARIS;1
PARRACHO;1
PARREIRA;3
PARREIRAS;3
PARRILHA;1
PARRINI;3
PASCHOA;1
PASCHOAL;6
PASCOA;1
PASCOAL;3
PASCOLE;1
PASQUARELLE;1
PASSAGEM;1
PASSARONE;1
PASSERINI;1
PASSOS;56
PASTORE;1
PASTORIZA;1
PATE;1
PATEIRA;1
PATRAO;3
PATRICIO;6
PATRINIERI;1
PATROCINIO;8
PATUELLI;1
PAUILINO;1
PAULA;231
PAULINE;1
PAULINO;25
PAULO;41
PAULUCCI;2
PAURA;1
PAUSEIRO;1
PAVAN;2
PAVAO;3
PAVON;1
PAVONE;1
PAVONNE;1
PAVUNA;1
PAYER;1
PAZ;23
PAZMERIM;1
PAZOS;2
PDRO;1
PEANO;1
PECANHA;33
PECCI;1
PECLAT;3
PECLES;1
PECLI;1
PECORARO;1
PECULAS;1
PEDEMEIRAS;1
PEDERNEIRAS;1
PEDRA;6
PEDRAO;1
PEDREIRA;3
PEDRO;42
PEDROSA;9
PEDROSO;7
PEDROZA;4
PEDROZO;2
PEGAS;1
PEGO;1
PEGOLLO;1
PEGORARO;1
PEITUDO;1
PEIXAO;1
PEIXE;1
PEIXOTO;94
PEJOL;1
PELEGRINI;1
PELLEGRINI;2
PELLENZ;1
PELLUSO;1
PELOSI;1
PENA;16
PENAFORTE;1
PENEDA;1
PENEDO;1
PENEIRAS;1
PENELUPPI;1
PENHA;25
PENICHE;1
PENIDO;4
PENNA;9
PENNAFORT;1
PENTAGNA;1
PEOANHA;2
PEQUENO;11
PERAIZO;1
PERALES;1
PERALTA;1
PERALVA;2
PERBEILS;1
PERCINCULA;1
PERCOFF;1
PERDIGAO;3
PERDIZ;1
PERDOMES;1
PERDONATI;1
PERDONE;1
PEREGONI;1
PEREGRINO;1
PEREIRA;1078
PERENCIOLO;1
PERENHA;1
PERERA;1
PERES;33
PERETE;2
PERETTI;2
PEREYRA;1
PEREZ;11
PERFEITO;1
PERIARD;2
PERICO;1
PERINI;1
PERISSE;3
PEROBA;1
PEROZINI;1
PERPETUO;1
PERRETT;1
PERRI;1
PERRONI;1
PERROTA;2
PERROTTA;2
PERROUD;2
PERROUT;2
PERRUT;2
PERSEGANI;1
PERSSON;1
PERUGINI;1
PERYASSU;1
PESARO;1
PESENATO;1
PESSANHA;53
PESSATA;1
PESSI;1
PESSOA;40
PESSONHA;1
PESSUTE;1
PESTANA;9
PETERSON;1
PETITO;1
PETRIS;1
PETROCCHI;2
PETROCELLI;1
PETROCHELLE;1
PETROCINIO;1
PETROLLA;1
PETRONE;3
PETRUCCIO;1
PEYON;1
PEZENTE;1
PEZZELLA;1
PEZZINO;1
PFASTERER;1
PHILIPPSBORN;1
PHILIPPSEN;1
PIAGGE;1
PIANISSOLA;1
PIASCENTINI;1
PIASSABUSSU;1
PIAUI;1
PIAZZA;1
PICALUGA;1
PICANCA;1
PICANCIO;1
PICANCO;4
PICHUM;1
PICOLI;1
PICONE;1
PICULI;1
PIEDADE;7
PIERMATTEI;1
PIERRI;1
PIETERSE;1
PIETRO;1
PIFANO;3
PILAR;1
PILLAR;1
PILLER;1
PIMENTA;39
PIMENTEL;69
PINA;7
PINAO;1
PINAS;1
PINASSO;1
PINEL;1
PINENTA;1
PINGRET;1
PINHA;1
PINHEIRO;151
PINHEIROS;3
PINHO;34
PINNA;5
PINNOCK;1
PINSARO;1
PINTA;1
PINTO;395
PINUDO;1
PIO;8
PIOLA;1
PIOVESAN;1
PIQUENO;1
PIRACIABA;1
PIRAGIBE;1
PIRAINO;1
PIRAN;1
PIRATININGA;1
PIRELI;1
PIRES;137
PIROTTI;1
PIROZI;1
PISANO;1
PISCO;1
PISMEL;1
PISSURNO;1
PITA;4
PITANGA;4
PITCHON;1
PITEL;1
PITOCO;1
PITOMBEIRA;1
PITTA;4
PITUBA;1
PITZER;1
PIULEIRO;1
PIUMBIMI;1
PIVA;1
PIZA;1
PIZOEIRO;1
PIZZATO;1
PLACIDO;3
PLATA;1
PLERARI;1
PLINIO;1
PLISCHKE;1
PNEGIONI;1
POBES;1
POCAS;1
POEYS;1
POEYZ;1
POGIAN;1
POLEGAR;1
POLIBIANO;1
POLICANI;2
POLICARDO;1
POLICARPIO;1
POLICARPO;4
POLICARTE;1
POLICASTRO;1
POLIDORO;1
POLILA;1
POLITO;1
POLL;1
POLLO;1
POLO;1
POLVERINE;1
POLY;2
POLYDORO;3
POMBEIRO;1
POMBEL;1
POMBO;2
POMEROY;1
POMPEO;1
POMPEU;3
POMPONET;2
POMUCENO;1
PONCE;1
PONCIANO;1
PONTE;4
PONTES;63
PONZO;1
POPPOLINO;2
PORCEL;1
PORCIUNCULA;2
PORCO;1
PORFIA;1
PORFIRIO;3
PORTANOVA;1
PORTELA;11
PORTELLA;10
PORTES;10
PORTHUN;1
PORTILHO;3
PORTINHA;1
PORTO;60
PORTUGAL;14
POSINO;1
POSSAS;2
POSSE;1
POSSIDONIO;1
POSSIMUZER;1
POSSOLE;1
POTIGUARA;1
POTT;1
POUBEL;6
POULET;1
POURBAIX;1
POUSADA;1
POVOA;5
POWELL;1
POZES;1
POZZI;2
PRACA;1
PRACOWNIK;1
PRADO;41
PRADOS;1
PRALTO;1
PRASS;1
PRASSA;1
PRATA;16
PRATES;3
PRATI;1
PRAUN;1
PRAXEDES;2
PRAZERES;10
PRECHT;1
PREMIO;1
PREMOLI;1
PRESCE;1
PRESCOTT;1
PRESTE;1
PRESTES;1
PRETA;1
PREVOT;1
PREZA;1
PRIAMI;1
PRIETO;1
PRIINET;1
PRIMO;8
PRINCISVAL;3
PRIORI;1
PRIOSTE;1
PRISCO;1
PRIVATTI;1
PROBA;1
PROBST;1
PROCOLI;1
PROCOPIO;5
PRODANOFF;1
PRODRIGUES;1
PROENCA;4
PROENCE;1
PROENCIO;1
PROESIO;1
PROEZA;1
PROLO;1
PROTENCIO;1
PROVAZI;1
PROVENZANO;2
PRUDENCIO;3
PRUDENTE;3
PTZER;1
PUGA;2
PUGLIESE;1
PULGA;1
PULLIG;2
PUPO;1
PUREZA;2
PURIFICACAO;1
PYRRHO;1
QANDERLEY;1
QUADRIO;1
QUADROS;7
QUAGLIA;1
QUAGLIO;1
QUARESMA;7
QUARTIN;1
QUASTACIO;1
QUEIROGA;3
QUEIROS;2
QUEIROZ;86
QUERES;1
QUERINO;1
QUERUTE;1
QUIARIOS;1
QUIETO;1
QUINAN;1
QUINELLATO;1
QUINTA;1
QUINTAES;1
QUINTANA;1
QUINTANILHA;39
QUINTANO;1
QUINTANS;1
QUINTAO;1
QUINTAS;5
QUINTELA;2
QUINTELLA;3
QUINTIERI;1
QUINTILIANO;1
QUINTILLAN;1
QUINTINO;8
QUINTOS;1
QUINUPA;1
QUIRINO;17
QUIROZ;1
QUITERIO;2
QUITES;1
QUITETE;3
QUNTAES;1
RAAD;1
RAAMOS;1
RABELLO;10
RABELO;11
RABHA;1
RABITTI;1
RAEDER;1
RAESKY;1
RAFACSKY;1
RAFAEL;6
RAGGIO;2
RAGUSE;1
RAIBOLT;2
RAIMUARDO;1
RAIMUNDI;1
RAIMUNDO;22
RAINHA;2
RAINHO;2
RAIZER;1
RAJAO;1
RALHA;1
RAMALDES;2
RAMALHETE;1
RAMALHO;26
RAMAO;1
RAMBALT;1
RAMILO;1
RAMIRES;4
RAMIREZ;1
RAMIRO;3
RAMM;1
RAMOA;3
RAMON;2
RAMOS;300
RAMUZ;1
RANGE;1
RANGEL;128
RANHADA;2
RANIERI;1
RANSATTI;1
RANSON;1
RAPHAEL;1
RAPOSO;26
RAPOZA;1
RAPOZO;1
RAQUEL;1
RARADELLA;1
RASCH;1
RAUL;2
RAUPP;1
RAVAIOLI;1
RAYAE;1
RAYES;1
RAYMINDO;1
RAYMONDI;1
RAYMUNDO;12
REAL;4
REBEL;2
REBELHO;1
REBELLO;8
REBELO;3
REBOREDO;1
REBOUCAS;2
REBOUGAS;1
RECAREY;1
RECHTMAN;1
RECHWAN;1
REDELICO;1
REDES;1
REDIG;1
REDLIER;1
REDON;1
REGADAS;2
REGAN;1
REGARD;1
REGES;1
REGIS;2
REGO;27
REGUINE;2
REGULA;1
REHFELDT;1
REI;2
REIFSCHREIDER;1
REIGOTO;1
REILLY;1
REIMANN;1
REIMOL;1
REIN;1
REINALDO;2
REINALT;1
REINTE;1
REIS;287
REISSMANN;1
REIXEIRA;1
RELVA;1
RELVAS;1
REMEDIOS;4
REMIGIO;1
REMPTO;2
RENHA;1
RENNA;1
RENNE;1
RENO;1
RENOVATO;5
RENTE;3
RENTI;1
RESENDE;16
RESERVA;1
RESSALVA;1
RESSIGUIER;1
RESSIQUIER;1
RESSURREICAO;1
RESUENO;1
RETONDE;1
RETTO;1
REUTHER;1
REVELLES;1
REVOREDO;2
REY;2
REYES;1
REZ;1
REZENDE;66
REZENDES;1
REZK;1
RGINALDO;1
RI;1
RIANELLI;1
RIBAS;11
RIBE;1
RIBEIRAL;1
RIBEIRO;614
RIBERA;1
RIBERTO;1
RICARDO;17
RICART;1
RICCE;1
RICCI;1
RICCIARDI;1
RICCIOPPO;1
RICHA;2
RICHARD;2
RICHIMITTI;1
RICHO;1
RICI;1
RICKLI;1
RICO;1
RIDOLFI;1
RIEDEL;1
RIEIRO;2
RIFAN;1
RIGADAS;1
RIGHINI;1
RIGO;2
RIGOLIZZO;1
RIGON;1
RIGUEIRA;1
RIGUETTI;1
RIJI;1
RIMAS;1
RIMES;3
RINALDI;2
RIO;2
RIOS;18
RIPARDO;1
RISCADO;1
RISKALLA;1
RISKI;1
RISQUES;1
RISSI;2
RISSO;2
RITA;3
RITO;1
RITTMEYER;1
RIVELINI;1
RIVELLO;1
RIVERO;1
RIVOLA;1
RIVOLI;1
RIZO;2
RIZZO;2
RIZZON;1
ROA;1
ROBAINA;2
ROBERT;1
ROBERTO;14
ROBERTSON;1
ROBETIM;1
ROBINSON;1
ROBLE;1
ROBLEDO;1
ROBOREDO;1
ROCADAS;1
ROCAS;1
ROCCO;1
ROCHA;473
ROCHOLINO;1
ROCIO;1
ROCQUE;1
ROCRIGUES;1
RODAS;1
RODOLFO;1
RODOLPHO;1
RODOPRIANO;1
RODOVALHO;1
RODRGIUES;1
RODRIGO;1
RODRIGUE;1
RODRIGUES;684
RODRIGUEZ;8
RODRIIGUES;1
ROELES;1
ROGERIO;4
ROHA;1
ROHAM;1
ROHEM;3
ROIFF;1
ROIMICHER;1
ROIZ;1
ROIZENBLIT;1
ROJO;1
ROKBRAND;1
ROLDAO;1
ROLEMBERG;1
ROLFS;1
ROLI;1
ROLIM;4
ROLLEMBERG;1
ROLLIN;1
ROLO;3
ROLSZT;1
ROMA;4
ROMAGNOLI;1
ROMANA;1
ROMANELI;1
ROMANO;4
ROMAO;11
ROMAY;1
ROMEIRO;1
ROMEO;1
ROMERO;2
ROMEU;7
ROMOALDO;1
ROMPOVET;1
ROMUALDO;3
RONCETTI;1
RONCULI;1
RONDA;1
RONDAO;1
RONDON;1
RONREN;1
ROQUE;19
RORIS;1
RORIZ;3
ROSA;313
ROSADAS;1
ROSADO;2
ROSAL;1
ROSALINO;2
ROSARI;1
ROSARIO;26
ROSAS;7
ROSCALA;1
ROSENO;1
ROSENTHAL;1
ROSENZWEIG;1
ROSMANINHO;1
ROSS;1
ROSSETTI;1
ROSSI;7
ROSSONI;1
ROSSTEUSCHER;1
ROTH;1
ROTONDANO;1
ROTTER;1
ROUGEMONT;1
ROULIEN;1
ROUPA;1
ROURE;1
ROXO;4
ROZA;7
ROZALINO;1
ROZARIO;6
ROZEIRA;1
ROZLOWKY;1
ROZOLEN;1
RUA;1
RUAS;5
RUBIM;3
RUBIN;1
RUBIO;1
RUBIOLI;1
RUDGE;1
RUFFO;1
RUFINO;12
RUFO;1
RUIS;1
RUIVO;1
RUIZ;1
RUMAO;1
RUMBELSPERGER;1
RUNG;1
RUSSEL;1
RUSSIEL;1
RUSSIER;1
RUSSO;4
RUSZYNSKI;1
RUTIGLIANI;1
RUTILIANO;1
RUTING;1
RUY;2
SA;95
SAADI;3
SAANTOS;1
SAAR;1
SABA;1
SABACK;1
SABADINI;1
SABARA;1
SABBAGH;1
SABBATINI;1
SABINO;14
SABOIA;1
SABONARIO;1
SACCO;1
SACIA;1
SACRAMENTO;23
SACRPELLI;1
SAD;1
SADER;2
SADLER;1
SAENEN;1
SAFI;1
SAGRETTE;1
SAHID;2
SAIOL;1
SAIOR;1
SAISSE;2
SALAMAN;1
SALAMARGO;1
SALAME;1
SALAS;1
SALAZAR;2
SALCEDES;1
SALDANHA;17
SALEH;1
SALEM;3
SALEMA;2
SALERMO;1
SALES;68
SALGADO;23
SALGUEIRO;6
SALIM;2
SALINO;2
SALLES;36
SALMASO;1
SALOMAO;7
SALOME;1
SALONIKIOS;1
SALSA;1
SALUM;1
SALUSTIANO;3
SALUSTINO;1
SALVA;1
SALVADO;1
SALVADOR;13
SALVADORETTI;1
SALVAYA;1
SALVIANO;2
SALVINI;1
SALVINO;1
SAMAPIO;1
SAMASSO;1
SAMEIRO;1
SAMET;1
SAMICO;1
SAMPAIO;68
SAMPEDRO;1
SAMUEL;2
SAN;1
SANABRIS;1
SANCASSINI;1
SANCEDO;1
SANCHA;1
SANCHES;12
SANCHEZ;1
SANCHO;1
SANDER;2
SANDERS;1
SANDES;3
SANDI;1
SANDIM;1
SANDORA;1
SANDRE;1
SANGENITO;1
SANGLAR;1
SANGY;1
SANNA;1
SANSAO;1
SANTA;2
SANTAAN;1
SANTAMARIA;1
SANTANA;204
SANTANNA;26
SANTAREM;3
SANTARONE;1
SANTARONI;1
SANTIAG;1
SANTIAGO;66
SANTINO;1
SANTO;59
SANTOLIN;2
SANTOPIETRO;1
SANTORNO;1
SANTORO;6
SANTOS;4018
SANTOSPINTO;1
SAORES;1
SAPE;1
SAPHA;1
SARAIVA;20
SARANDAO;1
SARCHES;1
SARDINHA;12
SARDON;1
SARDOTE;1
SARDOU;1
SARLO;2
SARMENTO;12
SARNO;1
SAROTE;1
SARPA;1
SARRAZIN;1
SARRIA;1
SARTIE;1
SARTO;1
SARTORI;1
SARTORIO;3
SARZEDAS;2
SASSIM;1
SASSO;1
SATHLER;1
SATILO;1
SATIRO;5
SATO;1
SATUCHENGO;1
SATURIO;1
SATURNINO;4
SATYRO;2
SAUCIER;1
SAVASTANO;1
SAVERIO;1
SAVI;1
SAVINO;2
SAYAO;1
SAYIGNON;1
SBANO;1
SCALA;1
SCALERCIO;1
SCALI;1
SCANGARELLI;1
SCARDINE;1
SCARDINI;1
SCARPA;2
SCARPATE;1
SCARPITTA;1
SCAZZUSO;1
SCHARENBERG;1
SCHARF;1
SCHEFFER;1
SCHEIDEGGER;2
SCHEIDEMONTEL;1
SCHELIGE;1
SCHELLES;1
SCHEMES;1
SCHENCKEL;1
SCHERER;2
SCHERRER;1
SCHERZ;1
SCHETTINE;1
SCHIAVO;1
SCHIMIDT;2
SCHIMITH;1
SCHINDVAIN;1
SCHIPER;1
SCHIRNHOFER;1
SCHITTINI;1
SCHLUCKEBIER;1
SCHLUKEBIER;1
SCHMID;1
SCHMIDT;2
SCHMITT;1
SCHMITZ;1
SCHNABL;1
SCHNEIDER;3
SCHOPPA;1
SCHOTT;2
SCHPREJER;1
SCHRAMM;1
SCHREIDER;1
SCHTTINI;1
SCHUABB;1
SCHUABER;1
SCHUCHMAN;1
SCHUCK;1
SCHUELER;1
SCHUENCK;3
SCHUENGUE;1
SCHUINDT;1
SCHULLER;1
SCHULMAN;1
SCHULZE;1
SCHUMACK;1
SCHUMACKER;1
SCHUMANN;1
SCHVARTZMAN;1
SCHWAN;2
SCHWARTZ;2
SCIAMMARELLA;2
SCIESZKO;1
SCOFANO;3
SCOFIEL;1
SCORALICK;1
SCORALIK;1
SCORTECCI;1
SCORZA;1
SCRAMIGNOM;1
SE;2
SEABRA;5
SEBASTIAO;7
SECCO;2
SECONDO;1
SECUNDINO;3
SECUNHO;1
SEDA;1
SEDANO;2
SEDEU;1
SEELINGER;1
SEGADAES;1
SEGHETTO;1
SEGRE;1
SEGUI;1
SEGUNDO;5
SEGURO;1
SEHADE;1
SEHATZ;1
SEIBEL;1
SEICHAS;1
SEIDEL;1
SEIFEDDINE;1
SEIXAS;16
SELIPRANDY;2
SELLES;1
SELVA;1
SEMA;1
SEMBLANO;1
SEMEDO;1
SEMIAO;2
SEMINARIO;1
SENA;20
SENADER;1
SENARO;1
SENAS;1
SENATORE;1
SENCEITA;1
SENGER;1
SENGLING;1
SENHA;1
SENHORA;1
SENHORINHO;2
SENNA;11
SENRA;6
SENTINELI;1
SEPEDA;1
SEPULVEDA;3
SEPULVIDA;1
SEQUEIRA;5
SERAFIM;14
SERAFINO;1
SERAPHIM;3
SERAPIAO;1
SERAQUINE;1
SERAQUINI;1
SERDEIRA;1
SEREIO;1
SEREJO;2
SERENO;2
SERGIO;4
SERINO;1
SERIO;1
SERODIO;1
SEROES;1
SEROIS;1
SERPA;5
SERQUEIRA;1
SERRA;13
SERRALHEIRO;2
SERRANO;9
SERRAO;2
SERRAZINE;1
SERRI;1
SERRINHA;1
SERULHA;1
SERVARE;1
SERZEDELLO;1
SESAS;1
SESSA;1
SESTINE;1
SETA;2
SEURA;1
SEVALHO;1
SEVERIANO;3
SEVERINO;13
SEVERO;4
SGARAGLIA;1
SGARBI;1
SGRO;1
SHAD;2
SHAEFER;1
SHEIKHA;1
SHGIDIO;1
SHIEBER;1
SHINKADO;1
SHINZATO;1
SHIRATORI;1
SHIROIWA;1
SHOR;1
SIAS;6
SIBANTO;1
SICHI;1
SIDRONIO;1
SIETO;1
SIFFERT;1
SIGAIA;1
SIGGELKOW;1
SILA;1
SILIACIO;1
SILIYRAND;1
SILNA;1
SILOVA;1
SILV;1
SILVA;8934
SILVANO;4
SILVAOS;1
SILVAQ;1
SILVARES;1
SILVASILVA;1
SILVEIRA;161
SILVELLO;1
SILVERIO;7
SILVESTRE;5
SILVESTRI;1
SILVINO;5
SILVIO;2
SILVO;1
SIMAO;14
SIMAS;18
SIMBRA;1
SIMEAO;2
SIMEIRO;1
SIMI;1
SIMIAO;2
SIMOES;42
SIMON;1
SIMONATO;2
SIMONE;2
SIMONELLI;1
SIMONI;3
SIMONIN;1
SIMONINI;1
SIMPLICIO;7
SIMPOLIS;1
SINDER;1
SINDORF;1
SING;1
SINGER;1
SINHORINHO;1
SINQUINI;1
SION;1
SIPAUBA;1
SIQUEIRA;157
SIQUEIRAS;1
SIRATHEAU;1
SIRINO;1
SIRNES;1
SITELI;1
SIULVA;2
SIVA;1
SIVLA;3
SIVORI;1
SKACEL;1
SKARAMAGAS;1
SKINNER;1
SLAMA;1
SLVA;2
SMAO;1
SMIRIGLIO;1
SMITH;2
SNTOS;1
SOARES;474
SOBRAL;19
SOBREIRA;5
SOBREIRO;1
SOBRINHO;168
SOBRINO;1
SOCCI;1
SOCORRO;3
SODRE;17
SOEIRO;4
SOGEVIA;1
SOHN;1
SOL;1
SOLANO;2
SOLDATI;1
SOLE;2
SOLEDADE;1
SOLEDONIO;1
SOLER;1
SOLERINHO;1
SOLIVA;1
SOLLE;1
SOLOZABAL;1
SOLVA;1
SOLZA;1
SOMBRA;1
SOMERS;1
SOMESON;1
SONDRE;1
SONETOS;1
SONGBO;1
SONTI;1
SOOUSA;1
SORES;1
SORIA;1
SORIANO;2
SORRENTINO;1
SOSA;1
SOTELLO;1
SOTERIO;1
SOTIROPAULOS;1
SOUER;1
SOUIZA;1
SOULET;1
SOUSA;270
SOUTO;18
SOUZA;2562
SOUZART;1
SPADARI;1
SPERA;1
SPERANZA;1
SPINDOLA;1
SPINELIS;1
SPINELLI;1
SPINTO;1
SPITZ;1
SPOSITO;1
SPRONE;1
SPRUNG;1
SPUZA;1
STABILA;1
STAHL;1
STAIB;1
STALLI;1
STANESCON;1
STARCK;1
STARK;1
STARY;1
STASIO;1
STATHAKIS;1
STAVALE;1
STAVRIDIS;1
STEFANINI;1
STEFANO;1
STEFANON;1
STEIB;1
STEICHEL;1
STEIN;2
STEINBERG;2
STELLET;1
STEPHANO;1
STERCE;1
STERN;1
STERSI;1
STESSE;1
STIVANIN;1
STOCO;1
STODUTO;1
STOLZELIMA;1
STOR;1
STORCH;1
STORCK;2
STORINO;1
STRAMBI;1
STRENG;1
STRUTT;1
STTELET;1
STUCK;1
STULBACH;1
STUMM;1
STUMPF;2
STUTZ;2
SUARES;2
SUAREZ;3
SUASSUNA;1
SUAVE;1
SUCENA;1
SUCUPIRA;1
SUDRE;1
SUEIRA;1
SUETH;1
SUGAHARA;1
SUGIURA;1
SUHETT;4
SUIMASA;1
SUISSO;4
SUL;2
SULIK;1
SUMMAVIELE;1
SUPRIANO;2
SUREIN;1
SUTTER;1
SUZAN;1
SUZANA;1
SUZANO;3
SUZEDO;1
SWANBORN;1
SYLVIO;1
SZAFRAN;1
SZANTO;1
SZIGETHY;1
SZLECKA;1
SZNEJDER;1
SZTEINBERG;1
SZTERENBUCH;1
SZWARCBARG;1
T;1
TABAH;1
TABAS;1
TABASNIK;1
TABOADA;2
TABORDA;1
TACHO;1
TACQUES;1
TADA;1
TADDEI;1
TADEU;1
TAFURI;1
TAGARRO;1
TAGUTI;1
TAJIMA;1
TAKAOKA;1
TAKEUCHI;1
TAL;1
TALARICO;1
TALAVEIRA;2
TALIATOS;1
TALISSANO;1
TALLARIDA;1
TALON;1
TAMAKI;1
TAMBASCO;1
TAMELIN;1
TAMINATO;1
TANA;1
TANAKA;2
TANAQUE;1
TANCREDI;1
TANCREDO;2
TANI;1
TANIGMTI;1
TANNOUZ;1
TANORE;1
TANQUE;1
TANURE;1
TAPIA;1
TARANTINO;1
TARANTO;1
TARDEM;1
TARDIM;2
TARDIN;7
TARDIO;2
TARDIVO;1
TARDOGUE;1
TARGARRO;1
TARGINO;5
TARNOPOLSKY;1
TARSIA;1
TARTARUGA;1
TASSARA;1
TATAGIBA;2
TAUIL;1
TAURCIO;1
TAVAES;1
TAVARES;183
TAVARICO;1
TAVEIRA;12
TAVERNISO;1
TAVIL;1
TAVOLARO;1
TAVORA;1
TAXA;1
TAYLOR;1
TEBALDI;1
TEISTLER;1
TEIXEIRA;353
TEIXEIRAO;1
TELARICO;1
TELES;22
TELHO;1
TELLES;25
TELLINI;2
TELVA;1
TEMOTEO;1
TEMPONI;1
TEMPORIM;1
TENORIO;5
TENORIOI;1
TENREIRO;1
TEODORO;15
TEODOZIO;1
TEOFILO;1
TEOTONIO;1
TEREZA;3
TERRA;20
TERRANOVA;1
TERRY;2
TERTO;1
TERTULIANO;1
TESCH;2
TESTA;1
TESTHAY;1
TETEO;1
TEVES;1
TEXEIRA;2
TEZOLIN;1
THADEU;1
THALER;1
THEBALD;1
THEDIM;3
THEIS;1
THEISS;1
THEMUDO;1
THEOBALD;1
THEODORO;5
THEOPHILO;2
THIAGO;6
THIENGO;1
THIMOTEO;1
THOBIAS;1
THOMASI;1
THOMAZ;13
THOMAZIO;1
THOME;4
THOMPSON;2
THOMSON;1
THULER;1
THUREAU;1
THURLER;5
THURM;1
THUS;1
TIAGO;2
TIAO;1
TIBERTO;2
TIBIRICA;1
TIBURCIO;3
TICOM;1
TIENE;1
TIENGLO;1
TIMOTEO;3
TIMOTHEO;1
TINICO;1
TININ;1
TINOCO;17
TINOG;1
TINTO;1
TIRADENTES;3
TIRAPELLI;1
TISCATE;1
TISSI;1
TITO;6
TOBIAS;4
TODY;1
TOFANI;1
TOFFANO;1
TOIGO;1
TOJAL;1
TOJEIRO;1
TOLEDO;22
TOLENTINO;1
TOLINO;1
TOLOSA;1
TOMAS;1
TOMAZ;10
TOMAZINE;1
TOME;4
TOMES;1
TOMMASO;1
TONELLI;1
TONHERES;1
TONINI;1
TONOLLI;1
TOPINI;2
TOPPINI;1
TORCHO;1
TORELLY;1
TORETTA;1
TORNO;1
TORQUATO;4
TORRACA;1
TORRAO;1
TORRE;2
TORRES;96
TORRI;1
TORTATO;1
TORTELLI;1
TORTELOTI;1
TORTERELLA;1
TORTURELLI;1
TOSCANO;1
TOSTA;4
TOSTE;1
TOSTELOTE;1
TOSTES;7
TOUGUINHO;1
TOURINHO;3
TOUTOUNGI;1
TOZATO;1
TOZZI;1
TRABBOLD;1
TRAJANO;7
TRANCOSO;3
TRANCOZO;1
TRANSMONTANO;1
TRAVASSOS;4
TRAVESEDO;1
TRECHAU;1
TREGIONI;1
TRENTIN;2
TRESSOLDI;2
TREVELIN;1
TRIANON;1
TRICANI;1
TRICARICO;1
TRIGO;1
TRIGOLI;1
TRIGUEIRO;2
TRINDADE;45
TRINTIN;1
TRIPODI;1
TRISTAO;4
TRIUMPHO;1
TROCOLI;1
TROISE;1
TROJMAN;1
TROPE;2
TROTTE;1
TROVAO;1
TROVATO;1
TROYACK;2
TRUTA;1
TSCHIUVALISKI;1
TSUBONE;1
TSUDA;1
TUDESCO;1
TUFANI;1
TUPPAN;1
TURACA;1
TURINO;1
TURKIENICZ;1
TURL;1
TURMO;1
TURQUE;1
TURQUES;2
TURRA;1
TURSO;1
TUSSINI;2
TUTUNJI;1
TUXEN;1
UBAK;1
UBEIRA;1
UBLADO;1
UKO;1
ULIANO;2
ULISSES;1
ULLOA;1
ULRICH;2
ULRICHSEN;1
ULYSSEA;1
UNGER;1
URBANI;1
URSULA;1
UTZERI;1
VAGO;1
VAIRO;1
VAL;7
VALADAO;4
VALADARES;11
VALBERTO;1
VALDES;1
VALDIEIRO;1
VALDIVIESO;1
VALE;28
VALENCA;7
VALENCIO;1
VALENTE;16
VALENTIM;15
VALENTIN;2
VALENTINO;4
VALERIANO;3
VALERIO;8
VALERIOTE;2
VALERO;1
VALES;2
VALETIM;1
VALFRE;1
VALGAS;1
VALIENGO;1
VALIM;5
VALINHA;1
VALINHO;1
VALKMER;1
VALLADAO;2
VALLADARES;6
VALLE;31
VALLES;1
VALLIM;1
VALLOIS;1
VALNECA;1
VANATKO;1
VANCATO;1
VANCE;1
VANCELOTTE;1
VANDERLEI;2
VANDIREK;1
VANDYSTADT;1
VANELLI;1
VANGATO;1
VANI;1
VANS;1
VANTINE;1
VANZIN;1
VARANDA;2
VAREJAO;1
VARELA;5
VARELLA;5
VARGAS;35
VARGES;1
VARJAO;2
VASCO;1
VASCONCALOS;1
VASCONCELLOS;46
VASCONCELOS;60
VASQUES;6
VASQUEZ;2
VASSALLO;1
VASTI;1
VAURA;1
VAZ;29
VCASTRO;1
VEIGA;35
VELASCO;13
VELASQUE;2
VELASQUES;3
VELEZ;1
VELHENA;1
VELHO;1
VELLASCO;1
VELLOSO;6
VELLOZO;2
VELOSO;17
VELOZO;3
VELTRI;1
VEMIEIRO;1
VENACIO;1
VENANCIO;9
VENCENZI;1
VENCESLAO;1
VENCESLAU;2
VENDITTELLI;1
VENDRAMINI;2
VENEROSO;1
VENEZIA;1
VENTANA;1
VENTAPANE;2
VENTURA;42
VENTURI;1
VENTURINE;1
VERAS;9
VERCOSA;2
VERCY;1
VERDAM;2
VERDAN;1
VERDE;1
VEREZA;1
VERGARA;3
VERGETTE;1
VERGILIO;1
VERGINIO;1
VERGUEIRO;2
VERGULINO;1
VERISSIMO;5
VERLI;1
VERLY;7
VERNECK;1
VEROL;1
VERONEZ;1
VERRI;2
VERSARI;1
VERTIS;1
VERTULI;1
VERTULLI;1
VESPA;1
VETERE;1
VIANA;148
VIANEL;1
VIANNA;60
VIANO;1
VIARD;1
VICARIO;1
VICENTE;62
VICITORINO;1
VICTOR;10
VICTORINO;4
VICTORIO;3
VIDAL;51
VIDEIRA;2
VIEGAS;12
VIEIRA;393
VIEIRALVES;1
VIERIA;1
VIETRI;1
VIGA;1
VIGARIO;1
VIGILATO;1
VIGLONGO;2
VIGNAU;1
VIGNE;1
VIGNERAN;1
VIGNOLI;1
VIGUENON;1
VIITANIEMI;1
VILACA;1
VILANOVA;3
VILAR;4
VILARDELL;1
VILARDO;2
VILARINHOS;1
VILASCO;1
VILELA;12
VILHEGAS;1
VILHENA;3
VILLACA;4
VILLAFUERTE;1
VILLANUEVA;1
VILLAR;10
VILLARES;1
VILLELA;8
VIMERCATI;1
VINAGRE;3
VINCIPROVA;1
VINCZE;1
VINHA;1
VINHAES;1
VINHAIS;1
VINHAS;3
VINUTO;1
VIOLANTE;1
VIRGILIO;5
VIRGINIO;6
VIRGULINO;1
VIRLY;1
VIRTUOSO;2
VISITA;1
VITA;1
VITAL;5
VITALINO;2
VITIPO;1
VITOI;1
VITONSKI;1
VITOR;16
VITORIA;9
VITORIANO;1
VITORINO;12
VITORIO;6
VIVACQUA;1
VIVARELLI;1
VIVAS;3
VIVEIROS;2
VIVIANE;1
VIVIANO;1
VIVONE;1
VIZANI;1
VIZZONI;1
VOGAS;1
VOGEL;1
VOGT;2
VOIGT;1
VOLOTAO;1
VOUGA;1
VULLEI;1
VULPI;1
VUSTODIO;1
WAACK;1
WACKER;1
WAGNER;4
WAHRLICH;1
WAJSFUS;1
WAKIMOTO;1
WAKSMAN;1
WALDEMIRO;1
WALDHEIM;1
WALDHELM;1
WALFORT;1
WALKER;1
WALTER;1
WANDERLEY;5
WANDERNUREM;1
WANDICK;1
WANOUS;1
WANZELLER;2
WARKINGTON;1
WAROL;1
WATANABE;2
WAYAND;3
WEBER;1
WEDEKINOL;1
WEID;1
WEIL;1
WEILER;1
WELLER;1
WELTE;1
WENCESLAU;1
WENDEROSCH;1
WENDERROSCHI;1
WENDERROSCKY;1
WENDERROSKY;1
WENDLING;1
WERDT;1
WERMELINGER;6
WERNECK;14
WEXLER;1
WHITE;1
WIEBBELLING;1
WIECZOREK;1
WIGANO;1
WIGG;1
WIGHTMAN;1
WILDBERGER;1
WILEMEM;1
WILLEMEN;2
WILLERDING;1
WILLIMSEN;1
WILSER;1
WILSON;4
WINTER;2
WITT;1
WITTINE;1
WOELPL;1
WOLTI;1
WONHELD;1
WOODTLI;1
WOOLLEY;1
WORBCKEN;1
WORONIECKI;1
WRIGG;1
WUNSCH;1
WVENCHES;1
WYLER;1
WZVALE;1
XANDU;1
XARIGA;1
XAVAO;1
XAVIER;90
XIMENES;8
XISTO;1
YAMADA;1
YAMAGUCHI;1
YAMAMOTO;1
YAMASHITA;1
YANEZ;1
YANOFF;1
YEN;1
YGNACIO;1
YOKOYAMA;1
YOMEZAWA;1
YRIXINA;1
YTATTY;1
YUNES;1
ZACARIAS;6
ZACCONI;1
ZACHARIAS;5
ZACHI;1
ZADROZNY;1
ZAGHETTO;1
ZAHAL;1
ZAINE;1
ZAINOTTE;1
ZAINOTTI;1
ZALDINI;1
ZALIANE;1
ZAMAZI;1
ZAMBELLI;1
ZAMBOM;1
ZAMGOTI;1
ZAMPIER;1
ZANATTA;2
ZANCANER;1
ZANCCA;1
ZANDER;1
ZANELLI;1
ZANETH;1
ZANEZI;1
ZANGANELLI;1
ZANGEROLAME;1
ZANIN;1
ZANINI;2
ZANKER;1
ZANON;3
ZANONI;2
ZANOTI;1
ZANUTO;1
ZANZONI;1
ZAO;3
ZAPPA;1
ZAPPATERA;1
ZAPPONE;1
ZAQUIEU;1
ZARANDON;1
ZAROR;1
ZARRETE;1
ZAURINO;1
ZAVA;1
ZEBEDEU;1
ZEBENDE;1
ZEBULUN;1
ZECA;2
ZEFERINO;2
ZEITUNE;1
ZELLER;1
ZELLWEGER;1
ZENOBIO;1
ZEULI;1
ZIEGLER;1
ZIGNAGO;1
ZILBER;1
ZIMBRAO;1
ZINKAND;1
ZITO;2
ZOBELEM;1
ZOEGA;1
ZOTTOLO;1
ZOUXIONG;1
ZOZIMO;1
ZUCARINO;1
ZUCOLOTO;1
ZUZARTE;1
